<?xml version="1.0" encoding="UTF-8" standalone="no"?>
<svg
   width="256"
   height="256"
   viewBox="0 0 67.733332 67.733335"
   version="1.1"
   id="svg8"
   inkscape:version="1.1.2 (0a00cf5339, 2022-02-04)"
   sodipodi:docname="communicator.svg"
   xmlns:inkscape="http://www.inkscape.org/namespaces/inkscape"
   xmlns:sodipodi="http://sodipodi.sourceforge.net/DTD/sodipodi-0.dtd"
   xmlns="http://www.w3.org/2000/svg"
   xmlns:svg="http://www.w3.org/2000/svg"
   xmlns:rdf="http://www.w3.org/1999/02/22-rdf-syntax-ns#"
   xmlns:cc="http://creativecommons.org/ns#"
   xmlns:dc="http://purl.org/dc/elements/1.1/">
  <defs
     id="defs2" />
  <sodipodi:namedview
     id="base"
     pagecolor="#ffffff"
     bordercolor="#666666"
     borderopacity="1.0"
     inkscape:pageopacity="0"
     inkscape:pageshadow="2"
     inkscape:zoom="8"
     inkscape:cx="70.3125"
     inkscape:cy="134.375"
     inkscape:document-units="px"
     inkscape:current-layer="layer2"
     inkscape:document-rotation="0"
     showgrid="true"
     units="px"
     inkscape:window-width="2560"
     inkscape:window-height="1349"
     inkscape:window-x="1200"
     inkscape:window-y="240"
     inkscape:window-maximized="1"
     inkscape:snap-grids="true"
     inkscape:pagecheckerboard="0"
     inkscape:snap-smooth-nodes="true"
     inkscape:snap-object-midpoints="false"
     inkscape:object-nodes="true">
    <inkscape:grid
       type="xygrid"
       id="grid833"
       units="px"
       empspacing="4"
       spacingy="0.52916667"
       spacingx="0.52916667" />
  </sodipodi:namedview>
  <metadata
     id="metadata5">
    <rdf:RDF>
      <cc:Work
         rdf:about="">
        <dc:format>image/svg+xml</dc:format>
        <dc:type
           rdf:resource="http://purl.org/dc/dcmitype/StillImage" />
      </cc:Work>
    </rdf:RDF>
  </metadata>
  <g
     inkscape:groupmode="layer"
     id="layer3"
     inkscape:label="Hardware"
     style="display:inline"
     sodipodi:insensitive="true">
    <rect
       style="fill:#cccccc;stroke:#000000;stroke-width:0.264583;stroke-linecap:round;stroke-linejoin:bevel;stroke-miterlimit:4;stroke-dasharray:none;stop-color:#000000"
       id="rect944"
       width="7.4083333"
       height="11.641666"
       x="30.1625"
       y="28.045834"
       rx="1.0583336"
       ry="1.0583339" />
    <rect
       style="fill:#333333;stroke:#000000;stroke-width:0.287237;stroke-linecap:round;stroke-linejoin:bevel;stop-color:#000000"
       id="rect1120"
       width="6.349999"
       height="10.583332"
       x="30.691668"
       y="28.575001"
       rx="0.5291664"
       ry="0.5291667" />
  </g>
  <g
     inkscape:groupmode="layer"
     id="layer2"
     inkscape:label="Software">
    <text
       xml:space="preserve"
       style="font-size:1.41111px;line-height:1.25;font-family:Archivo;-inkscape-font-specification:'Archivo, Normal';font-variant-ligatures:none;fill:#ffffff;stroke-width:0.264583"
       x="31.134758"
       y="31.182074"
       id="text18868"><tspan
         sodipodi:role="line"
         id="tspan18866"
         style="font-style:normal;font-variant:normal;font-weight:normal;font-stretch:normal;font-family:Roboto;-inkscape-font-specification:Roboto;fill:#ffffff;stroke-width:0.264583"
         x="31.134758"
         y="31.182074">12:15</tspan></text>
    <text
       xml:space="preserve"
       style="font-size:0.341866px;line-height:1.25;font-family:Archivo;-inkscape-font-specification:'Archivo, Normal';font-variant-ligatures:none;fill:#ffffff;stroke-width:0.264583"
       x="31.239712"
       y="29.168131"
       id="text29420"><tspan
         sodipodi:role="line"
         id="tspan29418"
         style="fill:#ffffff;stroke-width:0.264583"
         x="31.239712"
         y="29.168131">1105-324</tspan></text>
    <text
       xml:space="preserve"
       style="font-size:0.341866px;line-height:1.25;font-family:Archivo;-inkscape-font-specification:'Archivo, Normal';font-variant-ligatures:none;fill:#ffffff;stroke-width:0.264583"
       x="31.246401"
       y="29.544632"
       id="text29420-1"><tspan
         sodipodi:role="line"
         id="tspan29418-3"
         style="fill:#ffffff;stroke-width:0.264583"
         x="31.246401"
         y="29.544632">Tobia / Trojan Reach</tspan></text>
    <text
       xml:space="preserve"
       style="font-size:0.672694px;line-height:1.25;font-family:Archivo;-inkscape-font-specification:'Archivo, Normal';font-variant-ligatures:none;fill:#ffffff;stroke-width:0.264583"
       x="33.211578"
       y="38.680244"
       id="text39925"><tspan
         sodipodi:role="line"
         id="tspan39923"
         style="fill:#ffffff;stroke-width:0.264583"
         x="33.211578"
         y="38.680244">86%</tspan></text>
    <g
       id="g43171"
       style="fill:none"
       transform="translate(11.641667,4.7624999)">
      <path
         style="fill:none;stroke:#b3b3b3;stroke-width:0.264583;stroke-linecap:round;stroke-linejoin:bevel;stroke-miterlimit:4;stroke-dasharray:none;stop-color:#000000"
         d="m 23.283333,31.75 c -0.529166,0.529167 -1.5875,0.529167 -2.116667,0 0.529167,-0.529166 1.587501,-0.529166 2.116667,0 z"
         id="path42224"
         sodipodi:nodetypes="ccc" />
      <circle
         style="fill:none;stroke:#b3b3b3;stroke-width:0.264583;stroke-linecap:round;stroke-linejoin:bevel;stroke-miterlimit:4;stroke-dasharray:none;stop-color:#000000"
         id="path43065"
         cx="22.225"
         cy="31.75"
         r="0.26458332" />
    </g>
    <path
       style="fill:none;stroke:#ff0000;stroke-width:0.13229167;stroke-linecap:round;stroke-linejoin:bevel;stroke-miterlimit:4;stroke-dasharray:none;stop-color:#000000"
       d="M 31.220834,32.259794 V 31.730628 L 31.485417,31.995211 31.75,31.730628 v 0.529166"
       id="path43277" />
    <path
       style="fill:none;stroke:#cccccc;stroke-width:0.132292;stroke-linecap:round;stroke-linejoin:bevel;stroke-miterlimit:4;stroke-dasharray:none;stop-color:#000000"
       d="m 31.220833,32.808333 v 1.058333 0"
       id="path43447" />
    <path
       style="fill:none;stroke:#cccccc;stroke-width:0.132292;stroke-linecap:round;stroke-linejoin:bevel;stroke-miterlimit:4;stroke-dasharray:none;stop-color:#000000"
       d="M 31.75,32.808333 31.220833,33.3375 31.75,33.866666"
       id="path43449" />
    <path
       style="fill:none;stroke:#cccccc;stroke-width:0.132292;stroke-linecap:round;stroke-linejoin:bevel;stroke-miterlimit:4;stroke-dasharray:none;stop-color:#000000"
       d="m 36.5125,32.808333 v 1.058333"
       id="path43484" />
    <path
       style="fill:none;stroke:#cccccc;stroke-width:0.132292;stroke-linecap:round;stroke-linejoin:bevel;stroke-miterlimit:4;stroke-dasharray:none;stop-color:#000000"
       d="M 35.983333,32.808333 36.5125,33.3375 35.983333,33.866666"
       id="path43486" />
    <path
       style="fill:none;stroke:#cccccc;stroke-width:0.132292;stroke-linecap:round;stroke-linejoin:bevel;stroke-miterlimit:4;stroke-dasharray:none;stop-color:#000000"
       d="M 34.925,32.808333 35.454166,33.3375 34.925,33.866666"
       id="path43488" />
    <path
       style="fill:none;stroke:#cccccc;stroke-width:0.132292;stroke-linecap:round;stroke-linejoin:bevel;stroke-miterlimit:4;stroke-dasharray:none;stop-color:#000000"
       d="m 32.808333,32.808333 -0.529167,0.529167 0.529167,0.529166"
       id="path43490" />
    <path
       style="fill:#cccccc;stroke:#cccccc;stroke-width:0.132292;stroke-linecap:round;stroke-linejoin:bevel;stroke-miterlimit:4;stroke-dasharray:none;stop-color:#000000"
       d="m 33.3375,32.808333 v 1.058333 h 1.058333 V 32.808333 H 33.3375"
       id="path43492" />
  </g>
</svg>
