<?xml version="1.0" encoding="UTF-8" standalone="no"?>
<svg
   width="256"
   height="256"
   viewBox="0 0 67.733332 67.733335"
   version="1.1"
   id="svg8"
   inkscape:version="1.1.2 (0a00cf5339, 2022-02-04)"
   sodipodi:docname="food_box.svg"
   xmlns:inkscape="http://www.inkscape.org/namespaces/inkscape"
   xmlns:sodipodi="http://sodipodi.sourceforge.net/DTD/sodipodi-0.dtd"
   xmlns="http://www.w3.org/2000/svg"
   xmlns:svg="http://www.w3.org/2000/svg"
   xmlns:rdf="http://www.w3.org/1999/02/22-rdf-syntax-ns#"
   xmlns:cc="http://creativecommons.org/ns#"
   xmlns:dc="http://purl.org/dc/elements/1.1/">
  <defs
     id="defs2" />
  <sodipodi:namedview
     id="base"
     pagecolor="#ffffff"
     bordercolor="#666666"
     borderopacity="1.0"
     inkscape:pageopacity="0"
     inkscape:pageshadow="2"
     inkscape:zoom="3.959798"
     inkscape:cx="82.70624"
     inkscape:cy="83.842661"
     inkscape:document-units="px"
     inkscape:current-layer="layer2"
     inkscape:document-rotation="0"
     showgrid="true"
     units="px"
     inkscape:window-width="2560"
     inkscape:window-height="1349"
     inkscape:window-x="1200"
     inkscape:window-y="240"
     inkscape:window-maximized="1"
     inkscape:snap-grids="false"
     inkscape:pagecheckerboard="0"
     inkscape:snap-smooth-nodes="true">
    <inkscape:grid
       type="xygrid"
       id="grid833"
       units="px"
       empspacing="4"
       spacingy="0.52916667"
       spacingx="0.52916667" />
  </sodipodi:namedview>
  <metadata
     id="metadata5">
    <rdf:RDF>
      <cc:Work
         rdf:about="">
        <dc:format>image/svg+xml</dc:format>
        <dc:type
           rdf:resource="http://purl.org/dc/dcmitype/StillImage" />
      </cc:Work>
    </rdf:RDF>
  </metadata>
  <g
     inkscape:groupmode="layer"
     id="layer3"
     inkscape:label="Box"
     style="display:inline"
     sodipodi:insensitive="true">
    <rect
       style="fill:#004455;fill-opacity:0.999079;stroke:#0088aa;stroke-width:1.05833;stroke-linecap:round;stroke-linejoin:round;stroke-opacity:0.999962;stop-color:#000000"
       id="rect1046"
       width="11.641668"
       height="20.108332"
       x="28.045834"
       y="23.812498"
       rx="1.5874997"
       ry="1.5875021" />
    <rect
       style="fill:#5fbcd3;fill-opacity:0.999079;stroke:#afdde9;stroke-width:0.529167;stroke-linecap:round;stroke-linejoin:round;stroke-miterlimit:4;stroke-dasharray:none;stroke-opacity:0.999962;stop-color:#000000"
       id="rect1233"
       width="9.5250006"
       height="12.170835"
       x="29.104166"
       y="30.691666"
       rx="0.52916539"
       ry="0.52916789" />
    <rect
       style="display:inline;fill:#d45500;fill-opacity:0.999079;stroke:#ff7f2a;stroke-width:0.529167;stroke-linecap:round;stroke-linejoin:round;stroke-miterlimit:4;stroke-dasharray:none;stroke-opacity:0.999962;stop-color:#000000"
       id="rect1233-5"
       width="9.5250006"
       height="5.291666"
       x="29.104166"
       y="24.870834"
       rx="0.52916539"
       ry="0.52916789" />
  </g>
  <g
     inkscape:groupmode="layer"
     id="layer2"
     inkscape:label="Food">
    <ellipse
       style="fill:#cccccc;fill-opacity:0.999079;stroke:#e6e6e6;stroke-width:0.264583;stroke-linecap:round;stroke-linejoin:round;stroke-miterlimit:4;stroke-dasharray:none;stroke-opacity:0.999962;stop-color:#000000"
       id="path849"
       cx="44.840408"
       cy="-19.553675"
       rx="0.26458332"
       ry="0.52916664"
       transform="rotate(65.846886)" />
    <ellipse
       style="fill:#cccccc;fill-opacity:0.999079;stroke:#e6e6e6;stroke-width:0.264583;stroke-linecap:round;stroke-linejoin:round;stroke-miterlimit:4;stroke-dasharray:none;stroke-opacity:0.999962;stop-color:#000000"
       id="path849-3"
       cx="45.898743"
       cy="-17.43701"
       rx="0.26458332"
       ry="0.52916664"
       transform="rotate(65.846886)" />
    <ellipse
       style="fill:#cccccc;fill-opacity:0.999079;stroke:#e6e6e6;stroke-width:0.264583;stroke-linecap:round;stroke-linejoin:round;stroke-miterlimit:4;stroke-dasharray:none;stroke-opacity:0.999962;stop-color:#000000"
       id="path849-9"
       cx="46.957077"
       cy="-15.849509"
       rx="0.26458332"
       ry="0.52916664"
       transform="rotate(65.846886)" />
    <ellipse
       style="fill:#cccccc;fill-opacity:0.999079;stroke:#e6e6e6;stroke-width:0.264583;stroke-linecap:round;stroke-linejoin:round;stroke-miterlimit:4;stroke-dasharray:none;stroke-opacity:0.999962;stop-color:#000000"
       id="path849-1"
       cx="48.544575"
       cy="-17.43701"
       rx="0.26458332"
       ry="0.52916664"
       transform="rotate(65.846886)" />
    <ellipse
       style="fill:#cccccc;fill-opacity:0.999079;stroke:#e6e6e6;stroke-width:0.264583;stroke-linecap:round;stroke-linejoin:round;stroke-miterlimit:4;stroke-dasharray:none;stroke-opacity:0.999962;stop-color:#000000"
       id="path849-96"
       cx="47.48624"
       cy="-19.024508"
       rx="0.26458332"
       ry="0.52916664"
       transform="rotate(65.846886)" />
    <ellipse
       style="fill:#cccccc;fill-opacity:0.999079;stroke:#e6e6e6;stroke-width:0.264583;stroke-linecap:round;stroke-linejoin:round;stroke-miterlimit:4;stroke-dasharray:none;stroke-opacity:0.999962;stop-color:#000000"
       id="path849-93"
       cx="45.369576"
       cy="-17.43701"
       rx="0.26458332"
       ry="0.52916664"
       transform="rotate(65.846886)" />
    <ellipse
       style="fill:#cccccc;fill-opacity:0.999079;stroke:#e6e6e6;stroke-width:0.264583;stroke-linecap:round;stroke-linejoin:round;stroke-miterlimit:4;stroke-dasharray:none;stroke-opacity:0.999962;stop-color:#000000"
       id="path849-38"
       cx="45.369576"
       cy="-14.262012"
       rx="0.26458332"
       ry="0.52916664"
       transform="rotate(65.846886)" />
    <ellipse
       style="fill:#cccccc;fill-opacity:0.999079;stroke:#e6e6e6;stroke-width:0.264583;stroke-linecap:round;stroke-linejoin:round;stroke-miterlimit:4;stroke-dasharray:none;stroke-opacity:0.999962;stop-color:#000000"
       id="path849-0"
       cx="48.544575"
       cy="-13.203677"
       rx="0.26458332"
       ry="0.52916664"
       transform="rotate(65.846886)" />
    <ellipse
       style="fill:#cccccc;fill-opacity:0.999079;stroke:#e6e6e6;stroke-width:0.264583;stroke-linecap:round;stroke-linejoin:round;stroke-miterlimit:4;stroke-dasharray:none;stroke-opacity:0.999962;stop-color:#000000"
       id="path849-5"
       cx="46.957077"
       cy="-12.145343"
       rx="0.26458332"
       ry="0.52916664"
       transform="rotate(65.846886)" />
    <ellipse
       style="fill:#cccccc;fill-opacity:0.999079;stroke:#e6e6e6;stroke-width:0.264583;stroke-linecap:round;stroke-linejoin:round;stroke-miterlimit:4;stroke-dasharray:none;stroke-opacity:0.999962;stop-color:#000000"
       id="path849-6"
       cx="45.898743"
       cy="-13.203677"
       rx="0.26458332"
       ry="0.52916664"
       transform="rotate(65.846886)" />
    <ellipse
       style="fill:#cccccc;fill-opacity:0.999079;stroke:#e6e6e6;stroke-width:0.264583;stroke-linecap:round;stroke-linejoin:round;stroke-miterlimit:4;stroke-dasharray:none;stroke-opacity:0.999962;stop-color:#000000"
       id="path849-64"
       cx="49.073742"
       cy="-15.849509"
       rx="0.26458332"
       ry="0.52916664"
       transform="rotate(65.846886)" />
    <ellipse
       style="fill:#cccccc;fill-opacity:0.999079;stroke:#e6e6e6;stroke-width:0.264583;stroke-linecap:round;stroke-linejoin:round;stroke-miterlimit:4;stroke-dasharray:none;stroke-opacity:0.999962;stop-color:#000000"
       id="path849-00"
       cx="50.132076"
       cy="-16.378675"
       rx="0.26458332"
       ry="0.52916664"
       transform="rotate(65.846886)" />
    <ellipse
       style="fill:#cccccc;fill-opacity:0.999079;stroke:#e6e6e6;stroke-width:0.264583;stroke-linecap:round;stroke-linejoin:round;stroke-miterlimit:4;stroke-dasharray:none;stroke-opacity:0.999962;stop-color:#000000"
       id="path849-4"
       cx="50.132076"
       cy="-17.966177"
       rx="0.26458332"
       ry="0.52916664"
       transform="rotate(65.846886)" />
    <ellipse
       style="fill:#cccccc;fill-opacity:0.999079;stroke:#e6e6e6;stroke-width:0.264583;stroke-linecap:round;stroke-linejoin:round;stroke-miterlimit:4;stroke-dasharray:none;stroke-opacity:0.999962;stop-color:#000000"
       id="path849-62"
       cx="47.48624"
       cy="-19.024508"
       rx="0.26458332"
       ry="0.52916664"
       transform="rotate(65.846886)" />
    <ellipse
       style="fill:#cccccc;fill-opacity:0.999079;stroke:#e6e6e6;stroke-width:0.264583;stroke-linecap:round;stroke-linejoin:round;stroke-miterlimit:4;stroke-dasharray:none;stroke-opacity:0.999962;stop-color:#000000"
       id="path849-67"
       cx="46.42791"
       cy="-17.43701"
       rx="0.26458332"
       ry="0.52916664"
       transform="rotate(65.846886)" />
    <ellipse
       style="fill:#cccccc;fill-opacity:0.999079;stroke:#e6e6e6;stroke-width:0.264583;stroke-linecap:round;stroke-linejoin:round;stroke-miterlimit:4;stroke-dasharray:none;stroke-opacity:0.999962;stop-color:#000000"
       id="path849-56"
       cx="45.898743"
       cy="-16.378675"
       rx="0.26458332"
       ry="0.52916664"
       transform="rotate(65.846886)" />
    <ellipse
       style="fill:#cccccc;fill-opacity:0.999079;stroke:#e6e6e6;stroke-width:0.264583;stroke-linecap:round;stroke-linejoin:round;stroke-miterlimit:4;stroke-dasharray:none;stroke-opacity:0.999962;stop-color:#000000"
       id="path849-98"
       cx="45.369576"
       cy="-13.732844"
       rx="0.26458332"
       ry="0.52916664"
       transform="rotate(65.846886)" />
    <ellipse
       style="fill:#cccccc;fill-opacity:0.999079;stroke:#e6e6e6;stroke-width:0.264583;stroke-linecap:round;stroke-linejoin:round;stroke-miterlimit:4;stroke-dasharray:none;stroke-opacity:0.999962;stop-color:#000000"
       id="path849-7"
       cx="44.311241"
       cy="-15.849509"
       rx="0.26458332"
       ry="0.52916664"
       transform="rotate(65.846886)" />
    <ellipse
       style="fill:#cccccc;fill-opacity:0.999079;stroke:#e6e6e6;stroke-width:0.264583;stroke-linecap:round;stroke-linejoin:round;stroke-miterlimit:4;stroke-dasharray:none;stroke-opacity:0.999962;stop-color:#000000"
       id="path849-2"
       cx="44.840408"
       cy="-17.966177"
       rx="0.26458332"
       ry="0.52916664"
       transform="rotate(65.846886)" />
    <ellipse
       style="fill:#cccccc;fill-opacity:0.999079;stroke:#e6e6e6;stroke-width:0.264583;stroke-linecap:round;stroke-linejoin:round;stroke-miterlimit:4;stroke-dasharray:none;stroke-opacity:0.999962;stop-color:#000000"
       id="path849-8"
       cx="45.898743"
       cy="-19.024508"
       rx="0.26458332"
       ry="0.52916664"
       transform="rotate(65.846886)" />
    <ellipse
       style="fill:#cccccc;fill-opacity:0.999079;stroke:#e6e6e6;stroke-width:0.264583;stroke-linecap:round;stroke-linejoin:round;stroke-miterlimit:4;stroke-dasharray:none;stroke-opacity:0.999962;stop-color:#000000"
       id="path849-29"
       cx="48.015408"
       cy="-15.320342"
       rx="0.26458332"
       ry="0.52916664"
       transform="rotate(65.846886)" />
    <ellipse
       style="fill:#cccccc;fill-opacity:0.999079;stroke:#e6e6e6;stroke-width:0.264583;stroke-linecap:round;stroke-linejoin:round;stroke-miterlimit:4;stroke-dasharray:none;stroke-opacity:0.999962;stop-color:#000000"
       id="path849-960"
       cx="46.957077"
       cy="-14.791179"
       rx="0.26458332"
       ry="0.52916664"
       transform="rotate(65.846886)" />
    <ellipse
       style="fill:#cccccc;fill-opacity:0.999079;stroke:#e6e6e6;stroke-width:0.264583;stroke-linecap:round;stroke-linejoin:round;stroke-miterlimit:4;stroke-dasharray:none;stroke-opacity:0.999962;stop-color:#000000"
       id="path849-27"
       cx="48.544575"
       cy="-14.262012"
       rx="0.26458332"
       ry="0.52916664"
       transform="rotate(65.846886)" />
    <ellipse
       style="fill:#cccccc;fill-opacity:0.999079;stroke:#e6e6e6;stroke-width:0.264583;stroke-linecap:round;stroke-linejoin:round;stroke-miterlimit:4;stroke-dasharray:none;stroke-opacity:0.999962;stop-color:#000000"
       id="path849-61"
       cx="49.602909"
       cy="-15.320342"
       rx="0.26458332"
       ry="0.52916664"
       transform="rotate(65.846886)" />
    <ellipse
       style="fill:#cccccc;fill-opacity:0.999079;stroke:#e6e6e6;stroke-width:0.264583;stroke-linecap:round;stroke-linejoin:round;stroke-miterlimit:4;stroke-dasharray:none;stroke-opacity:0.999962;stop-color:#000000"
       id="path849-32"
       cx="50.661243"
       cy="-18.495344"
       rx="0.26458332"
       ry="0.52916664"
       transform="rotate(65.846886)" />
    <ellipse
       style="fill:#cccccc;fill-opacity:0.999079;stroke:#e6e6e6;stroke-width:0.264583;stroke-linecap:round;stroke-linejoin:round;stroke-miterlimit:4;stroke-dasharray:none;stroke-opacity:0.999962;stop-color:#000000"
       id="path849-15"
       cx="42.49271"
       cy="-15.279737"
       rx="0.26458332"
       ry="0.52916664"
       transform="rotate(65.846886)" />
    <ellipse
       style="fill:#cccccc;fill-opacity:0.999079;stroke:#e6e6e6;stroke-width:0.264583;stroke-linecap:round;stroke-linejoin:round;stroke-miterlimit:4;stroke-dasharray:none;stroke-opacity:0.999962;stop-color:#000000"
       id="path849-99"
       cx="46.42791"
       cy="-20.612009"
       rx="0.26458332"
       ry="0.52916664"
       transform="rotate(65.846886)" />
    <ellipse
       style="fill:#cccccc;fill-opacity:0.999079;stroke:#e6e6e6;stroke-width:0.264583;stroke-linecap:round;stroke-linejoin:round;stroke-miterlimit:4;stroke-dasharray:none;stroke-opacity:0.999962;stop-color:#000000"
       id="path849-14"
       cx="46.42791"
       cy="-20.612009"
       rx="0.26458332"
       ry="0.52916664"
       transform="rotate(65.846886)" />
    <ellipse
       style="fill:#cccccc;fill-opacity:0.999079;stroke:#e6e6e6;stroke-width:0.264583;stroke-linecap:round;stroke-linejoin:round;stroke-miterlimit:4;stroke-dasharray:none;stroke-opacity:0.999962;stop-color:#000000"
       id="path849-91"
       cx="46.42791"
       cy="-19.553675"
       rx="0.26458332"
       ry="0.52916664"
       transform="rotate(65.846886)" />
    <ellipse
       style="fill:#cccccc;fill-opacity:0.999079;stroke:#e6e6e6;stroke-width:0.264583;stroke-linecap:round;stroke-linejoin:round;stroke-miterlimit:4;stroke-dasharray:none;stroke-opacity:0.999962;stop-color:#000000"
       id="path849-07"
       cx="46.42791"
       cy="-19.024508"
       rx="0.26458332"
       ry="0.52916664"
       transform="rotate(65.846886)" />
    <ellipse
       style="fill:#cccccc;fill-opacity:0.999079;stroke:#e6e6e6;stroke-width:0.264583;stroke-linecap:round;stroke-linejoin:round;stroke-miterlimit:4;stroke-dasharray:none;stroke-opacity:0.999962;stop-color:#000000"
       id="path849-58"
       cx="46.42791"
       cy="-18.495344"
       rx="0.26458332"
       ry="0.52916664"
       transform="rotate(65.846886)" />
    <ellipse
       style="fill:#cccccc;fill-opacity:0.999079;stroke:#e6e6e6;stroke-width:0.264583;stroke-linecap:round;stroke-linejoin:round;stroke-miterlimit:4;stroke-dasharray:none;stroke-opacity:0.999962;stop-color:#000000"
       id="path849-70"
       cx="45.699535"
       cy="13.801292"
       rx="0.26458332"
       ry="0.52916664"
       transform="rotate(28.977)" />
    <ellipse
       style="fill:#cccccc;fill-opacity:0.999079;stroke:#e6e6e6;stroke-width:0.264583;stroke-linecap:round;stroke-linejoin:round;stroke-miterlimit:4;stroke-dasharray:none;stroke-opacity:0.999962;stop-color:#000000"
       id="path849-48"
       cx="50.462036"
       cy="14.859627"
       rx="0.26458332"
       ry="0.52916664"
       transform="rotate(28.977)" />
    <ellipse
       style="fill:#cccccc;fill-opacity:0.999079;stroke:#e6e6e6;stroke-width:0.264583;stroke-linecap:round;stroke-linejoin:round;stroke-miterlimit:4;stroke-dasharray:none;stroke-opacity:0.999962;stop-color:#000000"
       id="path849-04"
       cx="46.228703"
       cy="18.034626"
       rx="0.26458332"
       ry="0.52916664"
       transform="rotate(28.977)" />
    <ellipse
       style="fill:#cccccc;fill-opacity:0.999079;stroke:#e6e6e6;stroke-width:0.264583;stroke-linecap:round;stroke-linejoin:round;stroke-miterlimit:4;stroke-dasharray:none;stroke-opacity:0.999962;stop-color:#000000"
       id="path849-296"
       cx="46.228703"
       cy="19.622128"
       rx="0.26458332"
       ry="0.52916664"
       transform="rotate(28.977)" />
    <ellipse
       style="fill:#cccccc;fill-opacity:0.999079;stroke:#e6e6e6;stroke-width:0.264583;stroke-linecap:round;stroke-linejoin:round;stroke-miterlimit:4;stroke-dasharray:none;stroke-opacity:0.999962;stop-color:#000000"
       id="path849-10"
       cx="48.345367"
       cy="20.151295"
       rx="0.26458332"
       ry="0.52916664"
       transform="rotate(28.977)" />
    <ellipse
       style="fill:#cccccc;fill-opacity:0.999079;stroke:#e6e6e6;stroke-width:0.264583;stroke-linecap:round;stroke-linejoin:round;stroke-miterlimit:4;stroke-dasharray:none;stroke-opacity:0.999962;stop-color:#000000"
       id="path849-42"
       cx="49.403702"
       cy="19.09296"
       rx="0.26458332"
       ry="0.52916664"
       transform="rotate(28.977)" />
    <ellipse
       style="fill:#cccccc;fill-opacity:0.999079;stroke:#e6e6e6;stroke-width:0.264583;stroke-linecap:round;stroke-linejoin:round;stroke-miterlimit:4;stroke-dasharray:none;stroke-opacity:0.999962;stop-color:#000000"
       id="path849-22"
       cx="45.964119"
       cy="15.388794"
       rx="0.26458332"
       ry="0.52916664"
       transform="rotate(28.977)" />
    <ellipse
       style="fill:#cccccc;fill-opacity:0.999079;stroke:#e6e6e6;stroke-width:0.264583;stroke-linecap:round;stroke-linejoin:round;stroke-miterlimit:4;stroke-dasharray:none;stroke-opacity:0.999962;stop-color:#000000"
       id="path849-05"
       cx="52.202263"
       cy="18.419168"
       rx="0.26458332"
       ry="0.52916664"
       transform="rotate(28.977)" />
    <ellipse
       style="fill:#cccccc;fill-opacity:0.999079;stroke:#e6e6e6;stroke-width:0.264583;stroke-linecap:round;stroke-linejoin:round;stroke-miterlimit:4;stroke-dasharray:none;stroke-opacity:0.999962;stop-color:#000000"
       id="path849-88"
       cx="32.014584"
       cy="39.6875"
       rx="0.26458332"
       ry="0.52916664" />
    <ellipse
       style="fill:#cccccc;fill-opacity:0.999079;stroke:#e6e6e6;stroke-width:0.264583;stroke-linecap:round;stroke-linejoin:round;stroke-miterlimit:4;stroke-dasharray:none;stroke-opacity:0.999962;stop-color:#000000"
       id="path849-86"
       cx="33.602085"
       cy="39.158333"
       rx="0.26458332"
       ry="0.52916664" />
    <ellipse
       style="fill:#cccccc;fill-opacity:0.999079;stroke:#e6e6e6;stroke-width:0.264583;stroke-linecap:round;stroke-linejoin:round;stroke-miterlimit:4;stroke-dasharray:none;stroke-opacity:0.999962;stop-color:#000000"
       id="path849-83"
       cx="32.014584"
       cy="37.041668"
       rx="0.26458332"
       ry="0.52916664" />
    <ellipse
       style="fill:#cccccc;fill-opacity:0.999079;stroke:#e6e6e6;stroke-width:0.264583;stroke-linecap:round;stroke-linejoin:round;stroke-miterlimit:4;stroke-dasharray:none;stroke-opacity:0.999962;stop-color:#000000"
       id="path849-833"
       cx="31.485416"
       cy="34.395832"
       rx="0.26458332"
       ry="0.52916664" />
    <ellipse
       style="fill:#cccccc;fill-opacity:0.999079;stroke:#e6e6e6;stroke-width:0.264583;stroke-linecap:round;stroke-linejoin:round;stroke-miterlimit:4;stroke-dasharray:none;stroke-opacity:0.999962;stop-color:#000000"
       id="path849-3804"
       cx="29.897917"
       cy="32.279167"
       rx="0.26458332"
       ry="0.52916664" />
    <ellipse
       style="fill:#cccccc;fill-opacity:0.999079;stroke:#e6e6e6;stroke-width:0.264583;stroke-linecap:round;stroke-linejoin:round;stroke-miterlimit:4;stroke-dasharray:none;stroke-opacity:0.999962;stop-color:#000000"
       id="path849-76"
       cx="36.247917"
       cy="31.75"
       rx="0.26458332"
       ry="0.52916664" />
    <ellipse
       style="fill:#cccccc;fill-opacity:0.999079;stroke:#e6e6e6;stroke-width:0.264583;stroke-linecap:round;stroke-linejoin:round;stroke-miterlimit:4;stroke-dasharray:none;stroke-opacity:0.999962;stop-color:#000000"
       id="path849-89"
       cx="37.306252"
       cy="32.279167"
       rx="0.26458332"
       ry="0.52916664" />
    <ellipse
       style="fill:#cccccc;fill-opacity:0.999079;stroke:#e6e6e6;stroke-width:0.264583;stroke-linecap:round;stroke-linejoin:round;stroke-miterlimit:4;stroke-dasharray:none;stroke-opacity:0.999962;stop-color:#000000"
       id="path849-06"
       cx="37.306252"
       cy="34.924999"
       rx="0.26458332"
       ry="0.52916664" />
    <ellipse
       style="fill:#cccccc;fill-opacity:0.999079;stroke:#e6e6e6;stroke-width:0.264583;stroke-linecap:round;stroke-linejoin:round;stroke-miterlimit:4;stroke-dasharray:none;stroke-opacity:0.999962;stop-color:#000000"
       id="path849-87"
       cx="37.306252"
       cy="37.041668"
       rx="0.26458332"
       ry="0.52916664" />
    <ellipse
       style="fill:#cccccc;fill-opacity:0.999079;stroke:#e6e6e6;stroke-width:0.264583;stroke-linecap:round;stroke-linejoin:round;stroke-miterlimit:4;stroke-dasharray:none;stroke-opacity:0.999962;stop-color:#000000"
       id="path849-903"
       cx="35.71875"
       cy="38.099998"
       rx="0.26458332"
       ry="0.52916664" />
    <ellipse
       style="fill:#cccccc;fill-opacity:0.999079;stroke:#e6e6e6;stroke-width:0.264583;stroke-linecap:round;stroke-linejoin:round;stroke-miterlimit:4;stroke-dasharray:none;stroke-opacity:0.999962;stop-color:#000000"
       id="path849-33"
       cx="37.306252"
       cy="40.216667"
       rx="0.26458332"
       ry="0.52916664" />
    <ellipse
       style="fill:#cccccc;fill-opacity:0.999079;stroke:#e6e6e6;stroke-width:0.264583;stroke-linecap:round;stroke-linejoin:round;stroke-miterlimit:4;stroke-dasharray:none;stroke-opacity:0.999962;stop-color:#000000"
       id="path849-73"
       cx="35.71875"
       cy="41.275002"
       rx="0.26458332"
       ry="0.52916664" />
    <ellipse
       style="fill:#cccccc;fill-opacity:0.999079;stroke:#e6e6e6;stroke-width:0.264583;stroke-linecap:round;stroke-linejoin:round;stroke-miterlimit:4;stroke-dasharray:none;stroke-opacity:0.999962;stop-color:#000000"
       id="path849-26"
       cx="34.660416"
       cy="40.216667"
       rx="0.26458332"
       ry="0.52916664" />
    <ellipse
       style="fill:#cccccc;fill-opacity:0.999079;stroke:#e6e6e6;stroke-width:0.264583;stroke-linecap:round;stroke-linejoin:round;stroke-miterlimit:4;stroke-dasharray:none;stroke-opacity:0.999962;stop-color:#000000"
       id="path849-526"
       cx="30.956249"
       cy="41.804169"
       rx="0.26458332"
       ry="0.52916664" />
    <ellipse
       style="fill:#cccccc;fill-opacity:0.999079;stroke:#e6e6e6;stroke-width:0.264583;stroke-linecap:round;stroke-linejoin:round;stroke-miterlimit:4;stroke-dasharray:none;stroke-opacity:0.999962;stop-color:#000000"
       id="path849-587"
       cx="29.897917"
       cy="36.512501"
       rx="0.26458332"
       ry="0.52916664" />
    <ellipse
       style="fill:#cccccc;fill-opacity:0.999079;stroke:#e6e6e6;stroke-width:0.264583;stroke-linecap:round;stroke-linejoin:round;stroke-miterlimit:4;stroke-dasharray:none;stroke-opacity:0.999962;stop-color:#000000"
       id="path849-9604"
       cx="-34.925056"
       cy="30.956184"
       rx="0.26458332"
       ry="0.52916664"
       transform="rotate(-90.000106)" />
    <ellipse
       style="fill:#cccccc;fill-opacity:0.999079;stroke:#e6e6e6;stroke-width:0.264583;stroke-linecap:round;stroke-linejoin:round;stroke-miterlimit:4;stroke-dasharray:none;stroke-opacity:0.999962;stop-color:#000000"
       id="path849-9604-1"
       cx="-35.454231"
       cy="34.131184"
       rx="0.26458332"
       ry="0.52916664"
       transform="rotate(-90.000106)" />
    <ellipse
       style="fill:#cccccc;fill-opacity:0.999079;stroke:#e6e6e6;stroke-width:0.264583;stroke-linecap:round;stroke-linejoin:round;stroke-miterlimit:4;stroke-dasharray:none;stroke-opacity:0.999962;stop-color:#000000"
       id="path849-9604-0"
       cx="-33.866726"
       cy="32.014519"
       rx="0.26458332"
       ry="0.52916664"
       transform="rotate(-90.000106)" />
    <ellipse
       style="fill:#cccccc;fill-opacity:0.999079;stroke:#e6e6e6;stroke-width:0.264583;stroke-linecap:round;stroke-linejoin:round;stroke-miterlimit:4;stroke-dasharray:none;stroke-opacity:0.999962;stop-color:#000000"
       id="path849-9604-4"
       cx="-33.337555"
       cy="30.427021"
       rx="0.26458332"
       ry="0.52916664"
       transform="rotate(-90.000106)" />
    <ellipse
       style="fill:#cccccc;fill-opacity:0.999079;stroke:#e6e6e6;stroke-width:0.264583;stroke-linecap:round;stroke-linejoin:round;stroke-miterlimit:4;stroke-dasharray:none;stroke-opacity:0.999962;stop-color:#000000"
       id="path849-9604-8"
       cx="-32.279224"
       cy="30.95619"
       rx="0.26458332"
       ry="0.52916664"
       transform="rotate(-90.000106)" />
    <ellipse
       style="fill:#cccccc;fill-opacity:0.999079;stroke:#e6e6e6;stroke-width:0.264583;stroke-linecap:round;stroke-linejoin:round;stroke-miterlimit:4;stroke-dasharray:none;stroke-opacity:0.999962;stop-color:#000000"
       id="path849-9604-7"
       cx="-31.750063"
       cy="33.602024"
       rx="0.26458332"
       ry="0.52916664"
       transform="rotate(-90.000106)" />
    <ellipse
       style="fill:#cccccc;fill-opacity:0.999079;stroke:#e6e6e6;stroke-width:0.264583;stroke-linecap:round;stroke-linejoin:round;stroke-miterlimit:4;stroke-dasharray:none;stroke-opacity:0.999962;stop-color:#000000"
       id="path849-9604-08"
       cx="-32.808399"
       cy="35.189522"
       rx="0.26458332"
       ry="0.52916664"
       transform="rotate(-90.000106)" />
    <ellipse
       style="fill:#cccccc;fill-opacity:0.999079;stroke:#e6e6e6;stroke-width:0.264583;stroke-linecap:round;stroke-linejoin:round;stroke-miterlimit:4;stroke-dasharray:none;stroke-opacity:0.999962;stop-color:#000000"
       id="path849-9604-6"
       cx="-33.337563"
       cy="34.131187"
       rx="0.26458332"
       ry="0.52916664"
       transform="rotate(-90.000106)" />
    <ellipse
       style="fill:#cccccc;fill-opacity:0.999079;stroke:#e6e6e6;stroke-width:0.264583;stroke-linecap:round;stroke-linejoin:round;stroke-miterlimit:4;stroke-dasharray:none;stroke-opacity:0.999962;stop-color:#000000"
       id="path849-9604-2"
       cx="-34.92506"
       cy="32.543686"
       rx="0.26458332"
       ry="0.52916664"
       transform="rotate(-90.000106)" />
    <ellipse
       style="fill:#cccccc;fill-opacity:0.999079;stroke:#e6e6e6;stroke-width:0.264583;stroke-linecap:round;stroke-linejoin:round;stroke-miterlimit:4;stroke-dasharray:none;stroke-opacity:0.999962;stop-color:#000000"
       id="path849-9604-47"
       cx="-37.041725"
       cy="30.956181"
       rx="0.26458332"
       ry="0.52916664"
       transform="rotate(-90.000106)" />
    <ellipse
       style="fill:#cccccc;fill-opacity:0.999079;stroke:#e6e6e6;stroke-width:0.264583;stroke-linecap:round;stroke-linejoin:round;stroke-miterlimit:4;stroke-dasharray:none;stroke-opacity:0.999962;stop-color:#000000"
       id="path849-9604-9"
       cx="-39.687557"
       cy="30.42701"
       rx="0.26458332"
       ry="0.52916664"
       transform="rotate(-90.000106)" />
    <ellipse
       style="fill:#cccccc;fill-opacity:0.999079;stroke:#e6e6e6;stroke-width:0.264583;stroke-linecap:round;stroke-linejoin:round;stroke-miterlimit:4;stroke-dasharray:none;stroke-opacity:0.999962;stop-color:#000000"
       id="path849-9604-3"
       cx="-41.804226"
       cy="32.543674"
       rx="0.26458332"
       ry="0.52916664"
       transform="rotate(-90.000106)" />
    <ellipse
       style="fill:#cccccc;fill-opacity:0.999079;stroke:#e6e6e6;stroke-width:0.264583;stroke-linecap:round;stroke-linejoin:round;stroke-miterlimit:4;stroke-dasharray:none;stroke-opacity:0.999962;stop-color:#000000"
       id="path849-9604-92"
       cx="-39.687561"
       cy="33.072842"
       rx="0.26458332"
       ry="0.52916664"
       transform="rotate(-90.000106)" />
    <ellipse
       style="fill:#cccccc;fill-opacity:0.999079;stroke:#e6e6e6;stroke-width:0.264583;stroke-linecap:round;stroke-linejoin:round;stroke-miterlimit:4;stroke-dasharray:none;stroke-opacity:0.999962;stop-color:#000000"
       id="path849-9604-83"
       cx="-41.804237"
       cy="37.306171"
       rx="0.26458332"
       ry="0.52916664"
       transform="rotate(-90.000106)" />
    <ellipse
       style="fill:#cccccc;fill-opacity:0.999079;stroke:#e6e6e6;stroke-width:0.264583;stroke-linecap:round;stroke-linejoin:round;stroke-miterlimit:4;stroke-dasharray:none;stroke-opacity:0.999962;stop-color:#000000"
       id="path849-9604-01"
       cx="-42.333401"
       cy="35.71867"
       rx="0.26458332"
       ry="0.52916664"
       transform="rotate(-90.000106)" />
    <ellipse
       style="fill:#cccccc;fill-opacity:0.999079;stroke:#e6e6e6;stroke-width:0.264583;stroke-linecap:round;stroke-linejoin:round;stroke-miterlimit:4;stroke-dasharray:none;stroke-opacity:0.999962;stop-color:#000000"
       id="path849-9604-78"
       cx="-39.687565"
       cy="35.718678"
       rx="0.26458332"
       ry="0.52916664"
       transform="rotate(-90.000106)" />
    <ellipse
       style="fill:#cccccc;fill-opacity:0.999079;stroke:#e6e6e6;stroke-width:0.264583;stroke-linecap:round;stroke-linejoin:round;stroke-miterlimit:4;stroke-dasharray:none;stroke-opacity:0.999962;stop-color:#000000"
       id="path849-9604-91"
       cx="-36.512569"
       cy="37.306183"
       rx="0.26458332"
       ry="0.52916664"
       transform="rotate(-90.000106)" />
    <ellipse
       style="fill:#cccccc;fill-opacity:0.999079;stroke:#e6e6e6;stroke-width:0.264583;stroke-linecap:round;stroke-linejoin:round;stroke-miterlimit:4;stroke-dasharray:none;stroke-opacity:0.999962;stop-color:#000000"
       id="path849-9604-5"
       cx="-49.383232"
       cy="-13.038718"
       rx="0.26458332"
       ry="0.52916664"
       transform="rotate(-150.00022)" />
    <ellipse
       style="fill:#cccccc;fill-opacity:0.999079;stroke:#e6e6e6;stroke-width:0.264583;stroke-linecap:round;stroke-linejoin:round;stroke-miterlimit:4;stroke-dasharray:none;stroke-opacity:0.999962;stop-color:#000000"
       id="path849-9604-5-4"
       cx="-47.621033"
       cy="-15.278172"
       rx="0.26458332"
       ry="0.52916664"
       transform="rotate(-150.00022)" />
    <ellipse
       style="fill:#cccccc;fill-opacity:0.999079;stroke:#e6e6e6;stroke-width:0.264583;stroke-linecap:round;stroke-linejoin:round;stroke-miterlimit:4;stroke-dasharray:none;stroke-opacity:0.999962;stop-color:#000000"
       id="path849-9604-5-9"
       cx="-46.827286"
       cy="-13.903354"
       rx="0.26458332"
       ry="0.52916664"
       transform="rotate(-150.00022)" />
    <ellipse
       style="fill:#cccccc;fill-opacity:0.999079;stroke:#e6e6e6;stroke-width:0.264583;stroke-linecap:round;stroke-linejoin:round;stroke-miterlimit:4;stroke-dasharray:none;stroke-opacity:0.999962;stop-color:#000000"
       id="path849-9604-5-2"
       cx="-47.866634"
       cy="-11.470208"
       rx="0.26458332"
       ry="0.52916664"
       transform="rotate(-150.00022)" />
    <ellipse
       style="fill:#cccccc;fill-opacity:0.999079;stroke:#e6e6e6;stroke-width:0.264583;stroke-linecap:round;stroke-linejoin:round;stroke-miterlimit:4;stroke-dasharray:none;stroke-opacity:0.999962;stop-color:#000000"
       id="path849-9604-5-5"
       cx="-48.518597"
       cy="-10.482773"
       rx="0.26458332"
       ry="0.52916664"
       transform="rotate(-150.00022)" />
    <ellipse
       style="fill:#cccccc;fill-opacity:0.999079;stroke:#e6e6e6;stroke-width:0.264583;stroke-linecap:round;stroke-linejoin:round;stroke-miterlimit:4;stroke-dasharray:none;stroke-opacity:0.999962;stop-color:#000000"
       id="path849-9604-5-7"
       cx="-45.280399"
       cy="-15.887165"
       rx="0.26458332"
       ry="0.52916664"
       transform="rotate(-150.00022)" />
    <ellipse
       style="fill:#cccccc;fill-opacity:0.999079;stroke:#e6e6e6;stroke-width:0.264583;stroke-linecap:round;stroke-linejoin:round;stroke-miterlimit:4;stroke-dasharray:none;stroke-opacity:0.999962;stop-color:#000000"
       id="path849-9604-5-49"
       cx="-46.837257"
       cy="-15.142629"
       rx="0.26458332"
       ry="0.52916664"
       transform="rotate(-150.00022)" />
    <ellipse
       style="fill:#cccccc;fill-opacity:0.999079;stroke:#e6e6e6;stroke-width:0.264583;stroke-linecap:round;stroke-linejoin:round;stroke-miterlimit:4;stroke-dasharray:none;stroke-opacity:0.999962;stop-color:#000000"
       id="path849-9604-5-94"
       cx="-49.030357"
       cy="-14.898743"
       rx="0.26458332"
       ry="0.52916664"
       transform="rotate(-150.00022)" />
    <ellipse
       style="fill:#cccccc;fill-opacity:0.999079;stroke:#e6e6e6;stroke-width:0.264583;stroke-linecap:round;stroke-linejoin:round;stroke-miterlimit:4;stroke-dasharray:none;stroke-opacity:0.999962;stop-color:#000000"
       id="path849-9604-5-59"
       cx="-48.24313"
       cy="-19.114498"
       rx="0.26458332"
       ry="0.52916664"
       transform="rotate(-150.00022)" />
    <ellipse
       style="fill:#cccccc;fill-opacity:0.999079;stroke:#e6e6e6;stroke-width:0.264583;stroke-linecap:round;stroke-linejoin:round;stroke-miterlimit:4;stroke-dasharray:none;stroke-opacity:0.999962;stop-color:#000000"
       id="path849-9604-5-3"
       cx="15.452475"
       cy="-49.375248"
       rx="0.26458332"
       ry="0.52916664"
       transform="rotate(125.85197)" />
    <ellipse
       style="fill:#cccccc;fill-opacity:0.999079;stroke:#e6e6e6;stroke-width:0.264583;stroke-linecap:round;stroke-linejoin:round;stroke-miterlimit:4;stroke-dasharray:none;stroke-opacity:0.999962;stop-color:#000000"
       id="path849-9604-5-3-5"
       cx="14.014977"
       cy="-51.592747"
       rx="0.26458332"
       ry="0.52916664"
       transform="rotate(125.85197)" />
    <ellipse
       style="fill:#cccccc;fill-opacity:0.999079;stroke:#e6e6e6;stroke-width:0.264583;stroke-linecap:round;stroke-linejoin:round;stroke-miterlimit:4;stroke-dasharray:none;stroke-opacity:0.999962;stop-color:#000000"
       id="path849-9604-5-3-7"
       cx="11.522055"
       cy="-50.450844"
       rx="0.26458332"
       ry="0.52916664"
       transform="rotate(125.85197)" />
    <ellipse
       style="fill:#cccccc;fill-opacity:0.999079;stroke:#e6e6e6;stroke-width:0.264583;stroke-linecap:round;stroke-linejoin:round;stroke-miterlimit:4;stroke-dasharray:none;stroke-opacity:0.999962;stop-color:#000000"
       id="path849-9604-5-3-0"
       cx="8.7672462"
       cy="-49.614323"
       rx="0.26458332"
       ry="0.52916664"
       transform="rotate(125.85197)" />
    <ellipse
       style="fill:#cccccc;fill-opacity:0.999079;stroke:#e6e6e6;stroke-width:0.264583;stroke-linecap:round;stroke-linejoin:round;stroke-miterlimit:4;stroke-dasharray:none;stroke-opacity:0.999962;stop-color:#000000"
       id="path849-9604-5-3-8"
       cx="8.1925154"
       cy="-46.416794"
       rx="0.26458332"
       ry="0.52916664"
       transform="rotate(125.85197)" />
    <ellipse
       style="fill:#cccccc;fill-opacity:0.999079;stroke:#e6e6e6;stroke-width:0.264583;stroke-linecap:round;stroke-linejoin:round;stroke-miterlimit:4;stroke-dasharray:none;stroke-opacity:0.999962;stop-color:#000000"
       id="path849-9604-5-3-1"
       cx="7.1203041"
       cy="-43.993286"
       rx="0.26458332"
       ry="0.52916664"
       transform="rotate(125.85197)" />
    <ellipse
       style="fill:#cccccc;fill-opacity:0.999079;stroke:#e6e6e6;stroke-width:0.264583;stroke-linecap:round;stroke-linejoin:round;stroke-miterlimit:4;stroke-dasharray:none;stroke-opacity:0.999962;stop-color:#000000"
       id="path849-9604-5-3-9"
       cx="4.397305"
       cy="-48.33202"
       rx="0.26458332"
       ry="0.52916664"
       transform="rotate(125.85197)" />
    <ellipse
       style="fill:#cccccc;fill-opacity:0.999079;stroke:#e6e6e6;stroke-width:0.264583;stroke-linecap:round;stroke-linejoin:round;stroke-miterlimit:4;stroke-dasharray:none;stroke-opacity:0.999962;stop-color:#000000"
       id="path849-52"
       cx="47.287037"
       cy="14.859627"
       rx="0.26458332"
       ry="0.52916664"
       transform="rotate(28.977)" />
    <ellipse
       style="fill:#cccccc;fill-opacity:0.999079;stroke:#e6e6e6;stroke-width:0.264583;stroke-linecap:round;stroke-linejoin:round;stroke-miterlimit:4;stroke-dasharray:none;stroke-opacity:0.999962;stop-color:#000000"
       id="path849-90"
       cx="46.75787"
       cy="15.388794"
       rx="0.26458332"
       ry="0.52916664"
       transform="rotate(28.977)" />
    <ellipse
       style="fill:#cccccc;fill-opacity:0.999079;stroke:#e6e6e6;stroke-width:0.264583;stroke-linecap:round;stroke-linejoin:round;stroke-miterlimit:4;stroke-dasharray:none;stroke-opacity:0.999962;stop-color:#000000"
       id="path849-28"
       cx="45.699535"
       cy="13.801292"
       rx="0.26458332"
       ry="0.52916664"
       transform="rotate(28.977)" />
    <ellipse
       style="fill:#cccccc;fill-opacity:0.999079;stroke:#e6e6e6;stroke-width:0.264583;stroke-linecap:round;stroke-linejoin:round;stroke-miterlimit:4;stroke-dasharray:none;stroke-opacity:0.999962;stop-color:#000000"
       id="path849-380"
       cx="45.699535"
       cy="13.272125"
       rx="0.26458332"
       ry="0.52916664"
       transform="rotate(28.977)" />
    <ellipse
       style="fill:#cccccc;fill-opacity:0.999079;stroke:#e6e6e6;stroke-width:0.264583;stroke-linecap:round;stroke-linejoin:round;stroke-miterlimit:4;stroke-dasharray:none;stroke-opacity:0.999962;stop-color:#000000"
       id="path849-40"
       cx="45.170368"
       cy="13.272125"
       rx="0.26458332"
       ry="0.52916664"
       transform="rotate(28.977)" />
    <ellipse
       style="fill:#cccccc;fill-opacity:0.999079;stroke:#e6e6e6;stroke-width:0.264583;stroke-linecap:round;stroke-linejoin:round;stroke-miterlimit:4;stroke-dasharray:none;stroke-opacity:0.999962;stop-color:#000000"
       id="path849-919"
       cx="46.75787"
       cy="15.388794"
       rx="0.26458332"
       ry="0.52916664"
       transform="rotate(28.977)" />
    <ellipse
       style="fill:#cccccc;fill-opacity:0.999079;stroke:#e6e6e6;stroke-width:0.264583;stroke-linecap:round;stroke-linejoin:round;stroke-miterlimit:4;stroke-dasharray:none;stroke-opacity:0.999962;stop-color:#000000"
       id="path849-625"
       cx="47.8162"
       cy="15.917961"
       rx="0.26458332"
       ry="0.52916664"
       transform="rotate(28.977)" />
    <ellipse
       style="fill:#cccccc;fill-opacity:0.999079;stroke:#e6e6e6;stroke-width:0.264583;stroke-linecap:round;stroke-linejoin:round;stroke-miterlimit:4;stroke-dasharray:none;stroke-opacity:0.999962;stop-color:#000000"
       id="path849-44"
       cx="45.170368"
       cy="12.213795"
       rx="0.26458332"
       ry="0.52916664"
       transform="rotate(28.977)" />
    <ellipse
       style="fill:#cccccc;fill-opacity:0.999079;stroke:#e6e6e6;stroke-width:0.264583;stroke-linecap:round;stroke-linejoin:round;stroke-miterlimit:4;stroke-dasharray:none;stroke-opacity:0.999962;stop-color:#000000"
       id="path849-993"
       cx="44.112034"
       cy="12.213795"
       rx="0.26458332"
       ry="0.52916664"
       transform="rotate(28.977)" />
    <ellipse
       style="fill:#cccccc;fill-opacity:0.999079;stroke:#e6e6e6;stroke-width:0.264583;stroke-linecap:round;stroke-linejoin:round;stroke-miterlimit:4;stroke-dasharray:none;stroke-opacity:0.999962;stop-color:#000000"
       id="path849-60"
       cx="45.699535"
       cy="18.563793"
       rx="0.26458332"
       ry="0.52916664"
       transform="rotate(28.977)" />
    <ellipse
       style="fill:#cccccc;fill-opacity:0.999079;stroke:#e6e6e6;stroke-width:0.264583;stroke-linecap:round;stroke-linejoin:round;stroke-miterlimit:4;stroke-dasharray:none;stroke-opacity:0.999962;stop-color:#000000"
       id="path849-50"
       cx="46.228703"
       cy="19.09296"
       rx="0.26458332"
       ry="0.52916664"
       transform="rotate(28.977)" />
    <ellipse
       style="fill:#cccccc;fill-opacity:0.999079;stroke:#e6e6e6;stroke-width:0.264583;stroke-linecap:round;stroke-linejoin:round;stroke-miterlimit:4;stroke-dasharray:none;stroke-opacity:0.999962;stop-color:#000000"
       id="path849-294"
       cx="48.874535"
       cy="19.622128"
       rx="0.26458332"
       ry="0.52916664"
       transform="rotate(28.977)" />
    <ellipse
       style="fill:#cccccc;fill-opacity:0.999079;stroke:#e6e6e6;stroke-width:0.264583;stroke-linecap:round;stroke-linejoin:round;stroke-miterlimit:4;stroke-dasharray:none;stroke-opacity:0.999962;stop-color:#000000"
       id="path849-35"
       cx="49.932869"
       cy="19.622128"
       rx="0.26458332"
       ry="0.52916664"
       transform="rotate(28.977)" />
    <ellipse
       style="fill:#cccccc;fill-opacity:0.999079;stroke:#e6e6e6;stroke-width:0.264583;stroke-linecap:round;stroke-linejoin:round;stroke-miterlimit:4;stroke-dasharray:none;stroke-opacity:0.999962;stop-color:#000000"
       id="path849-17"
       cx="50.462036"
       cy="19.622128"
       rx="0.26458332"
       ry="0.52916664"
       transform="rotate(28.977)" />
    <ellipse
       style="fill:#cccccc;fill-opacity:0.999079;stroke:#e6e6e6;stroke-width:0.264583;stroke-linecap:round;stroke-linejoin:round;stroke-miterlimit:4;stroke-dasharray:none;stroke-opacity:0.999962;stop-color:#000000"
       id="path849-43"
       cx="50.991203"
       cy="17.505459"
       rx="0.26458332"
       ry="0.52916664"
       transform="rotate(28.977)" />
    <ellipse
       style="fill:#cccccc;fill-opacity:0.999079;stroke:#e6e6e6;stroke-width:0.264583;stroke-linecap:round;stroke-linejoin:round;stroke-miterlimit:4;stroke-dasharray:none;stroke-opacity:0.999962;stop-color:#000000"
       id="path849-146"
       cx="48.345367"
       cy="14.33046"
       rx="0.26458332"
       ry="0.52916664"
       transform="rotate(28.977)" />
    <ellipse
       style="fill:#cccccc;fill-opacity:0.999079;stroke:#e6e6e6;stroke-width:0.264583;stroke-linecap:round;stroke-linejoin:round;stroke-miterlimit:4;stroke-dasharray:none;stroke-opacity:0.999962;stop-color:#000000"
       id="path849-94"
       cx="43.314522"
       cy="15.477487"
       rx="0.26458332"
       ry="0.52916664"
       transform="rotate(28.977)" />
    <ellipse
       style="fill:#cccccc;fill-opacity:0.999079;stroke:#e6e6e6;stroke-width:0.264583;stroke-linecap:round;stroke-linejoin:round;stroke-miterlimit:4;stroke-dasharray:none;stroke-opacity:0.999962;stop-color:#000000"
       id="path849-226"
       cx="45.699535"
       cy="11.15546"
       rx="0.26458332"
       ry="0.52916664"
       transform="rotate(28.977)" />
    <ellipse
       style="fill:#cccccc;fill-opacity:0.999079;stroke:#e6e6e6;stroke-width:0.264583;stroke-linecap:round;stroke-linejoin:round;stroke-miterlimit:4;stroke-dasharray:none;stroke-opacity:0.999962;stop-color:#000000"
       id="path849-9604-5-3-97"
       cx="5.2966099"
       cy="-47.230087"
       rx="0.26458332"
       ry="0.52916664"
       transform="rotate(125.85197)" />
    <ellipse
       style="fill:#cccccc;fill-opacity:0.999079;stroke:#e6e6e6;stroke-width:0.264583;stroke-linecap:round;stroke-linejoin:round;stroke-miterlimit:4;stroke-dasharray:none;stroke-opacity:0.999962;stop-color:#000000"
       id="path849-9604-5-3-97-8"
       cx="7.7859163"
       cy="-50.801247"
       rx="0.26458332"
       ry="0.52916664"
       transform="rotate(125.85197)" />
    <ellipse
       style="fill:#cccccc;fill-opacity:0.999079;stroke:#e6e6e6;stroke-width:0.264583;stroke-linecap:round;stroke-linejoin:round;stroke-miterlimit:4;stroke-dasharray:none;stroke-opacity:0.999962;stop-color:#000000"
       id="path849-9604-5-3-97-2"
       cx="10.891961"
       cy="-52.035839"
       rx="0.26458332"
       ry="0.52916664"
       transform="rotate(125.85197)" />
    <ellipse
       style="fill:#cccccc;fill-opacity:0.999079;stroke:#e6e6e6;stroke-width:0.264583;stroke-linecap:round;stroke-linejoin:round;stroke-miterlimit:4;stroke-dasharray:none;stroke-opacity:0.999962;stop-color:#000000"
       id="path849-9604-5-3-97-5"
       cx="10.689983"
       cy="-53.456181"
       rx="0.26458332"
       ry="0.52916664"
       transform="rotate(125.85197)" />
    <ellipse
       style="fill:#cccccc;fill-opacity:0.999079;stroke:#e6e6e6;stroke-width:0.264583;stroke-linecap:round;stroke-linejoin:round;stroke-miterlimit:4;stroke-dasharray:none;stroke-opacity:0.999962;stop-color:#000000"
       id="path849-9604-5-3-97-3"
       cx="14.17527"
       cy="-51.399437"
       rx="0.26458332"
       ry="0.52916664"
       transform="rotate(125.85197)" />
    <ellipse
       style="fill:#cccccc;fill-opacity:0.999079;stroke:#e6e6e6;stroke-width:0.264583;stroke-linecap:round;stroke-linejoin:round;stroke-miterlimit:4;stroke-dasharray:none;stroke-opacity:0.999962;stop-color:#000000"
       id="path849-9604-5-3-97-4"
       cx="16.125179"
       cy="-48.872112"
       rx="0.26458332"
       ry="0.52916664"
       transform="rotate(125.85197)" />
    <ellipse
       style="fill:#cccccc;fill-opacity:0.999079;stroke:#e6e6e6;stroke-width:0.264583;stroke-linecap:round;stroke-linejoin:round;stroke-miterlimit:4;stroke-dasharray:none;stroke-opacity:0.999962;stop-color:#000000"
       id="path849-9604-5-3-97-9"
       cx="13.721885"
       cy="-47.320969"
       rx="0.26458332"
       ry="0.52916664"
       transform="rotate(125.85197)" />
    <ellipse
       style="fill:#cccccc;fill-opacity:0.999079;stroke:#e6e6e6;stroke-width:0.264583;stroke-linecap:round;stroke-linejoin:round;stroke-miterlimit:4;stroke-dasharray:none;stroke-opacity:0.999962;stop-color:#000000"
       id="path849-9604-5-3-97-0"
       cx="11.688839"
       cy="-48.366192"
       rx="0.26458332"
       ry="0.52916664"
       transform="rotate(125.85197)" />
    <ellipse
       style="fill:#cccccc;fill-opacity:0.999079;stroke:#e6e6e6;stroke-width:0.264583;stroke-linecap:round;stroke-linejoin:round;stroke-miterlimit:4;stroke-dasharray:none;stroke-opacity:0.999962;stop-color:#000000"
       id="path849-9604-5-3-97-20"
       cx="10.372595"
       cy="-50.073643"
       rx="0.26458332"
       ry="0.52916664"
       transform="rotate(125.85197)" />
    <ellipse
       style="fill:#cccccc;fill-opacity:0.999079;stroke:#e6e6e6;stroke-width:0.264583;stroke-linecap:round;stroke-linejoin:round;stroke-miterlimit:4;stroke-dasharray:none;stroke-opacity:0.999962;stop-color:#000000"
       id="path849-9604-5-3-97-1"
       cx="13.698516"
       cy="-50.5191"
       rx="0.26458332"
       ry="0.52916664"
       transform="rotate(125.85197)" />
    <ellipse
       style="fill:#cccccc;fill-opacity:0.999079;stroke:#e6e6e6;stroke-width:0.264583;stroke-linecap:round;stroke-linejoin:round;stroke-miterlimit:4;stroke-dasharray:none;stroke-opacity:0.999962;stop-color:#000000"
       id="path849-9604-5-3-97-96"
       cx="15.325704"
       cy="-50.891155"
       rx="0.26458332"
       ry="0.52916664"
       transform="rotate(125.85197)" />
    <ellipse
       style="fill:#cccccc;fill-opacity:0.999079;stroke:#e6e6e6;stroke-width:0.264583;stroke-linecap:round;stroke-linejoin:round;stroke-miterlimit:4;stroke-dasharray:none;stroke-opacity:0.999962;stop-color:#000000"
       id="path849-9604-5-3-97-21"
       cx="10.989194"
       cy="-45.284489"
       rx="0.26458332"
       ry="0.52916664"
       transform="rotate(125.85197)" />
    <ellipse
       style="fill:#cccccc;fill-opacity:0.999079;stroke:#e6e6e6;stroke-width:0.264583;stroke-linecap:round;stroke-linejoin:round;stroke-miterlimit:4;stroke-dasharray:none;stroke-opacity:0.999962;stop-color:#000000"
       id="path849-9604-5-3-97-207"
       cx="9.7639227"
       cy="-44.213623"
       rx="0.26458332"
       ry="0.52916664"
       transform="rotate(125.85197)" />
    <ellipse
       style="fill:#cccccc;fill-opacity:0.999079;stroke:#e6e6e6;stroke-width:0.264583;stroke-linecap:round;stroke-linejoin:round;stroke-miterlimit:4;stroke-dasharray:none;stroke-opacity:0.999962;stop-color:#000000"
       id="path849-9604-5-3-97-31"
       cx="7.757863"
       cy="-45.649315"
       rx="0.26458332"
       ry="0.52916664"
       transform="rotate(125.85197)" />
    <ellipse
       style="fill:#cccccc;fill-opacity:0.999079;stroke:#e6e6e6;stroke-width:0.264583;stroke-linecap:round;stroke-linejoin:round;stroke-miterlimit:4;stroke-dasharray:none;stroke-opacity:0.999962;stop-color:#000000"
       id="path849-9604-5-3-97-19"
       cx="4.8366871"
       cy="-48.237335"
       rx="0.26458332"
       ry="0.52916664"
       transform="rotate(125.85197)" />
    <ellipse
       style="fill:#cccccc;fill-opacity:0.999079;stroke:#e6e6e6;stroke-width:0.264583;stroke-linecap:round;stroke-linejoin:round;stroke-miterlimit:4;stroke-dasharray:none;stroke-opacity:0.999962;stop-color:#000000"
       id="path849-9604-5-3-97-05"
       cx="6.8558693"
       cy="-51.489395"
       rx="0.26458332"
       ry="0.52916664"
       transform="rotate(125.85197)" />
    <ellipse
       style="fill:#cccccc;fill-opacity:0.999079;stroke:#e6e6e6;stroke-width:0.264583;stroke-linecap:round;stroke-linejoin:round;stroke-miterlimit:4;stroke-dasharray:none;stroke-opacity:0.999962;stop-color:#000000"
       id="path849-9604-5-3-97-6"
       cx="9.9357166"
       cy="-52.189827"
       rx="0.26458332"
       ry="0.52916664"
       transform="rotate(125.85197)" />
    <ellipse
       style="fill:#cccccc;fill-opacity:0.999079;stroke:#e6e6e6;stroke-width:0.264583;stroke-linecap:round;stroke-linejoin:round;stroke-miterlimit:4;stroke-dasharray:none;stroke-opacity:0.999962;stop-color:#000000"
       id="path849-9604-5-3-97-7"
       cx="11.385919"
       cy="-53.320183"
       rx="0.26458332"
       ry="0.52916664"
       transform="rotate(125.85197)" />
    <ellipse
       style="fill:#cccccc;fill-opacity:0.999079;stroke:#e6e6e6;stroke-width:0.264583;stroke-linecap:round;stroke-linejoin:round;stroke-miterlimit:4;stroke-dasharray:none;stroke-opacity:0.999962;stop-color:#000000"
       id="path849-9604-5-3-97-74"
       cx="12.289675"
       cy="-52.468777"
       rx="0.26458332"
       ry="0.52916664"
       transform="rotate(125.85197)" />
    <ellipse
       style="fill:#cccccc;fill-opacity:0.999079;stroke:#e6e6e6;stroke-width:0.264583;stroke-linecap:round;stroke-linejoin:round;stroke-miterlimit:4;stroke-dasharray:none;stroke-opacity:0.999962;stop-color:#000000"
       id="path849-9604-5-3-97-06"
       cx="14.470773"
       cy="-52.045761"
       rx="0.26458332"
       ry="0.52916664"
       transform="rotate(125.85197)" />
    <ellipse
       style="fill:#cccccc;fill-opacity:0.999079;stroke:#e6e6e6;stroke-width:0.264583;stroke-linecap:round;stroke-linejoin:round;stroke-miterlimit:4;stroke-dasharray:none;stroke-opacity:0.999962;stop-color:#000000"
       id="path849-9604-5-3-97-47"
       cx="11.833925"
       cy="-54.839241"
       rx="0.26458332"
       ry="0.52916664"
       transform="rotate(125.85197)" />
    <ellipse
       style="fill:#cccccc;fill-opacity:0.999079;stroke:#e6e6e6;stroke-width:0.264583;stroke-linecap:round;stroke-linejoin:round;stroke-miterlimit:4;stroke-dasharray:none;stroke-opacity:0.999962;stop-color:#000000"
       id="path849-9604-5-3-97-48"
       cx="10.103151"
       cy="-53.526752"
       rx="0.26458332"
       ry="0.52916664"
       transform="rotate(125.85197)" />
    <ellipse
       style="fill:#cccccc;fill-opacity:0.999079;stroke:#e6e6e6;stroke-width:0.264583;stroke-linecap:round;stroke-linejoin:round;stroke-miterlimit:4;stroke-dasharray:none;stroke-opacity:0.999962;stop-color:#000000"
       id="path849-9604-5-3-97-58"
       cx="8.9873543"
       cy="-50.906872"
       rx="0.26458332"
       ry="0.52916664"
       transform="rotate(125.85197)" />
    <ellipse
       style="fill:#cccccc;fill-opacity:0.999079;stroke:#e6e6e6;stroke-width:0.264583;stroke-linecap:round;stroke-linejoin:round;stroke-miterlimit:4;stroke-dasharray:none;stroke-opacity:0.999962;stop-color:#000000"
       id="path849-9604-5-3-97-26"
       cx="9.737401"
       cy="-47.98653"
       rx="0.26458332"
       ry="0.52916664"
       transform="rotate(125.85197)" />
    <ellipse
       style="fill:#cccccc;fill-opacity:0.999079;stroke:#e6e6e6;stroke-width:0.264583;stroke-linecap:round;stroke-linejoin:round;stroke-miterlimit:4;stroke-dasharray:none;stroke-opacity:0.999962;stop-color:#000000"
       id="path849-9604-5-3-97-066"
       cx="10.112331"
       cy="-46.897259"
       rx="0.26458332"
       ry="0.52916664"
       transform="rotate(125.85197)" />
    <ellipse
       style="fill:#cccccc;fill-opacity:0.999079;stroke:#e6e6e6;stroke-width:0.264583;stroke-linecap:round;stroke-linejoin:round;stroke-miterlimit:4;stroke-dasharray:none;stroke-opacity:0.999962;stop-color:#000000"
       id="path849-41"
       cx="43.582867"
       cy="13.801292"
       rx="0.26458332"
       ry="0.52916664"
       transform="rotate(28.977)" />
    <ellipse
       style="fill:#cccccc;fill-opacity:0.999079;stroke:#e6e6e6;stroke-width:0.264583;stroke-linecap:round;stroke-linejoin:round;stroke-miterlimit:4;stroke-dasharray:none;stroke-opacity:0.999962;stop-color:#000000"
       id="path849-288"
       cx="46.324589"
       cy="20.776197"
       rx="0.26458332"
       ry="0.52916664"
       transform="rotate(28.977)" />
    <ellipse
       style="fill:#cccccc;fill-opacity:0.999079;stroke:#e6e6e6;stroke-width:0.264583;stroke-linecap:round;stroke-linejoin:round;stroke-miterlimit:4;stroke-dasharray:none;stroke-opacity:0.999962;stop-color:#000000"
       id="path849-92"
       cx="47.287037"
       cy="20.680462"
       rx="0.26458332"
       ry="0.52916664"
       transform="rotate(28.977)" />
    <ellipse
       style="fill:#cccccc;fill-opacity:0.999079;stroke:#e6e6e6;stroke-width:0.264583;stroke-linecap:round;stroke-linejoin:round;stroke-miterlimit:4;stroke-dasharray:none;stroke-opacity:0.999962;stop-color:#000000"
       id="path849-9604-5-3-97-46"
       cx="9.5240154"
       cy="-46.884319"
       rx="0.26458332"
       ry="0.52916664"
       transform="rotate(125.85197)" />
    <ellipse
       style="fill:#cccccc;fill-opacity:0.999079;stroke:#e6e6e6;stroke-width:0.264583;stroke-linecap:round;stroke-linejoin:round;stroke-miterlimit:4;stroke-dasharray:none;stroke-opacity:0.999962;stop-color:#000000"
       id="path849-9604-5-3-97-28"
       cx="7.2917266"
       cy="-47.435219"
       rx="0.26458332"
       ry="0.52916664"
       transform="rotate(125.85197)" />
    <ellipse
       style="fill:#cccccc;fill-opacity:0.999079;stroke:#e6e6e6;stroke-width:0.264583;stroke-linecap:round;stroke-linejoin:round;stroke-miterlimit:4;stroke-dasharray:none;stroke-opacity:0.999962;stop-color:#000000"
       id="path849-9604-5-3-97-960"
       cx="11.476381"
       cy="-49.572868"
       rx="0.26458332"
       ry="0.52916664"
       transform="rotate(125.85197)" />
    <ellipse
       style="fill:#cccccc;fill-opacity:0.999079;stroke:#e6e6e6;stroke-width:0.264583;stroke-linecap:round;stroke-linejoin:round;stroke-miterlimit:4;stroke-dasharray:none;stroke-opacity:0.999962;stop-color:#000000"
       id="path849-9604-5-3-97-70"
       cx="9.3732738"
       cy="-51.000259"
       rx="0.26458332"
       ry="0.52916664"
       transform="rotate(125.85197)" />
    <ellipse
       style="fill:#cccccc;fill-opacity:0.999079;stroke:#e6e6e6;stroke-width:0.264583;stroke-linecap:round;stroke-linejoin:round;stroke-miterlimit:4;stroke-dasharray:none;stroke-opacity:0.999962;stop-color:#000000"
       id="path849-9604-5-3-97-10"
       cx="47.401031"
       cy="17.373255"
       rx="0.26458332"
       ry="0.52916664"
       transform="rotate(24.495934)" />
    <ellipse
       style="fill:#cccccc;fill-opacity:0.999079;stroke:#e6e6e6;stroke-width:0.264583;stroke-linecap:round;stroke-linejoin:round;stroke-miterlimit:4;stroke-dasharray:none;stroke-opacity:0.999962;stop-color:#000000"
       id="path849-9604-5-3-97-10-1"
       cx="45.850117"
       cy="19.12624"
       rx="0.26458332"
       ry="0.52916664"
       transform="rotate(24.495934)" />
    <ellipse
       style="fill:#cccccc;fill-opacity:0.999079;stroke:#e6e6e6;stroke-width:0.264583;stroke-linecap:round;stroke-linejoin:round;stroke-miterlimit:4;stroke-dasharray:none;stroke-opacity:0.999962;stop-color:#000000"
       id="path849-9604-5-3-97-10-3"
       cx="43.710182"
       cy="17.733278"
       rx="0.26458332"
       ry="0.52916664"
       transform="rotate(24.495934)" />
    <ellipse
       style="fill:#cccccc;fill-opacity:0.999079;stroke:#e6e6e6;stroke-width:0.264583;stroke-linecap:round;stroke-linejoin:round;stroke-miterlimit:4;stroke-dasharray:none;stroke-opacity:0.999962;stop-color:#000000"
       id="path849-9604-5-3-97-10-7"
       cx="41.484989"
       cy="16.838079"
       rx="0.26458332"
       ry="0.52916664"
       transform="rotate(24.495934)" />
    <ellipse
       style="fill:#cccccc;fill-opacity:0.999079;stroke:#e6e6e6;stroke-width:0.264583;stroke-linecap:round;stroke-linejoin:round;stroke-miterlimit:4;stroke-dasharray:none;stroke-opacity:0.999962;stop-color:#000000"
       id="path849-9604-5-3-97-10-72"
       cx="42.53561"
       cy="19.828773"
       rx="0.26458332"
       ry="0.52916664"
       transform="rotate(24.495934)" />
    <ellipse
       style="fill:#cccccc;fill-opacity:0.999079;stroke:#e6e6e6;stroke-width:0.264583;stroke-linecap:round;stroke-linejoin:round;stroke-miterlimit:4;stroke-dasharray:none;stroke-opacity:0.999962;stop-color:#000000"
       id="path849-9604-5-3-97-10-6"
       cx="43.8531"
       cy="22.881437"
       rx="0.26458332"
       ry="0.52916664"
       transform="rotate(24.495934)" />
    <ellipse
       style="fill:#cccccc;fill-opacity:0.999079;stroke:#e6e6e6;stroke-width:0.264583;stroke-linecap:round;stroke-linejoin:round;stroke-miterlimit:4;stroke-dasharray:none;stroke-opacity:0.999962;stop-color:#000000"
       id="path849-9604-5-3-97-10-4"
       cx="44.884541"
       cy="24.540838"
       rx="0.26458332"
       ry="0.52916664"
       transform="rotate(24.495934)" />
    <ellipse
       style="fill:#cccccc;fill-opacity:0.999079;stroke:#e6e6e6;stroke-width:0.264583;stroke-linecap:round;stroke-linejoin:round;stroke-miterlimit:4;stroke-dasharray:none;stroke-opacity:0.999962;stop-color:#000000"
       id="path849-9604-5-3-97-10-5"
       cx="45.342346"
       cy="23.249203"
       rx="0.26458332"
       ry="0.52916664"
       transform="rotate(24.495934)" />
    <ellipse
       style="fill:#cccccc;fill-opacity:0.999079;stroke:#e6e6e6;stroke-width:0.264583;stroke-linecap:round;stroke-linejoin:round;stroke-miterlimit:4;stroke-dasharray:none;stroke-opacity:0.999962;stop-color:#000000"
       id="path849-9604-5-3-97-10-2"
       cx="47.41658"
       cy="22.322454"
       rx="0.26458332"
       ry="0.52916664"
       transform="rotate(24.495934)" />
    <ellipse
       style="fill:#cccccc;fill-opacity:0.999079;stroke:#e6e6e6;stroke-width:0.264583;stroke-linecap:round;stroke-linejoin:round;stroke-miterlimit:4;stroke-dasharray:none;stroke-opacity:0.999962;stop-color:#000000"
       id="path849-9604-5-3-97-10-0"
       cx="49.568283"
       cy="22.97579"
       rx="0.26458332"
       ry="0.52916664"
       transform="rotate(24.495934)" />
    <ellipse
       style="fill:#cccccc;fill-opacity:0.999079;stroke:#e6e6e6;stroke-width:0.264583;stroke-linecap:round;stroke-linejoin:round;stroke-miterlimit:4;stroke-dasharray:none;stroke-opacity:0.999962;stop-color:#000000"
       id="path849-9604-5-3-97-10-29"
       cx="51.221924"
       cy="21.689981"
       rx="0.26458332"
       ry="0.52916664"
       transform="rotate(24.495934)" />
    <ellipse
       style="fill:#cccccc;fill-opacity:0.999079;stroke:#e6e6e6;stroke-width:0.264583;stroke-linecap:round;stroke-linejoin:round;stroke-miterlimit:4;stroke-dasharray:none;stroke-opacity:0.999962;stop-color:#000000"
       id="path849-9604-5-3-97-10-09"
       cx="49.745316"
       cy="18.489538"
       rx="0.26458332"
       ry="0.52916664"
       transform="rotate(24.495934)" />
    <ellipse
       style="fill:#cccccc;fill-opacity:0.999079;stroke:#e6e6e6;stroke-width:0.264583;stroke-linecap:round;stroke-linejoin:round;stroke-miterlimit:4;stroke-dasharray:none;stroke-opacity:0.999962;stop-color:#000000"
       id="path849-9604-5-3-97-10-9"
       cx="48.841675"
       cy="15.982573"
       rx="0.26458332"
       ry="0.52916664"
       transform="rotate(24.495934)" />
    <ellipse
       style="fill:#cccccc;fill-opacity:0.999079;stroke:#e6e6e6;stroke-width:0.264583;stroke-linecap:round;stroke-linejoin:round;stroke-miterlimit:4;stroke-dasharray:none;stroke-opacity:0.999962;stop-color:#000000"
       id="path849-9604-5-3-97-10-45"
       cx="47.633038"
       cy="14.055135"
       rx="0.26458332"
       ry="0.52916664"
       transform="rotate(24.495934)" />
    <ellipse
       style="fill:#cccccc;fill-opacity:0.999079;stroke:#e6e6e6;stroke-width:0.264583;stroke-linecap:round;stroke-linejoin:round;stroke-miterlimit:4;stroke-dasharray:none;stroke-opacity:0.999962;stop-color:#000000"
       id="path849-9604-5-3-97-10-10"
       cx="45.079922"
       cy="14.374035"
       rx="0.26458332"
       ry="0.52916664"
       transform="rotate(24.495934)" />
    <ellipse
       style="fill:#cccccc;fill-opacity:0.999079;stroke:#e6e6e6;stroke-width:0.264583;stroke-linecap:round;stroke-linejoin:round;stroke-miterlimit:4;stroke-dasharray:none;stroke-opacity:0.999962;stop-color:#000000"
       id="path849-9604-5-3-97-10-37"
       cx="42.705898"
       cy="15.529161"
       rx="0.26458332"
       ry="0.52916664"
       transform="rotate(24.495934)" />
    <ellipse
       style="fill:#cccccc;fill-opacity:0.999079;stroke:#e6e6e6;stroke-width:0.264583;stroke-linecap:round;stroke-linejoin:round;stroke-miterlimit:4;stroke-dasharray:none;stroke-opacity:0.999962;stop-color:#000000"
       id="path849-9604-5-3-97-10-8"
       cx="42.181828"
       cy="18.448015"
       rx="0.26458332"
       ry="0.52916664"
       transform="rotate(24.495934)" />
    <ellipse
       style="fill:#cccccc;fill-opacity:0.999079;stroke:#e6e6e6;stroke-width:0.264583;stroke-linecap:round;stroke-linejoin:round;stroke-miterlimit:4;stroke-dasharray:none;stroke-opacity:0.999962;stop-color:#000000"
       id="path849-9604-5-3-97-10-86"
       cx="45.811207"
       cy="15.858135"
       rx="0.26458332"
       ry="0.52916664"
       transform="rotate(24.495934)" />
    <ellipse
       style="fill:#cccccc;fill-opacity:0.999079;stroke:#e6e6e6;stroke-width:0.264583;stroke-linecap:round;stroke-linejoin:round;stroke-miterlimit:4;stroke-dasharray:none;stroke-opacity:0.999962;stop-color:#000000"
       id="path849-9604-5-3-97-10-04"
       cx="45.62352"
       cy="17.742601"
       rx="0.26458332"
       ry="0.52916664"
       transform="rotate(24.495934)" />
    <ellipse
       style="fill:#cccccc;fill-opacity:0.999079;stroke:#e6e6e6;stroke-width:0.264583;stroke-linecap:round;stroke-linejoin:round;stroke-miterlimit:4;stroke-dasharray:none;stroke-opacity:0.999962;stop-color:#000000"
       id="path849-9604-5-3-97-10-67"
       cx="47.454041"
       cy="19.423397"
       rx="0.26458332"
       ry="0.52916664"
       transform="rotate(24.495934)" />
    <ellipse
       style="fill:#cccccc;fill-opacity:0.999079;stroke:#e6e6e6;stroke-width:0.264583;stroke-linecap:round;stroke-linejoin:round;stroke-miterlimit:4;stroke-dasharray:none;stroke-opacity:0.999962;stop-color:#000000"
       id="path849-9604-5-3-97-10-60"
       cx="49.053852"
       cy="21.28274"
       rx="0.26458332"
       ry="0.52916664"
       transform="rotate(24.495934)" />
    <ellipse
       style="fill:#cccccc;fill-opacity:0.999079;stroke:#e6e6e6;stroke-width:0.264583;stroke-linecap:round;stroke-linejoin:round;stroke-miterlimit:4;stroke-dasharray:none;stroke-opacity:0.999962;stop-color:#000000"
       id="path849-9604-5-3-97-10-97"
       cx="50.314354"
       cy="20.947041"
       rx="0.26458332"
       ry="0.52916664"
       transform="rotate(24.495934)" />
    <ellipse
       style="fill:#cccccc;fill-opacity:0.999079;stroke:#e6e6e6;stroke-width:0.264583;stroke-linecap:round;stroke-linejoin:round;stroke-miterlimit:4;stroke-dasharray:none;stroke-opacity:0.999962;stop-color:#000000"
       id="path849-9604-5-3-97-10-59"
       cx="47.469223"
       cy="23.968918"
       rx="0.26458332"
       ry="0.52916664"
       transform="rotate(24.495934)" />
    <ellipse
       style="fill:#cccccc;fill-opacity:0.999079;stroke:#e6e6e6;stroke-width:0.264583;stroke-linecap:round;stroke-linejoin:round;stroke-miterlimit:4;stroke-dasharray:none;stroke-opacity:0.999962;stop-color:#000000"
       id="path849-9604-5-3-97-10-78"
       cx="46.187279"
       cy="22.001455"
       rx="0.26458332"
       ry="0.52916664"
       transform="rotate(24.495934)" />
    <ellipse
       style="fill:#cccccc;fill-opacity:0.999079;stroke:#e6e6e6;stroke-width:0.264583;stroke-linecap:round;stroke-linejoin:round;stroke-miterlimit:4;stroke-dasharray:none;stroke-opacity:0.999962;stop-color:#000000"
       id="path849-9604-5-3-97-10-53"
       cx="44.623379"
       cy="21.630993"
       rx="0.26458332"
       ry="0.52916664"
       transform="rotate(24.495934)" />
    <ellipse
       style="fill:#cccccc;fill-opacity:0.999079;stroke:#e6e6e6;stroke-width:0.264583;stroke-linecap:round;stroke-linejoin:round;stroke-miterlimit:4;stroke-dasharray:none;stroke-opacity:0.999962;stop-color:#000000"
       id="path849-9604-5-3-97-10-38"
       cx="43.41296"
       cy="20.787407"
       rx="0.26458332"
       ry="0.52916664"
       transform="rotate(24.495934)" />
    <ellipse
       style="fill:#ffffff;fill-opacity:0.999079;stroke:#ececec;stroke-width:0.264583;stroke-linecap:round;stroke-linejoin:round;stroke-miterlimit:4;stroke-dasharray:none;stroke-opacity:0.999962;stop-color:#000000"
       id="path849-9604-5-3-97-10-379"
       cx="46.076847"
       cy="17.609474"
       rx="0.26458332"
       ry="0.52916664"
       transform="rotate(24.495934)" />
    <ellipse
       style="fill:#ffffff;fill-opacity:0.999079;stroke:#ececec;stroke-width:0.264583;stroke-linecap:round;stroke-linejoin:round;stroke-miterlimit:4;stroke-dasharray:none;stroke-opacity:0.999962;stop-color:#000000"
       id="path849-9604-5-3-97-10-378"
       cx="40.297932"
       cy="-27.527449"
       rx="0.26458332"
       ry="0.52916664"
       transform="rotate(83.459088)" />
    <ellipse
       style="fill:#ffffff;fill-opacity:0.999079;stroke:#ececec;stroke-width:0.264583;stroke-linecap:round;stroke-linejoin:round;stroke-miterlimit:4;stroke-dasharray:none;stroke-opacity:0.999962;stop-color:#000000"
       id="path849-9604-5-3-97-10-378-7"
       cx="38.255299"
       cy="-27.896164"
       rx="0.26458332"
       ry="0.52916664"
       transform="rotate(83.459088)" />
    <ellipse
       style="fill:#ffffff;fill-opacity:0.999079;stroke:#ececec;stroke-width:0.264583;stroke-linecap:round;stroke-linejoin:round;stroke-miterlimit:4;stroke-dasharray:none;stroke-opacity:0.999962;stop-color:#000000"
       id="path849-9604-5-3-97-10-378-4"
       cx="38.021179"
       cy="-29.520317"
       rx="0.26458332"
       ry="0.52916664"
       transform="rotate(83.459088)" />
    <ellipse
       style="fill:#ffffff;fill-opacity:0.999079;stroke:#ececec;stroke-width:0.264583;stroke-linecap:round;stroke-linejoin:round;stroke-miterlimit:4;stroke-dasharray:none;stroke-opacity:0.999962;stop-color:#000000"
       id="path849-9604-5-3-97-10-378-1"
       cx="36.349548"
       cy="-27.845654"
       rx="0.26458332"
       ry="0.52916664"
       transform="rotate(83.459088)" />
    <ellipse
       style="fill:#ffffff;fill-opacity:0.999079;stroke:#ececec;stroke-width:0.264583;stroke-linecap:round;stroke-linejoin:round;stroke-miterlimit:4;stroke-dasharray:none;stroke-opacity:0.999962;stop-color:#000000"
       id="path849-9604-5-3-97-10-378-9"
       cx="37.509434"
       cy="-26.670208"
       rx="0.26458332"
       ry="0.52916664"
       transform="rotate(83.459088)" />
    <ellipse
       style="fill:#ffffff;fill-opacity:0.999079;stroke:#ececec;stroke-width:0.264583;stroke-linecap:round;stroke-linejoin:round;stroke-miterlimit:4;stroke-dasharray:none;stroke-opacity:0.999962;stop-color:#000000"
       id="path849-9604-5-3-97-10-378-0"
       cx="40.506474"
       cy="-25.97348"
       rx="0.26458332"
       ry="0.52916664"
       transform="rotate(83.459088)" />
    <ellipse
       style="fill:#ffffff;fill-opacity:0.999079;stroke:#ececec;stroke-width:0.264583;stroke-linecap:round;stroke-linejoin:round;stroke-miterlimit:4;stroke-dasharray:none;stroke-opacity:0.999962;stop-color:#000000"
       id="path849-9604-5-3-97-10-378-98"
       cx="42.461792"
       cy="-25.429825"
       rx="0.26458332"
       ry="0.52916664"
       transform="rotate(83.459088)" />
    <ellipse
       style="fill:#ffffff;fill-opacity:0.999079;stroke:#ececec;stroke-width:0.264583;stroke-linecap:round;stroke-linejoin:round;stroke-miterlimit:4;stroke-dasharray:none;stroke-opacity:0.999962;stop-color:#000000"
       id="path849-9604-5-3-97-10-378-8"
       cx="44.856861"
       cy="-26.668449"
       rx="0.26458332"
       ry="0.52916664"
       transform="rotate(83.459088)" />
    <ellipse
       style="fill:#ffffff;fill-opacity:0.999079;stroke:#ececec;stroke-width:0.264583;stroke-linecap:round;stroke-linejoin:round;stroke-miterlimit:4;stroke-dasharray:none;stroke-opacity:0.999962;stop-color:#000000"
       id="path849-9604-5-3-97-10-378-5"
       cx="53.152542"
       cy="-6.3080058"
       rx="0.26458332"
       ry="0.52916664"
       transform="rotate(56.032941)" />
    <ellipse
       style="fill:#ffffff;fill-opacity:0.999079;stroke:#ececec;stroke-width:0.264583;stroke-linecap:round;stroke-linejoin:round;stroke-miterlimit:4;stroke-dasharray:none;stroke-opacity:0.999962;stop-color:#000000"
       id="path849-9604-5-3-97-10-378-5-8"
       cx="51.74556"
       cy="-8.5247517"
       rx="0.26458332"
       ry="0.52916664"
       transform="rotate(56.032941)" />
    <ellipse
       style="fill:#ffffff;fill-opacity:0.999079;stroke:#ececec;stroke-width:0.264583;stroke-linecap:round;stroke-linejoin:round;stroke-miterlimit:4;stroke-dasharray:none;stroke-opacity:0.999962;stop-color:#000000"
       id="path849-9604-5-3-97-10-378-5-4"
       cx="50.156147"
       cy="-10.381005"
       rx="0.26458332"
       ry="0.52916664"
       transform="rotate(56.032941)" />
    <ellipse
       style="fill:#ffffff;fill-opacity:0.999079;stroke:#ececec;stroke-width:0.264583;stroke-linecap:round;stroke-linejoin:round;stroke-miterlimit:4;stroke-dasharray:none;stroke-opacity:0.999962;stop-color:#000000"
       id="path849-9604-5-3-97-10-378-5-3"
       cx="48.489159"
       cy="-11.524151"
       rx="0.26458332"
       ry="0.52916664"
       transform="rotate(56.032941)" />
    <ellipse
       style="fill:#ffffff;fill-opacity:0.999079;stroke:#ececec;stroke-width:0.264583;stroke-linecap:round;stroke-linejoin:round;stroke-miterlimit:4;stroke-dasharray:none;stroke-opacity:0.999962;stop-color:#000000"
       id="path849-9604-5-3-97-10-378-5-7"
       cx="46.241638"
       cy="-10.460159"
       rx="0.26458332"
       ry="0.52916664"
       transform="rotate(56.032941)" />
    <ellipse
       style="fill:#ffffff;fill-opacity:0.999079;stroke:#ececec;stroke-width:0.264583;stroke-linecap:round;stroke-linejoin:round;stroke-miterlimit:4;stroke-dasharray:none;stroke-opacity:0.999962;stop-color:#000000"
       id="path849-9604-5-3-97-10-378-5-1"
       cx="45.601601"
       cy="-9.3605976"
       rx="0.26458332"
       ry="0.52916664"
       transform="rotate(56.032941)" />
    <ellipse
       style="fill:#ffffff;fill-opacity:0.999079;stroke:#ececec;stroke-width:0.264583;stroke-linecap:round;stroke-linejoin:round;stroke-miterlimit:4;stroke-dasharray:none;stroke-opacity:0.999962;stop-color:#000000"
       id="path849-9604-5-3-97-10-378-5-38"
       cx="49.575771"
       cy="-7.2472663"
       rx="0.26458332"
       ry="0.52916664"
       transform="rotate(56.032941)" />
    <ellipse
       style="fill:#ffffff;fill-opacity:0.999079;stroke:#ececec;stroke-width:0.264583;stroke-linecap:round;stroke-linejoin:round;stroke-miterlimit:4;stroke-dasharray:none;stroke-opacity:0.999962;stop-color:#000000"
       id="path849-9604-5-3-97-10-378-5-0"
       cx="49.872234"
       cy="-8.1955996"
       rx="0.26458332"
       ry="0.52916664"
       transform="rotate(56.032941)" />
    <ellipse
       style="fill:#ffffff;fill-opacity:0.999079;stroke:#ececec;stroke-width:0.264583;stroke-linecap:round;stroke-linejoin:round;stroke-miterlimit:4;stroke-dasharray:none;stroke-opacity:0.999962;stop-color:#000000"
       id="path849-9604-5-3-97-10-378-5-9"
       cx="51.688995"
       cy="-6.4077415"
       rx="0.26458332"
       ry="0.52916664"
       transform="rotate(56.032941)" />
    <ellipse
       style="fill:#ffffff;fill-opacity:0.999079;stroke:#ececec;stroke-width:0.264583;stroke-linecap:round;stroke-linejoin:round;stroke-miterlimit:4;stroke-dasharray:none;stroke-opacity:0.999962;stop-color:#000000"
       id="path849-9604-5-3-97-10-378-5-79"
       cx="29.235693"
       cy="41.8764"
       rx="0.26458332"
       ry="0.52916664"
       transform="rotate(-5.2286692)" />
    <ellipse
       style="fill:#ffffff;fill-opacity:0.999079;stroke:#ececec;stroke-width:0.264583;stroke-linecap:round;stroke-linejoin:round;stroke-miterlimit:4;stroke-dasharray:none;stroke-opacity:0.999962;stop-color:#000000"
       id="path849-9604-5-3-97-10-378-5-79-4"
       cx="27.671776"
       cy="42.219913"
       rx="0.26458332"
       ry="0.52916664"
       transform="rotate(-5.2286692)" />
    <ellipse
       style="fill:#ffffff;fill-opacity:0.999079;stroke:#ececec;stroke-width:0.264583;stroke-linecap:round;stroke-linejoin:round;stroke-miterlimit:4;stroke-dasharray:none;stroke-opacity:0.999962;stop-color:#000000"
       id="path849-9604-5-3-97-10-378-5-79-3"
       cx="28.641693"
       cy="43.902218"
       rx="0.26458332"
       ry="0.52916664"
       transform="rotate(-5.2286692)" />
    <ellipse
       style="fill:#ffffff;fill-opacity:0.999079;stroke:#ececec;stroke-width:0.264583;stroke-linecap:round;stroke-linejoin:round;stroke-miterlimit:4;stroke-dasharray:none;stroke-opacity:0.999962;stop-color:#000000"
       id="path849-9604-5-3-97-10-378-5-79-7"
       cx="31.295656"
       cy="44.228958"
       rx="0.26458332"
       ry="0.52916664"
       transform="rotate(-5.2286692)" />
    <ellipse
       style="fill:#ffffff;fill-opacity:0.999079;stroke:#ececec;stroke-width:0.264583;stroke-linecap:round;stroke-linejoin:round;stroke-miterlimit:4;stroke-dasharray:none;stroke-opacity:0.999962;stop-color:#000000"
       id="path849-9604-5-3-97-10-378-5-79-1"
       cx="32.674824"
       cy="44.371941"
       rx="0.26458332"
       ry="0.52916664"
       transform="rotate(-5.2286692)" />
    <ellipse
       style="fill:#ffffff;fill-opacity:0.999079;stroke:#ececec;stroke-width:0.264583;stroke-linecap:round;stroke-linejoin:round;stroke-miterlimit:4;stroke-dasharray:none;stroke-opacity:0.999962;stop-color:#000000"
       id="path849-9604-5-3-97-10-378-5-79-2"
       cx="29.325926"
       cy="40.274521"
       rx="0.26458332"
       ry="0.52916664"
       transform="rotate(-5.2286692)" />
    <ellipse
       style="fill:#ffffff;fill-opacity:0.999079;stroke:#ececec;stroke-width:0.264583;stroke-linecap:round;stroke-linejoin:round;stroke-miterlimit:4;stroke-dasharray:none;stroke-opacity:0.999962;stop-color:#000000"
       id="path849-9604-5-3-97-10-378-5-79-20"
       cx="29.019661"
       cy="39.038757"
       rx="0.26458332"
       ry="0.52916664"
       transform="rotate(-5.2286692)" />
    <ellipse
       style="fill:#ffffff;fill-opacity:0.999079;stroke:#ececec;stroke-width:0.264583;stroke-linecap:round;stroke-linejoin:round;stroke-miterlimit:4;stroke-dasharray:none;stroke-opacity:0.999962;stop-color:#000000"
       id="path849-9604-5-3-97-10-378-5-79-21"
       cx="32.741077"
       cy="39.798664"
       rx="0.26458332"
       ry="0.52916664"
       transform="rotate(-5.2286692)" />
    <ellipse
       style="fill:#ffffff;fill-opacity:0.999079;stroke:#ececec;stroke-width:0.264583;stroke-linecap:round;stroke-linejoin:round;stroke-miterlimit:4;stroke-dasharray:none;stroke-opacity:0.999962;stop-color:#000000"
       id="path849-9604-5-3-97-10-378-5-79-75"
       cx="30.432541"
       cy="38.446762"
       rx="0.26458332"
       ry="0.52916664"
       transform="rotate(-5.2286692)" />
    <ellipse
       style="fill:#ffffff;fill-opacity:0.999079;stroke:#ececec;stroke-width:0.264583;stroke-linecap:round;stroke-linejoin:round;stroke-miterlimit:4;stroke-dasharray:none;stroke-opacity:0.999962;stop-color:#000000"
       id="path849-9604-5-3-97-10-378-5-79-17"
       cx="28.303612"
       cy="37.698395"
       rx="0.26458332"
       ry="0.52916664"
       transform="rotate(-5.2286692)" />
    <ellipse
       style="fill:#ffffff;fill-opacity:0.999079;stroke:#ececec;stroke-width:0.264583;stroke-linecap:round;stroke-linejoin:round;stroke-miterlimit:4;stroke-dasharray:none;stroke-opacity:0.999962;stop-color:#000000"
       id="path849-9604-5-3-97-10-378-5-79-41"
       cx="27.340843"
       cy="39.237381"
       rx="0.26458332"
       ry="0.52916664"
       transform="rotate(-5.2286692)" />
    <ellipse
       style="fill:#ffffff;fill-opacity:0.999079;stroke:#ececec;stroke-width:0.264583;stroke-linecap:round;stroke-linejoin:round;stroke-miterlimit:4;stroke-dasharray:none;stroke-opacity:0.999962;stop-color:#000000"
       id="path849-9604-5-3-97-10-378-5-79-71"
       cx="29.29471"
       cy="41.898758"
       rx="0.26458332"
       ry="0.52916664"
       transform="rotate(-5.2286692)" />
    <ellipse
       style="fill:#ffffff;fill-opacity:0.999079;stroke:#ececec;stroke-width:0.264583;stroke-linecap:round;stroke-linejoin:round;stroke-miterlimit:4;stroke-dasharray:none;stroke-opacity:0.999962;stop-color:#000000"
       id="path849-9604-5-3-97-10-378-5-79-11"
       cx="31.170761"
       cy="40.644634"
       rx="0.26458332"
       ry="0.52916664"
       transform="rotate(-5.2286692)" />
    <ellipse
       style="fill:#ffffff;fill-opacity:0.999079;stroke:#ececec;stroke-width:0.264583;stroke-linecap:round;stroke-linejoin:round;stroke-miterlimit:4;stroke-dasharray:none;stroke-opacity:0.999962;stop-color:#000000"
       id="path849-9604-5-3-97-10-378-5-79-70"
       cx="29.643333"
       cy="35.522938"
       rx="0.26458332"
       ry="0.52916664"
       transform="rotate(-5.2286692)" />
    <ellipse
       style="fill:#ffffff;fill-opacity:0.999079;stroke:#ececec;stroke-width:0.264583;stroke-linecap:round;stroke-linejoin:round;stroke-miterlimit:4;stroke-dasharray:none;stroke-opacity:0.999962;stop-color:#000000"
       id="path849-9604-5-3-97-10-378-5-79-40"
       cx="27.618891"
       cy="34.549294"
       rx="0.26458332"
       ry="0.52916664"
       transform="rotate(-5.2286692)" />
    <ellipse
       style="fill:#ffffff;fill-opacity:0.999079;stroke:#ececec;stroke-width:0.264583;stroke-linecap:round;stroke-linejoin:round;stroke-miterlimit:4;stroke-dasharray:none;stroke-opacity:0.999962;stop-color:#000000"
       id="path849-9604-5-3-97-10-378-5-79-8"
       cx="-42.908867"
       cy="21.874485"
       rx="0.26458332"
       ry="0.52916664"
       transform="rotate(-109.56197)" />
    <ellipse
       style="fill:#ffffff;fill-opacity:0.999079;stroke:#ececec;stroke-width:0.264583;stroke-linecap:round;stroke-linejoin:round;stroke-miterlimit:4;stroke-dasharray:none;stroke-opacity:0.999962;stop-color:#000000"
       id="path849-9604-5-3-97-10-378-5-79-8-5"
       cx="-44.840996"
       cy="21.524754"
       rx="0.26458332"
       ry="0.52916664"
       transform="rotate(-109.56197)" />
    <ellipse
       style="fill:#ffffff;fill-opacity:0.999079;stroke:#ececec;stroke-width:0.264583;stroke-linecap:round;stroke-linejoin:round;stroke-miterlimit:4;stroke-dasharray:none;stroke-opacity:0.999962;stop-color:#000000"
       id="path849-9604-5-3-97-10-378-5-79-8-1"
       cx="-46.052814"
       cy="18.399557"
       rx="0.26458332"
       ry="0.52916664"
       transform="rotate(-109.56197)" />
    <ellipse
       style="fill:#ffffff;fill-opacity:0.999079;stroke:#ececec;stroke-width:0.264583;stroke-linecap:round;stroke-linejoin:round;stroke-miterlimit:4;stroke-dasharray:none;stroke-opacity:0.999962;stop-color:#000000"
       id="path849-9604-5-3-97-10-378-5-79-8-6"
       cx="-46.585171"
       cy="16.45536"
       rx="0.26458332"
       ry="0.52916664"
       transform="rotate(-109.56197)" />
    <ellipse
       style="fill:#ffffff;fill-opacity:0.999079;stroke:#ececec;stroke-width:0.264583;stroke-linecap:round;stroke-linejoin:round;stroke-miterlimit:4;stroke-dasharray:none;stroke-opacity:0.999962;stop-color:#000000"
       id="path849-9604-5-3-97-10-378-5-79-8-62"
       cx="-48.402653"
       cy="17.529119"
       rx="0.26458332"
       ry="0.52916664"
       transform="rotate(-109.56197)" />
    <ellipse
       style="fill:#ffffff;fill-opacity:0.999079;stroke:#ececec;stroke-width:0.264583;stroke-linecap:round;stroke-linejoin:round;stroke-miterlimit:4;stroke-dasharray:none;stroke-opacity:0.999962;stop-color:#000000"
       id="path849-9604-5-3-97-10-378-5-79-8-19"
       cx="-49.946625"
       cy="16.785486"
       rx="0.26458332"
       ry="0.52916664"
       transform="rotate(-109.56197)" />
    <ellipse
       style="fill:#ffffff;fill-opacity:0.999079;stroke:#ececec;stroke-width:0.264583;stroke-linecap:round;stroke-linejoin:round;stroke-miterlimit:4;stroke-dasharray:none;stroke-opacity:0.999962;stop-color:#000000"
       id="path849-9604-5-3-97-10-378-5-79-8-64"
       cx="-49.239029"
       cy="15.193253"
       rx="0.26458332"
       ry="0.52916664"
       transform="rotate(-109.56197)" />
    <ellipse
       style="fill:#ffffff;fill-opacity:0.999079;stroke:#ececec;stroke-width:0.264583;stroke-linecap:round;stroke-linejoin:round;stroke-miterlimit:4;stroke-dasharray:none;stroke-opacity:0.999962;stop-color:#000000"
       id="path849-9604-5-3-97-10-378-5-79-8-8"
       cx="-48.081043"
       cy="14.877895"
       rx="0.26458332"
       ry="0.52916664"
       transform="rotate(-109.56197)" />
    <ellipse
       style="fill:#ffffff;fill-opacity:0.999079;stroke:#ececec;stroke-width:0.264583;stroke-linecap:round;stroke-linejoin:round;stroke-miterlimit:4;stroke-dasharray:none;stroke-opacity:0.999962;stop-color:#000000"
       id="path849-9604-5-3-97-10-378-5-79-8-0"
       cx="-45.871029"
       cy="16.141838"
       rx="0.26458332"
       ry="0.52916664"
       transform="rotate(-109.56197)" />
    <ellipse
       style="fill:#ffffff;fill-opacity:0.999079;stroke:#ececec;stroke-width:0.264583;stroke-linecap:round;stroke-linejoin:round;stroke-miterlimit:4;stroke-dasharray:none;stroke-opacity:0.999962;stop-color:#000000"
       id="path849-9604-5-3-97-10-378-5-79-8-81"
       cx="-43.854782"
       cy="19.198324"
       rx="0.26458332"
       ry="0.52916664"
       transform="rotate(-109.56197)" />
    <ellipse
       style="fill:#ffffff;fill-opacity:0.999079;stroke:#ececec;stroke-width:0.264583;stroke-linecap:round;stroke-linejoin:round;stroke-miterlimit:4;stroke-dasharray:none;stroke-opacity:0.999962;stop-color:#000000"
       id="path849-9604-5-3-97-10-378-5-79-8-02"
       cx="-42.745609"
       cy="17.872879"
       rx="0.26458332"
       ry="0.52916664"
       transform="rotate(-109.56197)" />
    <ellipse
       style="fill:#ffffff;fill-opacity:0.999079;stroke:#ececec;stroke-width:0.264583;stroke-linecap:round;stroke-linejoin:round;stroke-miterlimit:4;stroke-dasharray:none;stroke-opacity:0.999962;stop-color:#000000"
       id="path849-9604-5-3-97-10-378-5-79-8-2"
       cx="-48.633492"
       cy="19.326218"
       rx="0.26458332"
       ry="0.52916664"
       transform="rotate(-109.56197)" />
    <ellipse
       style="fill:#ffffff;fill-opacity:0.999079;stroke:#ececec;stroke-width:0.264583;stroke-linecap:round;stroke-linejoin:round;stroke-miterlimit:4;stroke-dasharray:none;stroke-opacity:0.999962;stop-color:#000000"
       id="path849-9604-5-3-97-10-378-5-79-8-9"
       cx="-49.56855"
       cy="18.515312"
       rx="0.26458332"
       ry="0.52916664"
       transform="rotate(-109.56197)" />
    <ellipse
       style="fill:#ffffff;fill-opacity:0.999079;stroke:#ececec;stroke-width:0.264583;stroke-linecap:round;stroke-linejoin:round;stroke-miterlimit:4;stroke-dasharray:none;stroke-opacity:0.999962;stop-color:#000000"
       id="path849-9604-5-3-97-10-378-5-79-8-7"
       cx="-51.125965"
       cy="20.603317"
       rx="0.26458332"
       ry="0.52916664"
       transform="rotate(-109.56197)" />
    <ellipse
       style="fill:#ffffff;fill-opacity:0.999079;stroke:#ececec;stroke-width:0.264583;stroke-linecap:round;stroke-linejoin:round;stroke-miterlimit:4;stroke-dasharray:none;stroke-opacity:0.999962;stop-color:#000000"
       id="path849-9604-5-3-97-10-378-5-79-8-56"
       cx="-50.118195"
       cy="21.2096"
       rx="0.26458332"
       ry="0.52916664"
       transform="rotate(-109.56197)" />
    <ellipse
       style="fill:#ffffff;fill-opacity:0.999079;stroke:#ececec;stroke-width:0.264583;stroke-linecap:round;stroke-linejoin:round;stroke-miterlimit:4;stroke-dasharray:none;stroke-opacity:0.999962;stop-color:#000000"
       id="path849-9604-5-3-97-10-378-5-79-8-4"
       cx="-48.924973"
       cy="20.445847"
       rx="0.26458332"
       ry="0.52916664"
       transform="rotate(-109.56197)" />
    <ellipse
       style="fill:#ffffff;fill-opacity:0.999079;stroke:#ececec;stroke-width:0.264583;stroke-linecap:round;stroke-linejoin:round;stroke-miterlimit:4;stroke-dasharray:none;stroke-opacity:0.999962;stop-color:#000000"
       id="path849-9604-5-3-97-10-378-5-79-8-63"
       cx="-48.137653"
       cy="22.321093"
       rx="0.26458332"
       ry="0.52916664"
       transform="rotate(-109.56197)" />
    <ellipse
       style="fill:#ffffff;fill-opacity:0.999079;stroke:#ececec;stroke-width:0.264583;stroke-linecap:round;stroke-linejoin:round;stroke-miterlimit:4;stroke-dasharray:none;stroke-opacity:0.999962;stop-color:#000000"
       id="path849-9604-5-3-97-10-378-5-79-8-79"
       cx="-46.888187"
       cy="22.995531"
       rx="0.26458332"
       ry="0.52916664"
       transform="rotate(-109.56197)" />
    <ellipse
       style="fill:#ffffff;fill-opacity:0.999079;stroke:#ececec;stroke-width:0.264583;stroke-linecap:round;stroke-linejoin:round;stroke-miterlimit:4;stroke-dasharray:none;stroke-opacity:0.999962;stop-color:#000000"
       id="path849-9604-5-3-97-10-378-5-79-8-74"
       cx="-45.237549"
       cy="23.688429"
       rx="0.26458332"
       ry="0.52916664"
       transform="rotate(-109.56197)" />
    <ellipse
       style="fill:#ffffff;fill-opacity:0.999079;stroke:#ececec;stroke-width:0.264583;stroke-linecap:round;stroke-linejoin:round;stroke-miterlimit:4;stroke-dasharray:none;stroke-opacity:0.999962;stop-color:#000000"
       id="path849-9604-5-3-97-10-378-5-79-8-91"
       cx="-43.543911"
       cy="22.464298"
       rx="0.26458332"
       ry="0.52916664"
       transform="rotate(-109.56197)" />
    <ellipse
       style="fill:#ffffff;fill-opacity:0.999079;stroke:#ececec;stroke-width:0.264583;stroke-linecap:round;stroke-linejoin:round;stroke-miterlimit:4;stroke-dasharray:none;stroke-opacity:0.999962;stop-color:#000000"
       id="path849-9604-5-3-97-10-378-5-79-8-70"
       cx="-42.672455"
       cy="23.553972"
       rx="0.26458332"
       ry="0.52916664"
       transform="rotate(-109.56197)" />
    <ellipse
       style="fill:#ffffff;fill-opacity:0.999079;stroke:#ececec;stroke-width:0.264583;stroke-linecap:round;stroke-linejoin:round;stroke-miterlimit:4;stroke-dasharray:none;stroke-opacity:0.999962;stop-color:#000000"
       id="path849-9604-5-3-97-10-378-5-79-8-60"
       cx="-42.503712"
       cy="24.376219"
       rx="0.26458332"
       ry="0.52916664"
       transform="rotate(-109.56197)" />
    <ellipse
       style="fill:#ffffff;fill-opacity:0.999079;stroke:#ececec;stroke-width:0.264583;stroke-linecap:round;stroke-linejoin:round;stroke-miterlimit:4;stroke-dasharray:none;stroke-opacity:0.999962;stop-color:#000000"
       id="path849-9604-5-3-97-10-378-5-79-8-85"
       cx="-41.368961"
       cy="21.482105"
       rx="0.26458332"
       ry="0.52916664"
       transform="rotate(-109.56197)" />
    <ellipse
       style="fill:#ffffff;fill-opacity:0.999079;stroke:#ececec;stroke-width:0.264583;stroke-linecap:round;stroke-linejoin:round;stroke-miterlimit:4;stroke-dasharray:none;stroke-opacity:0.999962;stop-color:#000000"
       id="path849-9604-5-3-97-10-378-5-79-8-3"
       cx="-42.367447"
       cy="18.25544"
       rx="0.26458332"
       ry="0.52916664"
       transform="rotate(-109.56197)" />
    <ellipse
       style="fill:#ffffff;fill-opacity:0.999079;stroke:#ececec;stroke-width:0.264583;stroke-linecap:round;stroke-linejoin:round;stroke-miterlimit:4;stroke-dasharray:none;stroke-opacity:0.999962;stop-color:#000000"
       id="path849-9604-5-3-97-10-378-5-79-8-94"
       cx="-43.431702"
       cy="16.760433"
       rx="0.26458332"
       ry="0.52916664"
       transform="rotate(-109.56197)" />
    <ellipse
       style="fill:#ffffff;fill-opacity:0.999079;stroke:#ececec;stroke-width:0.264583;stroke-linecap:round;stroke-linejoin:round;stroke-miterlimit:4;stroke-dasharray:none;stroke-opacity:0.999962;stop-color:#000000"
       id="path849-9604-5-3-97-10-378-5-79-8-15"
       cx="-45.396435"
       cy="17.799595"
       rx="0.26458332"
       ry="0.52916664"
       transform="rotate(-109.56197)" />
    <ellipse
       style="fill:#ffffff;fill-opacity:0.999079;stroke:#ececec;stroke-width:0.264583;stroke-linecap:round;stroke-linejoin:round;stroke-miterlimit:4;stroke-dasharray:none;stroke-opacity:0.999962;stop-color:#000000"
       id="path849-9604-5-3-97-10-378-5-79-8-41"
       cx="-48.164646"
       cy="20.201918"
       rx="0.26458332"
       ry="0.52916664"
       transform="rotate(-109.56197)" />
    <ellipse
       style="fill:#ffffff;fill-opacity:0.999079;stroke:#ececec;stroke-width:0.264583;stroke-linecap:round;stroke-linejoin:round;stroke-miterlimit:4;stroke-dasharray:none;stroke-opacity:0.999962;stop-color:#000000"
       id="path849-9604-5-3-97-10-378-5-79-8-55"
       cx="-49.847698"
       cy="14.711056"
       rx="0.26458332"
       ry="0.52916664"
       transform="rotate(-109.56197)" />
    <ellipse
       style="fill:#ffffff;fill-opacity:0.999079;stroke:#ececec;stroke-width:0.264583;stroke-linecap:round;stroke-linejoin:round;stroke-miterlimit:4;stroke-dasharray:none;stroke-opacity:0.999962;stop-color:#000000"
       id="path849-9604-5-3-97-10-378-5-79-8-49"
       cx="-51.996868"
       cy="20.559767"
       rx="0.26458332"
       ry="0.52916664"
       transform="rotate(-109.56197)" />
    <ellipse
       style="fill:#ffffff;fill-opacity:0.999079;stroke:#ececec;stroke-width:0.264583;stroke-linecap:round;stroke-linejoin:round;stroke-miterlimit:4;stroke-dasharray:none;stroke-opacity:0.999962;stop-color:#000000"
       id="path849-9604-5-3-97-10-378-5-79-8-83"
       cx="-49.450077"
       cy="21.624281"
       rx="0.26458332"
       ry="0.52916664"
       transform="rotate(-109.56197)" />
    <ellipse
       style="fill:#ffffff;fill-opacity:0.999079;stroke:#ececec;stroke-width:0.264583;stroke-linecap:round;stroke-linejoin:round;stroke-miterlimit:4;stroke-dasharray:none;stroke-opacity:0.999962;stop-color:#000000"
       id="path849-9604-5-3-97-10-378-5-79-8-852"
       cx="-39.707157"
       cy="-24.962673"
       rx="0.26458332"
       ry="0.52916664"
       transform="rotate(-163.34416)" />
    <ellipse
       style="fill:#ffffff;fill-opacity:0.999079;stroke:#ececec;stroke-width:0.264583;stroke-linecap:round;stroke-linejoin:round;stroke-miterlimit:4;stroke-dasharray:none;stroke-opacity:0.999962;stop-color:#000000"
       id="path849-9604-5-3-97-10-378-5-79-8-852-2"
       cx="-41.632309"
       cy="-22.364151"
       rx="0.26458332"
       ry="0.52916664"
       transform="rotate(-163.34416)" />
    <ellipse
       style="fill:#ffffff;fill-opacity:0.999079;stroke:#ececec;stroke-width:0.264583;stroke-linecap:round;stroke-linejoin:round;stroke-miterlimit:4;stroke-dasharray:none;stroke-opacity:0.999962;stop-color:#000000"
       id="path849-9604-5-3-97-10-378-5-79-8-852-27"
       cx="-43.663696"
       cy="-23.151283"
       rx="0.26458332"
       ry="0.52916664"
       transform="rotate(-163.34416)" />
    <ellipse
       style="fill:#ffffff;fill-opacity:0.999079;stroke:#ececec;stroke-width:0.264583;stroke-linecap:round;stroke-linejoin:round;stroke-miterlimit:4;stroke-dasharray:none;stroke-opacity:0.999962;stop-color:#000000"
       id="path849-9604-5-3-97-10-378-5-79-8-852-0"
       cx="-44.900146"
       cy="-25.710598"
       rx="0.26458332"
       ry="0.52916664"
       transform="rotate(-163.34416)" />
    <ellipse
       style="fill:#ffffff;fill-opacity:0.999079;stroke:#ececec;stroke-width:0.264583;stroke-linecap:round;stroke-linejoin:round;stroke-miterlimit:4;stroke-dasharray:none;stroke-opacity:0.999962;stop-color:#000000"
       id="path849-9604-5-3-97-10-378-5-79-8-852-3"
       cx="-43.10191"
       cy="-27.62602"
       rx="0.26458332"
       ry="0.52916664"
       transform="rotate(-163.34416)" />
    <ellipse
       style="fill:#ffffff;fill-opacity:0.999079;stroke:#ececec;stroke-width:0.264583;stroke-linecap:round;stroke-linejoin:round;stroke-miterlimit:4;stroke-dasharray:none;stroke-opacity:0.999962;stop-color:#000000"
       id="path849-9604-5-3-97-10-378-5-79-8-852-4"
       cx="-43.286545"
       cy="-26.786167"
       rx="0.26458332"
       ry="0.52916664"
       transform="rotate(-163.34416)" />
    <ellipse
       style="fill:#ffffff;fill-opacity:0.999079;stroke:#ececec;stroke-width:0.264583;stroke-linecap:round;stroke-linejoin:round;stroke-miterlimit:4;stroke-dasharray:none;stroke-opacity:0.999962;stop-color:#000000"
       id="path849-9604-5-3-97-10-378-5-79-8-852-6"
       cx="-40.726383"
       cy="-27.029026"
       rx="0.26458332"
       ry="0.52916664"
       transform="rotate(-163.34416)" />
    <ellipse
       style="fill:#ffffff;fill-opacity:0.999079;stroke:#ececec;stroke-width:0.264583;stroke-linecap:round;stroke-linejoin:round;stroke-miterlimit:4;stroke-dasharray:none;stroke-opacity:0.999962;stop-color:#000000"
       id="path849-9604-5-3-97-10-378-5-79-8-852-36"
       cx="-40.815392"
       cy="-25.694704"
       rx="0.26458332"
       ry="0.52916664"
       transform="rotate(-163.34416)" />
    <ellipse
       style="fill:#ffffff;fill-opacity:0.999079;stroke:#ececec;stroke-width:0.264583;stroke-linecap:round;stroke-linejoin:round;stroke-miterlimit:4;stroke-dasharray:none;stroke-opacity:0.999962;stop-color:#000000"
       id="path849-9604-5-3-97-10-378-5-93"
       cx="49.563202"
       cy="-10.397771"
       rx="0.26458332"
       ry="0.52916664"
       transform="rotate(56.032941)" />
    <ellipse
       style="fill:#ffffff;fill-opacity:0.999079;stroke:#ececec;stroke-width:0.264583;stroke-linecap:round;stroke-linejoin:round;stroke-miterlimit:4;stroke-dasharray:none;stroke-opacity:0.999962;stop-color:#000000"
       id="path849-9604-5-3-97-10-378-5-2"
       cx="48.540771"
       cy="-12.61729"
       rx="0.26458332"
       ry="0.52916664"
       transform="rotate(56.032941)" />
    <path
       style="fill:#2b1100;stroke:#2b1100;stroke-width:0.264583px;stroke-linecap:butt;stroke-linejoin:miter;stroke-opacity:1"
       d="m 29.785167,27.782782 c 0.09323,-0.35337 0.460123,-1.600275 0.923343,-1.755204 0.118943,-0.03978 2.40793,-0.166301 2.470496,-0.102969 0.349205,0.353485 0.981549,1.920686 0.800209,2.40958 -0.0634,0.170926 -0.293384,0.261244 -0.378315,0.425466 -0.08245,0.159433 0.04013,0.375407 -0.106677,0.522219 -0.257985,0.257984 -0.657564,0.05064 -0.956247,0.170114 -1.217117,0.486849 -1.142021,0.105642 -2.092047,-0.273733 -0.261596,-0.104466 -0.57164,-0.169564 -0.685382,-0.460809 -0.102073,-0.261369 -2.64e-4,-0.661919 0.02461,-0.934664 z"
       id="path4892" />
    <path
       style="fill:#2b1100;stroke:#2b1100;stroke-width:0.264583px;stroke-linecap:butt;stroke-linejoin:miter;stroke-opacity:1"
       d="m 34.671682,28.152113 c -1.554509,-3.546863 3.513202,-2.973378 3.573113,-2.282591 0.0485,0.559231 -0.05308,1.796845 -0.0016,2.386554 -0.386882,0.910979 -0.348935,1.408104 -0.863329,1.288184 -1.073953,-0.669573 -0.0483,0.758417 -1.414624,-0.26994 -0.298183,-0.19879 -0.805222,0.04706 -1.038963,-0.168646 -0.23374,-0.215706 -0.102233,-0.605927 -0.254597,-0.953561 z"
       id="path4894"
       sodipodi:nodetypes="csccccc" />
    <circle
       style="fill:#552200;fill-opacity:0.999079;stroke:#803300;stroke-width:0.264583;stroke-linecap:round;stroke-linejoin:round;stroke-miterlimit:4;stroke-dasharray:none;stroke-opacity:0.999962;stop-color:#000000"
       id="path4633"
       cx="31.666763"
       cy="27.990938"
       r="1.4288028" />
    <circle
       style="fill:#552200;fill-opacity:0.999079;stroke:#803300;stroke-width:0.264583;stroke-linecap:round;stroke-linejoin:round;stroke-miterlimit:4;stroke-dasharray:none;stroke-opacity:0.999962;stop-color:#000000"
       id="path4633-3"
       cx="36.266602"
       cy="27.017183"
       r="1.4288028" />
  </g>
</svg>
