<?xml version="1.0" encoding="UTF-8" standalone="no"?>
<svg
   width="256"
   height="256"
   viewBox="0 0 67.733332 67.733335"
   version="1.1"
   id="svg8"
   inkscape:version="1.1.2 (0a00cf5339, 2022-02-04)"
   sodipodi:docname="petri_dish_3.svg"
   xmlns:inkscape="http://www.inkscape.org/namespaces/inkscape"
   xmlns:sodipodi="http://sodipodi.sourceforge.net/DTD/sodipodi-0.dtd"
   xmlns:xlink="http://www.w3.org/1999/xlink"
   xmlns="http://www.w3.org/2000/svg"
   xmlns:svg="http://www.w3.org/2000/svg"
   xmlns:rdf="http://www.w3.org/1999/02/22-rdf-syntax-ns#"
   xmlns:cc="http://creativecommons.org/ns#"
   xmlns:dc="http://purl.org/dc/elements/1.1/">
  <defs
     id="defs2">
    <radialGradient
       inkscape:collect="always"
       xlink:href="#linearGradient881"
       id="radialGradient983"
       cx="6.0854268"
       cy="25.400002"
       fx="6.0854268"
       fy="25.400002"
       r="2.2489581"
       gradientUnits="userSpaceOnUse"
       gradientTransform="matrix(-1.2704653e-6,-0.47058865,0.47058876,2.1099265e-7,21.913723,36.730384)" />
    <linearGradient
       inkscape:collect="always"
       id="linearGradient881">
      <stop
         style="stop-color:#70a5ff;stop-opacity:1"
         offset="0"
         id="stop877" />
      <stop
         style="stop-color:#80cfff;stop-opacity:1"
         offset="1"
         id="stop879" />
    </linearGradient>
  </defs>
  <sodipodi:namedview
     id="base"
     pagecolor="#ffffff"
     bordercolor="#666666"
     borderopacity="1.0"
     inkscape:pageopacity="0"
     inkscape:pageshadow="2"
     inkscape:zoom="32"
     inkscape:cx="128.39063"
     inkscape:cy="130.98438"
     inkscape:document-units="px"
     inkscape:current-layer="layer3"
     inkscape:document-rotation="0"
     showgrid="true"
     units="px"
     inkscape:window-width="2560"
     inkscape:window-height="1343"
     inkscape:window-x="1200"
     inkscape:window-y="357"
     inkscape:window-maximized="1"
     inkscape:snap-grids="true"
     inkscape:pagecheckerboard="0"
     inkscape:snap-smooth-nodes="true"
     inkscape:snap-object-midpoints="false"
     inkscape:object-nodes="true">
    <inkscape:grid
       type="xygrid"
       id="grid833"
       units="px"
       empspacing="4"
       spacingy="0.52916667"
       spacingx="0.52916667" />
  </sodipodi:namedview>
  <metadata
     id="metadata5">
    <rdf:RDF>
      <cc:Work
         rdf:about="">
        <dc:format>image/svg+xml</dc:format>
        <dc:type
           rdf:resource="http://purl.org/dc/dcmitype/StillImage" />
      </cc:Work>
    </rdf:RDF>
  </metadata>
  <g
     inkscape:groupmode="layer"
     id="layer3"
     inkscape:label="Hardware"
     style="display:inline">
    <rect
       style="display:inline;fill:url(#radialGradient983);fill-opacity:1;stroke:#d5f6ff;stroke-width:0.264583;stroke-linecap:round;stroke-linejoin:bevel;stroke-miterlimit:4;stroke-dasharray:none;stop-color:#000000"
       id="rect1089"
       width="4.2333331"
       height="4.2333331"
       x="31.75"
       y="31.75"
       rx="2.1166666"
       ry="2.1166666" />
    <path
       style="display:inline;fill:none;stroke:#008080;stroke-width:0.264583px;stroke-linecap:butt;stroke-linejoin:miter;stroke-opacity:1"
       d="m 32.713143,33.760463 c 0.523008,-1.446064 1.723028,0.24307 2.211857,0.635371 0.203604,0.163398 0.535432,0.03688 0.69856,0.158379"
       id="path13257" />
    <path
       style="display:inline;fill:none;stroke:#008000;stroke-width:0.264583px;stroke-linecap:butt;stroke-linejoin:miter;stroke-opacity:1"
       d="m 33.771476,34.818797 c -0.03638,-0.141251 -0.179157,-0.695794 -0.0028,-0.826733 0.70631,-0.524304 0.591399,-0.825548 1.061096,-1.289934"
       id="path13259" />
    <path
       style="display:inline;fill:none;stroke:#008000;stroke-width:0.264583px;stroke-linecap:butt;stroke-linejoin:miter;stroke-opacity:1"
       d="M 34.300643,33.231297 C 34.04443,32.77861 33.611817,32.372292 33.24231,32.437547"
       id="path13261" />
    <path
       style="display:inline;fill:none;stroke:#008080;stroke-width:0.264583px;stroke-linecap:butt;stroke-linejoin:miter;stroke-opacity:1"
       d="m 33.24231,33.49588 c 0.249119,0.604628 -0.495097,1.270402 -0.529167,1.322917"
       id="path13263" />
    <path
       style="display:inline;fill:none;stroke:#008000;stroke-width:0.264583px;stroke-linecap:butt;stroke-linejoin:miter;stroke-opacity:1"
       d="m 33.506893,35.08338 c 0.700432,-0.134782 1.082148,-1.267563 1.852083,-1.322917"
       id="path13265" />
    <path
       style="display:inline;fill:none;stroke:#008000;stroke-width:0.264583px;stroke-linecap:butt;stroke-linejoin:miter;stroke-opacity:1"
       d="m 34.300643,34.818797 c 0.241333,0.286596 0.40547,0.242715 0.529167,0.264583"
       id="path13267" />
  </g>
  <g
     inkscape:groupmode="layer"
     id="layer2"
     inkscape:label="Software" />
</svg>
