<?xml version="1.0" encoding="UTF-8" standalone="no"?>
<svg
   width="256"
   height="256"
   viewBox="0 0 67.73333 67.733335"
   version="1.1"
   id="svg8"
   inkscape:version="1.1.2 (0a00cf5339, 2022-02-04)"
   sodipodi:docname="filing_cabinet-open.svg"
   xmlns:inkscape="http://www.inkscape.org/namespaces/inkscape"
   xmlns:sodipodi="http://sodipodi.sourceforge.net/DTD/sodipodi-0.dtd"
   xmlns:xlink="http://www.w3.org/1999/xlink"
   xmlns="http://www.w3.org/2000/svg"
   xmlns:svg="http://www.w3.org/2000/svg"
   xmlns:rdf="http://www.w3.org/1999/02/22-rdf-syntax-ns#"
   xmlns:cc="http://creativecommons.org/ns#"
   xmlns:dc="http://purl.org/dc/elements/1.1/">
  <defs
     id="defs2">
    <linearGradient
       inkscape:collect="always"
       id="linearGradient2540">
      <stop
         style="stop-color:#000002;stop-opacity:1"
         offset="0"
         id="stop2536" />
      <stop
         style="stop-color:#000002;stop-opacity:0"
         offset="1"
         id="stop2538" />
    </linearGradient>
    <linearGradient
       inkscape:collect="always"
       id="linearGradient2039">
      <stop
         style="stop-color:#000002;stop-opacity:1"
         offset="0"
         id="stop2035" />
      <stop
         style="stop-color:#000000;stop-opacity:0"
         offset="1"
         id="stop2037" />
    </linearGradient>
    <linearGradient
       inkscape:collect="always"
       xlink:href="#linearGradient2540"
       id="linearGradient2041"
       x1="2.1166666"
       y1="16.933332"
       x2="4.2333331"
       y2="16.933332"
       gradientUnits="userSpaceOnUse"
       gradientTransform="matrix(0.50000006,0,0,1,17.991665,0)" />
    <linearGradient
       inkscape:collect="always"
       xlink:href="#linearGradient2039"
       id="linearGradient2439"
       gradientUnits="userSpaceOnUse"
       x1="2.1166666"
       y1="16.933332"
       x2="4.2333331"
       y2="16.933332"
       gradientTransform="matrix(0.49999925,0,0,1,-49.741661,0)" />
  </defs>
  <sodipodi:namedview
     id="base"
     pagecolor="#ffffff"
     bordercolor="#666666"
     borderopacity="1.0"
     inkscape:pageopacity="0"
     inkscape:pageshadow="2"
     inkscape:zoom="3.959798"
     inkscape:cx="163.13964"
     inkscape:cy="67.553951"
     inkscape:document-units="px"
     inkscape:current-layer="layer1"
     inkscape:document-rotation="0"
     showgrid="true"
     units="px"
     inkscape:window-width="2560"
     inkscape:window-height="1343"
     inkscape:window-x="1200"
     inkscape:window-y="357"
     inkscape:window-maximized="1"
     inkscape:snap-grids="true"
     inkscape:pagecheckerboard="0"
     inkscape:snap-smooth-nodes="true">
    <inkscape:grid
       type="xygrid"
       id="grid833"
       units="px"
       empspacing="4"
       spacingy="0.52916666"
       spacingx="0.52916666" />
  </sodipodi:namedview>
  <metadata
     id="metadata5">
    <rdf:RDF>
      <cc:Work
         rdf:about="">
        <dc:format>image/svg+xml</dc:format>
        <dc:type
           rdf:resource="http://purl.org/dc/dcmitype/StillImage" />
      </cc:Work>
    </rdf:RDF>
  </metadata>
  <g
     inkscape:label="Desk"
     inkscape:groupmode="layer"
     id="layer1">
    <ellipse
       style="fill:#808080;fill-opacity:0.998891;stroke:#333333;stroke-width:0.529167;stroke-linecap:round;stroke-linejoin:round;stroke-miterlimit:4;stroke-dasharray:none;paint-order:markers fill stroke;stop-color:#000000"
       id="path1524-7-2"
       cx="33.866665"
       cy="36.512505"
       rx="2.1166668"
       ry="1.0583333" />
    <rect
       style="display:inline;fill:#808080;fill-opacity:0.998891;stroke:#333333;stroke-width:0.630011;stroke-linecap:round;stroke-linejoin:round;stroke-miterlimit:4;stroke-dasharray:none;paint-order:markers fill stroke;stop-color:#000000"
       id="rect36-6"
       width="24.870831"
       height="10.054171"
       x="21.166666"
       y="26.458332"
       rx="7.8440917e-07"
       ry="7.8440917e-07" />
    <rect
       style="fill:#000000;fill-opacity:0.993863;stroke:none;stroke-width:1.25941;stroke-linecap:round;stroke-linejoin:round;stroke-miterlimit:4;stroke-dasharray:none;paint-order:markers fill stroke;stop-color:#000000"
       id="rect3563"
       width="23.812496"
       height="9.5250006"
       x="21.695833"
       y="26.458332"
       rx="7.8441019e-07"
       ry="7.8441019e-07" />
    <rect
       style="fill:#ffffff;fill-opacity:0.993863;stroke:#d38d5f;stroke-width:0.220527;stroke-linecap:round;stroke-linejoin:round;stroke-miterlimit:4;stroke-dasharray:none;paint-order:markers fill stroke;stop-color:#000000"
       id="rect3733-7"
       width="22.754164"
       height="0.52916688"
       x="22.225"
       y="30.162498"
       rx="7.8441019e-07"
       ry="7.8441013e-07" />
    <rect
       style="fill:#ffffff;fill-opacity:0.993863;stroke:#d38d5f;stroke-width:0.220527;stroke-linecap:round;stroke-linejoin:round;stroke-miterlimit:4;stroke-dasharray:none;paint-order:markers fill stroke;stop-color:#000000"
       id="rect3733-0"
       width="22.754164"
       height="0.52916688"
       x="22.225"
       y="29.104166"
       rx="7.8441019e-07"
       ry="7.8441013e-07" />
    <ellipse
       style="fill:#808080;fill-opacity:0.998891;stroke:#333333;stroke-width:0.529167;stroke-linecap:round;stroke-linejoin:round;stroke-miterlimit:4;stroke-dasharray:none;paint-order:markers fill stroke;stop-color:#000000"
       id="path1524-7"
       cx="33.866665"
       cy="28.574999"
       rx="2.1166668"
       ry="1.0583333" />
    <rect
       style="display:inline;fill:#808080;fill-opacity:0.998891;stroke:#333333;stroke-width:0.540798;stroke-linecap:round;stroke-linejoin:round;stroke-miterlimit:4;stroke-dasharray:none;paint-order:markers fill stroke;stop-color:#000000"
       id="rect36"
       width="24.870831"
       height="7.4083352"
       x="21.166668"
       y="21.166662"
       rx="7.8440917e-07"
       ry="7.8440917e-07" />
    <rect
       style="fill:#b3b3b3;stroke:#000000;stroke-width:0.36454;stroke-linecap:round;stroke-linejoin:bevel;stroke-miterlimit:4;stroke-dasharray:none;stop-color:#000000"
       id="rect833"
       width="29.633335"
       height="21.166666"
       x="19.049999"
       y="6.3499999"
       rx="1.8146976e-07"
       ry="1.8146976e-07" />
    <rect
       style="fill:url(#linearGradient2041);fill-opacity:1;stroke:none;stroke-width:0.374178;stroke-linecap:round;stroke-linejoin:round;stroke-miterlimit:4;stroke-dasharray:none;paint-order:markers fill stroke;stop-color:#000000"
       id="rect1981"
       width="1.0583334"
       height="21.166666"
       x="19.049999"
       y="6.3499999"
       rx="1.8146977e-07"
       ry="1.8146977e-07" />
    <rect
       style="fill:url(#linearGradient2439);fill-opacity:1;stroke:none;stroke-width:0.374177;stroke-linecap:round;stroke-linejoin:round;stroke-miterlimit:4;stroke-dasharray:none;paint-order:markers fill stroke;stop-color:#000000"
       id="rect1981-5"
       width="1.0583317"
       height="21.166666"
       x="-48.683331"
       y="6.3499999"
       rx="1.8146977e-07"
       ry="1.8146977e-07"
       transform="scale(-1,1)" />
    <rect
       style="fill:#ffffff;fill-opacity:0.993863;stroke:#d38d5f;stroke-width:0.220527;stroke-linecap:round;stroke-linejoin:round;stroke-miterlimit:4;stroke-dasharray:none;paint-order:markers fill stroke;stop-color:#000000"
       id="rect3733"
       width="22.754164"
       height="0.52916688"
       x="22.225"
       y="34.924999"
       rx="7.8441019e-07"
       ry="7.8441013e-07" />
    <rect
       style="fill:#ffffff;fill-opacity:0.993863;stroke:#d38d5f;stroke-width:0.220527;stroke-linecap:round;stroke-linejoin:round;stroke-miterlimit:4;stroke-dasharray:none;paint-order:markers fill stroke;stop-color:#000000"
       id="rect3733-9"
       width="22.754164"
       height="0.52916688"
       x="22.225"
       y="33.866665"
       rx="7.8441019e-07"
       ry="7.8441013e-07" />
    <rect
       style="fill:#ffffff;fill-opacity:0.993863;stroke:#d38d5f;stroke-width:0.296905;stroke-linecap:round;stroke-linejoin:round;stroke-miterlimit:4;stroke-dasharray:none;paint-order:markers fill stroke;stop-color:#000000"
       id="rect3733-1"
       width="22.677786"
       height="0.96241748"
       x="22.263189"
       y="32.336891"
       rx="7.8441019e-07"
       ry="7.8441013e-07" />
    <rect
       style="fill:#ffffff;fill-opacity:0.993863;stroke:#d38d5f;stroke-width:0.220527;stroke-linecap:round;stroke-linejoin:round;stroke-miterlimit:4;stroke-dasharray:none;paint-order:markers fill stroke;stop-color:#000000"
       id="rect3733-2"
       width="22.754164"
       height="0.52916688"
       x="22.225"
       y="31.220833"
       rx="7.8441019e-07"
       ry="7.8441013e-07" />
  </g>
  <g
     inkscape:groupmode="layer"
     id="layer2"
     inkscape:label="Display"
     style="display:inline" />
</svg>
