<?xml version="1.0" encoding="UTF-8" standalone="no"?>
<svg
   width="256"
   height="256"
   viewBox="0 0 67.73333 67.733335"
   version="1.1"
   id="svg8"
   inkscape:version="1.1.2 (0a00cf5339, 2022-02-04)"
   sodipodi:docname="study_desk_b.svg"
   xmlns:inkscape="http://www.inkscape.org/namespaces/inkscape"
   xmlns:sodipodi="http://sodipodi.sourceforge.net/DTD/sodipodi-0.dtd"
   xmlns="http://www.w3.org/2000/svg"
   xmlns:svg="http://www.w3.org/2000/svg"
   xmlns:rdf="http://www.w3.org/1999/02/22-rdf-syntax-ns#"
   xmlns:cc="http://creativecommons.org/ns#"
   xmlns:dc="http://purl.org/dc/elements/1.1/">
  <defs
     id="defs2" />
  <sodipodi:namedview
     id="base"
     pagecolor="#ffffff"
     bordercolor="#666666"
     borderopacity="1.0"
     inkscape:pageopacity="0"
     inkscape:pageshadow="2"
     inkscape:zoom="5.6"
     inkscape:cx="60.982143"
     inkscape:cy="78.125"
     inkscape:document-units="px"
     inkscape:current-layer="layer2"
     inkscape:document-rotation="0"
     showgrid="true"
     units="px"
     inkscape:window-width="2560"
     inkscape:window-height="1343"
     inkscape:window-x="1200"
     inkscape:window-y="240"
     inkscape:window-maximized="1"
     inkscape:snap-grids="true"
     inkscape:pagecheckerboard="0"
     inkscape:snap-object-midpoints="false"
     inkscape:snap-smooth-nodes="true">
    <inkscape:grid
       type="xygrid"
       id="grid833"
       units="px"
       empspacing="8"
       spacingy="0.52916666"
       spacingx="0.52916666" />
  </sodipodi:namedview>
  <metadata
     id="metadata5">
    <rdf:RDF>
      <cc:Work
         rdf:about="">
        <dc:format>image/svg+xml</dc:format>
        <dc:type
           rdf:resource="http://purl.org/dc/dcmitype/StillImage" />
      </cc:Work>
    </rdf:RDF>
  </metadata>
  <g
     inkscape:label="Desk"
     inkscape:groupmode="layer"
     id="layer1"
     sodipodi:insensitive="true">
    <path
       id="rect833"
       style="fill:#cccccc;stroke:#000000;stroke-width:1.05833;stroke-linecap:round;stroke-linejoin:bevel;stop-color:#000000"
       d="m 14.816667,8.4666672 h 37.854192 l 10e-7,2e-7 0.245806,25.3999946 h -10e-7 c -5.407741,4.233337 -32.938063,4.233337 -38.099999,4e-6 z"
       sodipodi:nodetypes="ccccccc" />
    <rect
       style="fill:#1a1a1a;stroke:#666666;stroke-width:0.529167;stroke-linecap:round;stroke-linejoin:bevel;stroke-miterlimit:4;stroke-dasharray:none;stroke-opacity:0.996078;stop-color:#000000"
       id="rect1754"
       width="35.454166"
       height="22.224998"
       x="15.875"
       y="10.05417"
       rx="1.8146977e-07"
       ry="1.8146977e-07" />
    <rect
       style="fill:#000000;stroke-width:0.529167;stroke-linecap:round;stroke-linejoin:bevel;stroke-miterlimit:4;stroke-dasharray:none;stroke-opacity:0.996078;stop-color:#000000"
       id="rect2931"
       width="1.0583333"
       height="1.0583333"
       x="29.633333"
       y="33.866665"
       rx="1.0463265e-07"
       ry="1.9579352e-06" />
    <rect
       style="fill:#000000;stroke-width:0.529167;stroke-linecap:round;stroke-linejoin:bevel;stroke-miterlimit:4;stroke-dasharray:none;stroke-opacity:0.996078;stop-color:#000000"
       id="rect2935"
       width="1.0583333"
       height="1.0583333"
       x="27.516666"
       y="32.808334"
       rx="1.0463265e-07"
       ry="1.9579352e-06" />
    <rect
       style="fill:#000000;stroke-width:0.529167;stroke-linecap:round;stroke-linejoin:bevel;stroke-miterlimit:4;stroke-dasharray:none;stroke-opacity:0.996078;stop-color:#000000"
       id="rect2937"
       width="1.0583333"
       height="1.0583333"
       x="26.458332"
       y="33.866665"
       rx="1.0463265e-07"
       ry="1.9579352e-06" />
    <rect
       style="fill:#000000;stroke-width:0.529167;stroke-linecap:round;stroke-linejoin:bevel;stroke-miterlimit:4;stroke-dasharray:none;stroke-opacity:0.996078;stop-color:#000000"
       id="rect2939"
       width="2.1166666"
       height="1.0583333"
       x="31.75"
       y="34.924999"
       rx="1.0463265e-07"
       ry="1.9579352e-06" />
    <rect
       style="fill:#000000;stroke-width:0.529167;stroke-linecap:round;stroke-linejoin:bevel;stroke-miterlimit:4;stroke-dasharray:none;stroke-opacity:0.996078;stop-color:#000000"
       id="rect2941"
       width="1.0583333"
       height="1.0583333"
       x="34.924999"
       y="33.866665"
       rx="1.0463265e-07"
       ry="1.9579352e-06" />
    <rect
       style="fill:#000000;stroke-width:0.529167;stroke-linecap:round;stroke-linejoin:bevel;stroke-miterlimit:4;stroke-dasharray:none;stroke-opacity:0.996078;stop-color:#000000"
       id="rect2943"
       width="1.0583333"
       height="1.0583333"
       x="32.808334"
       y="33.866665"
       rx="1.0463265e-07"
       ry="1.9579352e-06" />
    <rect
       style="fill:#000000;stroke-width:0.529167;stroke-linecap:round;stroke-linejoin:bevel;stroke-miterlimit:4;stroke-dasharray:none;stroke-opacity:0.996078;stop-color:#000000"
       id="rect2945"
       width="1.0583333"
       height="1.0583333"
       x="31.75"
       y="32.808334"
       rx="1.0463265e-07"
       ry="1.9579352e-06" />
    <rect
       style="fill:#000000;stroke-width:0.529167;stroke-linecap:round;stroke-linejoin:bevel;stroke-miterlimit:4;stroke-dasharray:none;stroke-opacity:0.996078;stop-color:#000000"
       id="rect2949"
       width="1.0583333"
       height="1.0583333"
       x="35.983334"
       y="32.808334"
       rx="1.0463265e-07"
       ry="1.9579352e-06" />
    <rect
       style="fill:#000000;stroke-width:0.529167;stroke-linecap:round;stroke-linejoin:bevel;stroke-miterlimit:4;stroke-dasharray:none;stroke-opacity:0.996078;stop-color:#000000"
       id="rect2951"
       width="1.0583333"
       height="1.0583333"
       x="39.158333"
       y="33.866665"
       rx="1.0463265e-07"
       ry="1.9579352e-06" />
    <rect
       style="fill:#000000;stroke-width:0.529167;stroke-linecap:round;stroke-linejoin:bevel;stroke-miterlimit:4;stroke-dasharray:none;stroke-opacity:0.996078;stop-color:#000000"
       id="rect2955"
       width="1.0583333"
       height="1.0583333"
       x="33.866665"
       y="34.924999"
       rx="1.0463265e-07"
       ry="1.9579352e-06" />
    <rect
       style="fill:#000000;stroke-width:0.529167;stroke-linecap:round;stroke-linejoin:bevel;stroke-miterlimit:4;stroke-dasharray:none;stroke-opacity:0.996078;stop-color:#000000"
       id="rect2957"
       width="1.0583333"
       height="1.0583333"
       x="37.041668"
       y="33.866665"
       rx="1.0463265e-07"
       ry="1.9579352e-06" />
    <rect
       style="fill:#000000;stroke-width:0.529167;stroke-linecap:round;stroke-linejoin:bevel;stroke-miterlimit:4;stroke-dasharray:none;stroke-opacity:0.996078;stop-color:#000000"
       id="rect2959"
       width="1.0583333"
       height="1.0583333"
       x="40.216667"
       y="32.808334"
       rx="1.0463265e-07"
       ry="1.9579352e-06" />
    <rect
       style="fill:#000000;stroke-width:0.529167;stroke-linecap:round;stroke-linejoin:bevel;stroke-miterlimit:4;stroke-dasharray:none;stroke-opacity:0.996078;stop-color:#000000"
       id="rect2961"
       width="1.0583333"
       height="1.0583333"
       x="38.099998"
       y="32.808334"
       rx="1.0463265e-07"
       ry="1.9579352e-06" />
  </g>
  <g
     inkscape:groupmode="layer"
     id="layer2"
     inkscape:label="Display">
    <rect
       style="display:inline;fill:#006680;fill-opacity:0.999248;stroke:#87cdde;stroke-width:0.529168;stroke-linecap:round;stroke-linejoin:round;stop-color:#000000"
       id="rect1117-3"
       width="32.808331"
       height="20.108337"
       x="17.462502"
       y="11.112504"
       rx="1.0583332"
       ry="1.058333" />
    <rect
       style="fill:#000000;stroke-width:0.529167;stroke-linecap:round;stroke-linejoin:bevel;stroke-miterlimit:4;stroke-dasharray:none;stroke-opacity:0.996078;stop-color:#000000"
       id="rect1093"
       width="30.691668"
       height="17.991667"
       x="18.520834"
       y="12.170837"
       rx="1.0463265e-07"
       ry="1.9579352e-06" />
    <circle
       style="fill:#00ff00;fill-opacity:0.559812;stroke:#f2f2f2;stroke-width:0.264583;stroke-linecap:round;stroke-linejoin:bevel;stroke-miterlimit:4;stroke-dasharray:none;stroke-opacity:0.996078;stop-color:#000000"
       id="path1853"
       cx="38.175587"
       cy="21.705769"
       r="4.7624998" />
    <circle
       style="fill:#0000ff;fill-opacity:0.514834;stroke:#f2f2f2;stroke-width:0.264583;stroke-linecap:round;stroke-linejoin:bevel;stroke-miterlimit:4;stroke-dasharray:none;stroke-opacity:0.996078;stop-color:#000000"
       id="path1853-3"
       cx="43.920834"
       cy="21.695833"
       r="4.7624998" />
    <rect
       style="fill:#ffffff;fill-opacity:1;stroke:none;stroke-width:0.264583;stroke-linecap:round;stroke-linejoin:bevel;stroke-miterlimit:4;stroke-dasharray:none;stroke-opacity:0.996078;stop-color:#000000"
       id="rect2888"
       width="4.2333331"
       height="1.0583336"
       x="21.695833"
       y="14.816667"
       rx="1.8146977e-07"
       ry="1.8146977e-07" />
    <rect
       style="fill:#ffffff;fill-opacity:1;stroke:none;stroke-width:0.264583;stroke-linecap:round;stroke-linejoin:bevel;stroke-miterlimit:4;stroke-dasharray:none;stroke-opacity:0.996078;stop-color:#000000"
       id="rect3132"
       width="2.1166666"
       height="1.0583333"
       x="26.987501"
       y="14.816667"
       rx="1.8146977e-07"
       ry="1.8146977e-07" />
    <rect
       style="fill:#ffffff;fill-opacity:1;stroke:none;stroke-width:0.264583;stroke-linecap:round;stroke-linejoin:bevel;stroke-miterlimit:4;stroke-dasharray:none;stroke-opacity:0.996078;stop-color:#000000"
       id="rect3134"
       width="1.0583333"
       height="1.0583333"
       x="19.579166"
       y="14.816667"
       rx="1.8146977e-07"
       ry="1.8146977e-07" />
    <rect
       style="fill:#ffffff;fill-opacity:1;stroke:none;stroke-width:0.264583;stroke-linecap:round;stroke-linejoin:bevel;stroke-miterlimit:4;stroke-dasharray:none;stroke-opacity:0.996078;stop-color:#000000"
       id="rect3136"
       width="4.2333331"
       height="1.0583333"
       x="19.579166"
       y="16.933334"
       rx="1.8146977e-07"
       ry="1.8146977e-07" />
    <rect
       style="fill:#ffffff;fill-opacity:1;stroke:none;stroke-width:0.264583;stroke-linecap:round;stroke-linejoin:bevel;stroke-miterlimit:4;stroke-dasharray:none;stroke-opacity:0.996078;stop-color:#000000"
       id="rect3138"
       width="2.1166666"
       height="1.0583333"
       x="24.870834"
       y="16.933334"
       rx="1.8146977e-07"
       ry="1.8146977e-07" />
    <rect
       style="fill:#ffffff;fill-opacity:1;stroke:none;stroke-width:0.264583;stroke-linecap:round;stroke-linejoin:bevel;stroke-miterlimit:4;stroke-dasharray:none;stroke-opacity:0.996078;stop-color:#000000"
       id="rect3140"
       width="3.175"
       height="1.0583333"
       x="28.045834"
       y="16.933334"
       rx="1.8146977e-07"
       ry="1.8146977e-07" />
    <rect
       style="fill:#ffffff;fill-opacity:1;stroke:none;stroke-width:0.264583;stroke-linecap:round;stroke-linejoin:bevel;stroke-miterlimit:4;stroke-dasharray:none;stroke-opacity:0.996078;stop-color:#000000"
       id="rect3142"
       width="3.175"
       height="1.0583333"
       x="19.579166"
       y="19.050001"
       rx="1.8146977e-07"
       ry="1.8146977e-07" />
    <rect
       style="fill:#ffffff;fill-opacity:1;stroke:none;stroke-width:0.264583;stroke-linecap:round;stroke-linejoin:bevel;stroke-miterlimit:4;stroke-dasharray:none;stroke-opacity:0.996078;stop-color:#000000"
       id="rect3144"
       width="4.2333326"
       height="1.0583333"
       x="23.8125"
       y="19.050001"
       rx="1.8146977e-07"
       ry="1.8146977e-07" />
    <rect
       style="fill:#ffffff;fill-opacity:1;stroke:none;stroke-width:0.264583;stroke-linecap:round;stroke-linejoin:bevel;stroke-miterlimit:4;stroke-dasharray:none;stroke-opacity:0.996078;stop-color:#000000"
       id="rect3146"
       width="4.2333331"
       height="1.0583333"
       x="19.579166"
       y="21.166668"
       rx="1.8146977e-07"
       ry="1.8146977e-07" />
    <rect
       style="fill:#ffffff;fill-opacity:1;stroke:none;stroke-width:0.264583;stroke-linecap:round;stroke-linejoin:bevel;stroke-miterlimit:4;stroke-dasharray:none;stroke-opacity:0.996078;stop-color:#000000"
       id="rect3148"
       width="2.1166666"
       height="1.0583333"
       x="24.870834"
       y="21.166668"
       rx="1.8146977e-07"
       ry="1.8146977e-07" />
    <rect
       style="fill:#ffffff;fill-opacity:1;stroke:none;stroke-width:0.264583;stroke-linecap:round;stroke-linejoin:bevel;stroke-miterlimit:4;stroke-dasharray:none;stroke-opacity:0.996078;stop-color:#000000"
       id="rect3150"
       width="2.1166666"
       height="1.0583333"
       x="19.579166"
       y="23.283335"
       rx="1.8146977e-07"
       ry="1.8146977e-07" />
    <rect
       style="fill:#ffffff;fill-opacity:1;stroke:none;stroke-width:0.264583;stroke-linecap:round;stroke-linejoin:bevel;stroke-miterlimit:4;stroke-dasharray:none;stroke-opacity:0.996078;stop-color:#000000"
       id="rect3152"
       width="3.175"
       height="1.0583333"
       x="22.754166"
       y="23.283335"
       rx="1.8146977e-07"
       ry="1.8146977e-07" />
    <rect
       style="fill:#ffffff;fill-opacity:1;stroke:none;stroke-width:0.264583;stroke-linecap:round;stroke-linejoin:bevel;stroke-miterlimit:4;stroke-dasharray:none;stroke-opacity:0.996078;stop-color:#000000"
       id="rect3154"
       width="2.1166666"
       height="1.0583333"
       x="26.987501"
       y="23.283335"
       rx="1.8146977e-07"
       ry="1.8146977e-07" />
    <rect
       style="fill:#ffffff;fill-opacity:1;stroke:none;stroke-width:0.264583;stroke-linecap:round;stroke-linejoin:bevel;stroke-miterlimit:4;stroke-dasharray:none;stroke-opacity:0.996078;stop-color:#000000"
       id="rect3156"
       width="1.0583333"
       height="1.0583333"
       x="30.1625"
       y="23.283335"
       rx="1.8146977e-07"
       ry="1.8146977e-07" />
    <rect
       style="fill:#ffffff;fill-opacity:1;stroke:none;stroke-width:0.264583;stroke-linecap:round;stroke-linejoin:bevel;stroke-miterlimit:4;stroke-dasharray:none;stroke-opacity:0.996078;stop-color:#000000"
       id="rect3158"
       width="3.175"
       height="1.0583333"
       x="39.158333"
       y="14.816669"
       rx="1.8146977e-07"
       ry="1.8146977e-07" />
    <rect
       style="fill:#ffffff;fill-opacity:1;stroke:none;stroke-width:0.264583;stroke-linecap:round;stroke-linejoin:bevel;stroke-miterlimit:4;stroke-dasharray:none;stroke-opacity:0.996078;stop-color:#000000"
       id="rect3160"
       width="3.175"
       height="1.0583333"
       x="43.391666"
       y="14.816669"
       rx="1.8146977e-07"
       ry="1.8146977e-07" />
    <rect
       style="fill:#ffffff;fill-opacity:1;stroke:none;stroke-width:0.264583;stroke-linecap:round;stroke-linejoin:bevel;stroke-miterlimit:4;stroke-dasharray:none;stroke-opacity:0.996078;stop-color:#000000"
       id="rect3162"
       width="1.0583333"
       height="1.0583333"
       x="39.158333"
       y="12.700002"
       rx="1.8146977e-07"
       ry="1.8146977e-07" />
    <rect
       style="fill:#ffffff;fill-opacity:1;stroke:none;stroke-width:0.264583;stroke-linecap:round;stroke-linejoin:bevel;stroke-miterlimit:4;stroke-dasharray:none;stroke-opacity:0.996078;stop-color:#000000"
       id="rect3164"
       width="3.175"
       height="1.0583333"
       x="41.275002"
       y="12.700002"
       rx="1.8146977e-07"
       ry="1.8146977e-07" />
    <rect
       style="fill:#ffffff;fill-opacity:1;stroke:none;stroke-width:0.264583;stroke-linecap:round;stroke-linejoin:bevel;stroke-miterlimit:4;stroke-dasharray:none;stroke-opacity:0.996078;stop-color:#000000"
       id="rect3166"
       width="2.1166666"
       height="1.0583333"
       x="45.508331"
       y="12.700002"
       rx="1.8146977e-07"
       ry="1.8146977e-07" />
    <rect
       style="fill:#ffffff;fill-opacity:1;stroke:none;stroke-width:0.264583;stroke-linecap:round;stroke-linejoin:bevel;stroke-miterlimit:4;stroke-dasharray:none;stroke-opacity:0.996078;stop-color:#000000"
       id="rect3168"
       width="2.1166666"
       height="1.0583333"
       x="43.92083"
       y="26.987497"
       rx="1.8146977e-07"
       ry="1.8146977e-07" />
    <rect
       style="fill:#ffffff;fill-opacity:1;stroke:none;stroke-width:0.264583;stroke-linecap:round;stroke-linejoin:bevel;stroke-miterlimit:4;stroke-dasharray:none;stroke-opacity:0.996078;stop-color:#000000"
       id="rect3170"
       width="1.0583333"
       height="1.0583333"
       x="47.095833"
       y="26.987497"
       rx="1.8146977e-07"
       ry="1.8146977e-07" />
    <rect
       style="fill:#ffffff;fill-opacity:1;stroke:none;stroke-width:0.264583;stroke-linecap:round;stroke-linejoin:bevel;stroke-miterlimit:4;stroke-dasharray:none;stroke-opacity:0.996078;stop-color:#000000"
       id="rect3172"
       width="2.1166666"
       height="1.0583333"
       x="42.333328"
       y="28.045834"
       rx="1.8146977e-07"
       ry="1.8146977e-07" />
    <rect
       style="fill:#ffffff;fill-opacity:1;stroke:none;stroke-width:0.264583;stroke-linecap:round;stroke-linejoin:bevel;stroke-miterlimit:4;stroke-dasharray:none;stroke-opacity:0.996078;stop-color:#000000"
       id="rect3174"
       width="2.1166666"
       height="1.0583333"
       x="45.508331"
       y="28.045834"
       rx="1.8146977e-07"
       ry="1.8146977e-07" />
    <rect
       style="fill:#ffffff;fill-opacity:1;stroke:none;stroke-width:0.264583;stroke-linecap:round;stroke-linejoin:bevel;stroke-miterlimit:4;stroke-dasharray:none;stroke-opacity:0.996078;stop-color:#000000"
       id="rect3176"
       width="1.0583333"
       height="1.0583333"
       x="40.216667"
       y="28.045834"
       rx="1.8146977e-07"
       ry="1.8146977e-07" />
    <rect
       style="fill:#ffffff;fill-opacity:1;stroke:none;stroke-width:0.264583;stroke-linecap:round;stroke-linejoin:bevel;stroke-miterlimit:4;stroke-dasharray:none;stroke-opacity:0.996078;stop-color:#000000"
       id="rect3178"
       width="2.1166666"
       height="1.0583333"
       x="34.395836"
       y="12.7"
       rx="1.8146977e-07"
       ry="1.8146977e-07" />
    <rect
       style="fill:#ffffff;fill-opacity:1;stroke:none;stroke-width:0.264583;stroke-linecap:round;stroke-linejoin:bevel;stroke-miterlimit:4;stroke-dasharray:none;stroke-opacity:0.996078;stop-color:#000000"
       id="rect3180"
       width="2.1166666"
       height="1.0583333"
       x="37.570835"
       y="12.7"
       rx="1.8146977e-07"
       ry="1.8146977e-07" />
    <rect
       style="fill:#ffffff;fill-opacity:1;stroke:none;stroke-width:0.264583;stroke-linecap:round;stroke-linejoin:bevel;stroke-miterlimit:4;stroke-dasharray:none;stroke-opacity:0.996078;stop-color:#000000"
       id="rect3182"
       width="3.175"
       height="1.0583333"
       x="34.395836"
       y="14.816669"
       rx="1.8146977e-07"
       ry="1.8146977e-07" />
    <rect
       style="fill:#ffffff;fill-opacity:1;stroke:none;stroke-width:0.264583;stroke-linecap:round;stroke-linejoin:bevel;stroke-miterlimit:4;stroke-dasharray:none;stroke-opacity:0.996078;stop-color:#000000"
       id="rect3184"
       width="3.175"
       height="1.0583333"
       x="38.629169"
       y="14.816669"
       rx="1.8146977e-07"
       ry="1.8146977e-07" />
    <circle
       style="fill:#ffff00;fill-opacity:1;stroke:none;stroke-width:0.264583;stroke-linecap:round;stroke-linejoin:bevel;stroke-miterlimit:4;stroke-dasharray:none;stroke-opacity:0.996078;stop-color:#000000"
       id="path3306"
       cx="22.754166"
       cy="27.516666"
       r="1.5875" />
    <circle
       style="fill:#b3b3b3;fill-opacity:1;stroke:none;stroke-width:0.264583;stroke-linecap:round;stroke-linejoin:bevel;stroke-miterlimit:4;stroke-dasharray:none;stroke-opacity:0.996078;stop-color:#000000"
       id="path3308"
       cx="26.458336"
       cy="27.516666"
       r="0.52916664" />
    <circle
       style="fill:#ff0000;fill-opacity:1;stroke:none;stroke-width:0.264583;stroke-linecap:round;stroke-linejoin:bevel;stroke-miterlimit:4;stroke-dasharray:none;stroke-opacity:0.996078;stop-color:#000000"
       id="path3310"
       cx="28.575001"
       cy="27.516666"
       r="0.52916664" />
  </g>
</svg>
