<?xml version="1.0" encoding="UTF-8" standalone="no"?>
<svg
   width="512"
   height="256"
   viewBox="0 0 135.46666 67.733333"
   version="1.1"
   id="svg8"
   inkscape:version="1.1.2 (0a00cf5339, 2022-02-04)"
   sodipodi:docname="container_rack.svg"
   xmlns:inkscape="http://www.inkscape.org/namespaces/inkscape"
   xmlns:sodipodi="http://sodipodi.sourceforge.net/DTD/sodipodi-0.dtd"
   xmlns:xlink="http://www.w3.org/1999/xlink"
   xmlns="http://www.w3.org/2000/svg"
   xmlns:svg="http://www.w3.org/2000/svg"
   xmlns:rdf="http://www.w3.org/1999/02/22-rdf-syntax-ns#"
   xmlns:cc="http://creativecommons.org/ns#"
   xmlns:dc="http://purl.org/dc/elements/1.1/">
  <defs
     id="defs2">
    <linearGradient
       inkscape:collect="always"
       id="linearGradient4629">
      <stop
         style="stop-color:#b3b3b3;stop-opacity:1"
         offset="0"
         id="stop4625" />
      <stop
         style="stop-color:#4d4d4d;stop-opacity:1"
         offset="1"
         id="stop4627" />
    </linearGradient>
    <linearGradient
       inkscape:collect="always"
       id="linearGradient4328">
      <stop
         style="stop-color:#cccccc;stop-opacity:1;"
         offset="0"
         id="stop4324" />
      <stop
         style="stop-color:#4d4d4d;stop-opacity:1"
         offset="1"
         id="stop4326" />
    </linearGradient>
    <linearGradient
       inkscape:collect="always"
       id="linearGradient3416">
      <stop
         style="stop-color:#cccccc;stop-opacity:1"
         offset="0"
         id="stop3412" />
      <stop
         style="stop-color:#000000;stop-opacity:1"
         offset="1"
         id="stop3414" />
    </linearGradient>
    <radialGradient
       inkscape:collect="always"
       xlink:href="#linearGradient3416"
       id="radialGradient3612"
       cx="30.823956"
       cy="11.579413"
       fx="30.823956"
       fy="11.579413"
       r="4.7624981"
       gradientTransform="matrix(6.4352453e-8,3.1111132,-4.4444462,8.1834936e-5,81.097412,-51.447766)"
       gradientUnits="userSpaceOnUse" />
    <radialGradient
       inkscape:collect="always"
       xlink:href="#linearGradient3416"
       id="radialGradient3612-3"
       cx="30.823956"
       cy="11.579413"
       fx="30.823956"
       fy="11.579413"
       r="4.7624979"
       gradientTransform="matrix(6.4352453e-8,3.1111132,-4.4444462,8.1834936e-5,100.14741,-51.447766)"
       gradientUnits="userSpaceOnUse" />
    <radialGradient
       inkscape:collect="always"
       xlink:href="#linearGradient3416"
       id="radialGradient3612-35"
       cx="30.823956"
       cy="11.579413"
       fx="30.823956"
       fy="11.579413"
       r="4.7624979"
       gradientTransform="matrix(6.4352453e-8,3.1111132,-4.4444462,8.1834936e-5,119.1974,-51.447766)"
       gradientUnits="userSpaceOnUse" />
    <radialGradient
       inkscape:collect="always"
       xlink:href="#linearGradient3416"
       id="radialGradient3612-1"
       cx="30.823956"
       cy="11.579413"
       fx="30.823956"
       fy="11.579413"
       r="4.7624979"
       gradientTransform="matrix(6.4352453e-8,3.1111132,-4.4444462,8.1834936e-5,138.24741,-51.447766)"
       gradientUnits="userSpaceOnUse" />
    <radialGradient
       inkscape:collect="always"
       xlink:href="#linearGradient3416"
       id="radialGradient3612-9"
       cx="30.823956"
       cy="11.579413"
       fx="30.823956"
       fy="11.579413"
       r="4.7624979"
       gradientTransform="matrix(6.4352453e-8,3.1111132,-4.4444462,8.1834936e-5,157.29741,-51.447766)"
       gradientUnits="userSpaceOnUse" />
    <linearGradient
       inkscape:collect="always"
       xlink:href="#linearGradient4629"
       id="linearGradient4330"
       x1="10.583333"
       y1="16.933332"
       x2="10.583333"
       y2="27.516666"
       gradientUnits="userSpaceOnUse"
       gradientTransform="translate(1.774511e-6,31.749999)" />
    <linearGradient
       inkscape:collect="always"
       xlink:href="#linearGradient4328"
       id="linearGradient4600"
       gradientUnits="userSpaceOnUse"
       x1="10.583333"
       y1="16.933332"
       x2="10.583333"
       y2="27.516666"
       gradientTransform="translate(114.3,31.749999)" />
  </defs>
  <sodipodi:namedview
     id="base"
     pagecolor="#ffffff"
     bordercolor="#666666"
     borderopacity="1.0"
     inkscape:pageopacity="0"
     inkscape:pageshadow="2"
     inkscape:zoom="0.7"
     inkscape:cx="345.71428"
     inkscape:cy="-79.285714"
     inkscape:document-units="px"
     inkscape:current-layer="layer1"
     inkscape:document-rotation="0"
     showgrid="true"
     units="px"
     inkscape:window-width="2560"
     inkscape:window-height="1343"
     inkscape:window-x="1200"
     inkscape:window-y="240"
     inkscape:window-maximized="1"
     inkscape:snap-grids="true"
     inkscape:pagecheckerboard="0"
     height="256px">
    <inkscape:grid
       type="xygrid"
       id="grid833"
       units="px"
       empspacing="4"
       spacingy="2.1166666"
       spacingx="2.1166666" />
  </sodipodi:namedview>
  <metadata
     id="metadata5">
    <rdf:RDF>
      <cc:Work
         rdf:about="">
        <dc:format>image/svg+xml</dc:format>
        <dc:type
           rdf:resource="http://purl.org/dc/dcmitype/StillImage" />
      </cc:Work>
    </rdf:RDF>
  </metadata>
  <g
     inkscape:label="Desk"
     inkscape:groupmode="layer"
     id="layer1">
    <text
       xml:space="preserve"
       style="font-size:8.46667px;line-height:1.25;font-family:'Permanent Marker';-inkscape-font-specification:'Permanent Marker';stroke-width:0.264583"
       x="-142.07065"
       y="-23.162157"
       id="text884"><tspan
         sodipodi:role="line"
         id="tspan882"
         x="-142.07065"
         y="-23.162157"
         style="font-style:normal;font-variant:normal;font-weight:normal;font-stretch:normal;font-family:Bilanidin;-inkscape-font-specification:Bilanidin;stroke-width:0.264583" /></text>
    <path
       style="fill:#552200;stroke:#483e37;stroke-width:1.05833;stroke-linecap:round;stroke-linejoin:round;stroke-opacity:0.999962;stop-color:#000000"
       d="M 120.65,31.749998 V 63.499997"
       id="path4708-8" />
    <path
       style="fill:#b3b3b3;stroke:#483e37;stroke-width:1.05833;stroke-linecap:round;stroke-linejoin:round;stroke-opacity:0.999962;stop-color:#000000"
       d="M 129.11666,31.749998 V 63.499997"
       id="path4710-7" />
    <path
       style="fill:#b3b3b3;stroke:#483e37;stroke-width:1.05833;stroke-linecap:round;stroke-linejoin:round;stroke-opacity:0.999962;stop-color:#000000"
       d="M 14.816668,31.749999 V 63.499998"
       id="path4710" />
    <path
       style="fill:#552200;stroke:#483e37;stroke-width:1.05833;stroke-linecap:round;stroke-linejoin:round;stroke-opacity:0.999962;stop-color:#000000"
       d="M 6.3500017,31.749999 V 63.499998"
       id="path4708" />
    <path
       style="fill:#b3b3b3;stroke:#000000;stroke-width:1.05833;stroke-linecap:round;stroke-linejoin:round;stroke-opacity:0.999962;stop-color:#000000"
       d="m 2.1166684,33.866665 c 0.7028431,0 2.4150601,0 2.1166666,0 v 2.116667 h 12.7 v -2.116667 h 2.116666 v 6.35 h 97.366659 v -6.35 h 2.11667 v 2.116667 h 12.7 V 33.866665 H 133.35 V 48.683332 H 2.1166684 Z"
       id="path380"
       sodipodi:nodetypes="ccccccccccccccccc" />
    <rect
       style="fill:url(#radialGradient3612);fill-opacity:1;stroke:#000000;stroke-width:1.05833;stroke-linecap:round;stroke-linejoin:round;stroke-opacity:0.999962;stop-color:#000000"
       id="rect2852"
       width="8.4666662"
       height="16.933332"
       x="25.400002"
       y="35.983334"
       ry="2.1166666"
       rx="2.1166661" />
    <rect
       style="fill:url(#radialGradient3612-3);fill-opacity:1;stroke:#000000;stroke-width:1.05833;stroke-linecap:round;stroke-linejoin:round;stroke-opacity:0.999962;stop-color:#000000"
       id="rect2852-5"
       width="8.4666662"
       height="16.933332"
       x="44.449997"
       y="35.983334"
       ry="2.1166666"
       rx="2.1166661" />
    <rect
       style="fill:url(#radialGradient3612-35);fill-opacity:1;stroke:#000000;stroke-width:1.05833;stroke-linecap:round;stroke-linejoin:round;stroke-opacity:0.999962;stop-color:#000000"
       id="rect2852-9"
       width="8.4666662"
       height="16.933332"
       x="63.499996"
       y="35.983334"
       ry="2.1166666"
       rx="2.1166661" />
    <rect
       style="fill:url(#radialGradient3612-1);fill-opacity:1;stroke:#000000;stroke-width:1.05833;stroke-linecap:round;stroke-linejoin:round;stroke-opacity:0.999962;stop-color:#000000"
       id="rect2852-0"
       width="8.4666662"
       height="16.933332"
       x="82.549995"
       y="35.983334"
       ry="2.1166666"
       rx="2.1166661" />
    <rect
       style="fill:url(#radialGradient3612-9);fill-opacity:1;stroke:#000000;stroke-width:1.05833;stroke-linecap:round;stroke-linejoin:round;stroke-opacity:0.999962;stop-color:#000000"
       id="rect2852-06"
       width="8.4666662"
       height="16.933332"
       x="101.6"
       y="35.983334"
       ry="2.1166666"
       rx="2.1166661" />
    <rect
       style="fill:url(#linearGradient4330);fill-opacity:1;stroke:#000000;stroke-width:1.05833;stroke-linecap:round;stroke-linejoin:round;stroke-opacity:0.999962;stop-color:#000000"
       id="rect4292"
       width="12.7"
       height="10.583333"
       x="4.233335"
       y="48.683331"
       rx="3.1509603e-07"
       ry="3.1509603e-07" />
    <rect
       style="fill:url(#linearGradient4600);fill-opacity:1;stroke:#000000;stroke-width:1.05833;stroke-linecap:round;stroke-linejoin:round;stroke-opacity:0.999962;stop-color:#000000"
       id="rect4292-1"
       width="12.7"
       height="10.583333"
       x="118.53333"
       y="48.683334"
       rx="3.1509603e-07"
       ry="3.1509603e-07" />
    <circle
       style="fill:#cccccc;stroke:#333333;stroke-width:1.05833;stroke-linecap:round;stroke-linejoin:round;stroke-opacity:0.999962;stop-color:#000000"
       id="path5003"
       cx="6.3500018"
       cy="44.449997"
       r="2.1166666" />
    <circle
       style="fill:#cccccc;stroke:#333333;stroke-width:1.05833;stroke-linecap:round;stroke-linejoin:round;stroke-opacity:0.999962;stop-color:#000000"
       id="path5071"
       cx="14.816669"
       cy="44.449997"
       r="2.1166666" />
    <circle
       style="fill:#cccccc;stroke:#333333;stroke-width:1.05833;stroke-linecap:round;stroke-linejoin:round;stroke-opacity:0.999962;stop-color:#000000"
       id="path5073"
       cx="120.65"
       cy="44.449997"
       r="2.1166666" />
    <circle
       style="fill:#cccccc;stroke:#333333;stroke-width:1.05833;stroke-linecap:round;stroke-linejoin:round;stroke-opacity:0.999962;stop-color:#000000"
       id="path5075"
       cx="129.11667"
       cy="44.449997"
       r="2.1166666" />
  </g>
  <g
     inkscape:groupmode="layer"
     id="layer2"
     inkscape:label="Display" />
</svg>
