<?xml version="1.0" encoding="UTF-8" standalone="no"?>
<svg
   xmlns:dc="http://purl.org/dc/elements/1.1/"
   xmlns:cc="http://creativecommons.org/ns#"
   xmlns:rdf="http://www.w3.org/1999/02/22-rdf-syntax-ns#"
   xmlns:svg="http://www.w3.org/2000/svg"
   xmlns="http://www.w3.org/2000/svg"
   xmlns:sodipodi="http://sodipodi.sourceforge.net/DTD/sodipodi-0.dtd"
   xmlns:inkscape="http://www.inkscape.org/namespaces/inkscape"
   width="1024"
   height="128"
   viewBox="0 0 270.93333 33.866653"
   version="1.1"
   id="svg8"
   inkscape:version="1.0.2 (e86c870879, 2021-01-15)"
   sodipodi:docname="titanium_steel_hull.svg">
  <defs
     id="defs2" />
  <sodipodi:namedview
     id="base"
     pagecolor="#ffffff"
     bordercolor="#666666"
     borderopacity="1.0"
     inkscape:pageopacity="0.0"
     inkscape:pageshadow="2"
     inkscape:zoom="2.8"
     inkscape:cx="249.75165"
     inkscape:cy="55.294685"
     inkscape:document-units="mm"
     inkscape:current-layer="layer4"
     inkscape:document-rotation="0"
     showgrid="true"
     units="px"
     inkscape:window-width="2560"
     inkscape:window-height="1357"
     inkscape:window-x="1200"
     inkscape:window-y="240"
     inkscape:window-maximized="1">
    <inkscape:grid
       type="xygrid"
       id="grid833"
       spacingx="1.0583333"
       units="px"
       spacingy="1.0583333"
       empspacing="8" />
  </sodipodi:namedview>
  <metadata
     id="metadata5">
    <rdf:RDF>
      <cc:Work
         rdf:about="">
        <dc:format>image/svg+xml</dc:format>
        <dc:type
           rdf:resource="http://purl.org/dc/dcmitype/StillImage" />
        <dc:title></dc:title>
      </cc:Work>
    </rdf:RDF>
  </metadata>
  <g
     inkscape:groupmode="layer"
     id="layer3"
     inkscape:label="Back"
     style="opacity:1"
     sodipodi:insensitive="true">
    <rect
       style="fill:#53676c;fill-opacity:1;stroke:none;stroke-width:1.00012;stroke-linecap:square;stroke-linejoin:round;stop-color:#000000"
       id="rect855"
       width="270.93332"
       height="16.933332"
       x="0"
       y="8.4666662"
       rx="1.0463265e-07"
       ry="1.9579352e-06" />
  </g>
  <g
     inkscape:label="Middle"
     inkscape:groupmode="layer"
     id="layer1"
     sodipodi:insensitive="true">
    <rect
       style="fill:#333333;stroke:#333333;stroke-width:0.264998;stroke-linecap:square;stop-color:#000000"
       id="rect901"
       width="33.866669"
       height="6.3499994"
       x="16.933332"
       y="13.758332"
       rx="1.0583318"
       ry="1.0583334" />
    <rect
       style="fill:#333333;stroke:#333333;stroke-width:0.264998;stroke-linecap:square;stop-color:#000000"
       id="rect901-3"
       width="33.866669"
       height="6.3499994"
       x="84.666664"
       y="13.758332"
       rx="1.0583318"
       ry="1.0583334" />
    <rect
       style="fill:#333333;stroke:#333333;stroke-width:0.264998;stroke-linecap:square;stop-color:#000000"
       id="rect901-3-6"
       width="33.866669"
       height="6.3499994"
       x="152.39999"
       y="13.758332"
       rx="1.0583318"
       ry="1.0583334" />
    <rect
       style="fill:#333333;stroke:#333333;stroke-width:0.264998;stroke-linecap:square;stop-color:#000000"
       id="rect901-3-7"
       width="33.866669"
       height="6.3499994"
       x="220.13333"
       y="13.758332"
       rx="1.0583318"
       ry="1.0583334" />
  </g>
  <g
     inkscape:groupmode="layer"
     id="layer4"
     inkscape:label="Armour">
    <path
       id="rect896"
       style="fill:#000000;stroke:#000000;stroke-width:0.264999;stroke-linecap:square;stop-color:#000000"
       d="m 31.75,3.175 h 4.233333 v 1.9e-6 l 1.058333,1.0583313 h -6.35 L 31.75,3.1750019 Z"
       sodipodi:nodetypes="ccccccc" />
    <path
       id="rect896-2"
       style="fill:#000000;stroke:#000000;stroke-width:0.264999;stroke-linecap:square;stop-color:#000000"
       d="m 99.48333,3.174998 h 4.23333 v 1.9e-6 l 1.05833,1.0583313 H 98.424996 L 99.48333,3.1749999 Z"
       sodipodi:nodetypes="ccccccc" />
    <path
       id="rect896-9"
       style="fill:#000000;stroke:#000000;stroke-width:0.264999;stroke-linecap:square;stop-color:#000000"
       d="m 167.21666,3.174998 h 4.23333 v 1.9e-6 l 1.05834,1.0583313 h -6.35 l 1.05833,-1.0583313 z"
       sodipodi:nodetypes="ccccccc" />
    <path
       id="rect896-1"
       style="fill:#000000;stroke:#000000;stroke-width:0.264999;stroke-linecap:square;stop-color:#000000"
       d="m 234.94999,3.174998 h 4.23333 v 1.9e-6 l 1.05834,1.0583313 h -6.35 l 1.05833,-1.0583313 z"
       sodipodi:nodetypes="ccccccc" />
  </g>
  <g
     inkscape:groupmode="layer"
     id="layer2"
     inkscape:label="Front"
     sodipodi:insensitive="true">
    <rect
       style="fill:#000000;stroke:none;stroke-width:1.00012;stroke-linecap:square;stroke-linejoin:round;stop-color:#000000"
       id="rect853"
       width="270.93332"
       height="6.3499994"
       x="0"
       y="23.283333"
       rx="1.0463257e-07"
       ry="1.9579352e-06" />
    <rect
       style="fill:#000000;stroke:none;stroke-width:1.00012;stroke-linecap:square;stroke-linejoin:round;stop-color:#000000"
       id="rect853-1"
       width="270.93332"
       height="6.3500004"
       x="0"
       y="4.2333331"
       rx="1.0463257e-07"
       ry="1.9579352e-06" />
  </g>
</svg>
