<?xml version="1.0" encoding="UTF-8" standalone="no"?>
<svg
   width="256"
   height="32"
   viewBox="0 0 67.733345 8.466666"
   version="1.1"
   id="svg8"
   inkscape:version="1.1.2 (0a00cf5339, 2022-02-04)"
   sodipodi:docname="light_door.svg"
   xmlns:inkscape="http://www.inkscape.org/namespaces/inkscape"
   xmlns:sodipodi="http://sodipodi.sourceforge.net/DTD/sodipodi-0.dtd"
   xmlns="http://www.w3.org/2000/svg"
   xmlns:svg="http://www.w3.org/2000/svg"
   xmlns:rdf="http://www.w3.org/1999/02/22-rdf-syntax-ns#"
   xmlns:cc="http://creativecommons.org/ns#"
   xmlns:dc="http://purl.org/dc/elements/1.1/">
  <defs
     id="defs2" />
  <sodipodi:namedview
     id="base"
     pagecolor="#ffffff"
     bordercolor="#666666"
     borderopacity="1.0"
     inkscape:pageopacity="0.0"
     inkscape:pageshadow="2"
     inkscape:zoom="1.979899"
     inkscape:cx="8.3337584"
     inkscape:cy="-90.408652"
     inkscape:document-units="mm"
     inkscape:current-layer="layer3"
     inkscape:document-rotation="0"
     showgrid="true"
     units="px"
     inkscape:window-width="2560"
     inkscape:window-height="1355"
     inkscape:window-x="1200"
     inkscape:window-y="240"
     inkscape:window-maximized="1"
     inkscape:pagecheckerboard="0">
    <inkscape:grid
       type="xygrid"
       id="grid833"
       spacingx="1.0583333"
       units="px"
       spacingy="1.0583333"
       empspacing="4" />
  </sodipodi:namedview>
  <metadata
     id="metadata5">
    <rdf:RDF>
      <cc:Work
         rdf:about="">
        <dc:format>image/svg+xml</dc:format>
        <dc:type
           rdf:resource="http://purl.org/dc/dcmitype/StillImage" />
      </cc:Work>
    </rdf:RDF>
  </metadata>
  <g
     inkscape:groupmode="layer"
     id="layer3"
     inkscape:label="Back">
    <rect
       style="fill:#00ff00;fill-opacity:0.999248;stroke:#000000;stroke-width:0.457999;stroke-linecap:round;stroke-linejoin:round;stop-color:#000000"
       id="rect941"
       width="6.3500028"
       height="2.1166663"
       x="55.033333"
       y="5.291667"
       rx="1.0729753"
       ry="1.0583332" />
    <rect
       style="fill:#00ff00;fill-opacity:0.999248;stroke:#000000;stroke-width:0.457999;stroke-linecap:round;stroke-linejoin:round;stop-color:#000000"
       id="rect941-3"
       width="6.3500028"
       height="2.1166663"
       x="6.3499999"
       y="1.0583336"
       rx="1.0729753"
       ry="1.0583332" />
    <rect
       style="fill:#999999;stroke:none;stroke-width:1.05833;stroke-linecap:round;stroke-linejoin:bevel;stroke-miterlimit:4;stroke-dasharray:none;stop-color:#000000"
       id="rect879"
       width="65.616661"
       height="4.2333331"
       x="1.0583333"
       y="2.1166666"
       rx="1.8146976e-07"
       ry="1.8146977e-07" />
    <path
       style="fill:none;stroke:#000000;stroke-width:1.05833;stroke-linecap:butt;stroke-linejoin:miter;stroke-miterlimit:4;stroke-dasharray:none;stroke-opacity:1"
       d="M 33.866666,3.1749999 V 5.2916665"
       id="path941" />
    <rect
       style="fill:#000000;stroke:none;stroke-width:1.05834;stroke-linecap:round;stroke-linejoin:bevel;stroke-miterlimit:4;stroke-dasharray:none;stop-color:#000000"
       id="rect883"
       width="67.733337"
       height="1.0583333"
       x="1.2453668e-07"
       y="5.2916665"
       rx="1.8146976e-07"
       ry="1.8146977e-07" />
    <rect
       style="fill:#000000;stroke:none;stroke-width:1.05834;stroke-linecap:round;stroke-linejoin:bevel;stroke-miterlimit:4;stroke-dasharray:none;stop-color:#000000"
       id="rect883-6"
       width="67.73333"
       height="1.0583333"
       x="1.2453668e-07"
       y="2.1166668"
       rx="1.8146974e-07"
       ry="1.8146977e-07" />
    <rect
       style="fill:#000000;stroke:none;stroke-width:1.05833;stroke-linecap:round;stroke-linejoin:bevel;stroke-miterlimit:4;stroke-dasharray:none;stop-color:#000000"
       id="rect925"
       width="1.0583333"
       height="2.1166666"
       x="0"
       y="3.175"
       rx="1.8146977e-07"
       ry="1.8146977e-07" />
    <rect
       style="fill:#000000;stroke:none;stroke-width:1.05833;stroke-linecap:round;stroke-linejoin:bevel;stroke-miterlimit:4;stroke-dasharray:none;stop-color:#000000"
       id="rect927"
       width="1.0583333"
       height="2.1166666"
       x="66.674995"
       y="3.175"
       rx="1.8146977e-07"
       ry="1.8146977e-07" />
  </g>
  <g
     inkscape:label="Middle"
     inkscape:groupmode="layer"
     id="layer1"
     sodipodi:insensitive="true" />
  <g
     inkscape:groupmode="layer"
     id="layer4"
     inkscape:label="Crystal" />
  <g
     inkscape:groupmode="layer"
     id="layer2"
     inkscape:label="Front" />
</svg>
