<?xml version="1.0" encoding="UTF-8" standalone="no"?>
<!-- Created with Inkscape (http://www.inkscape.org/) -->

<svg
   width="1024"
   height="1024"
   viewBox="0 0 270.93333 270.93334"
   version="1.1"
   id="svg5"
   inkscape:version="1.1.2 (0a00cf5339, 2022-02-04)"
   sodipodi:docname="science_lab.svg"
   xmlns:inkscape="http://www.inkscape.org/namespaces/inkscape"
   xmlns:sodipodi="http://sodipodi.sourceforge.net/DTD/sodipodi-0.dtd"
   xmlns="http://www.w3.org/2000/svg"
   xmlns:svg="http://www.w3.org/2000/svg">
  <sodipodi:namedview
     id="namedview7"
     pagecolor="#ffffff"
     bordercolor="#666666"
     borderopacity="1.0"
     inkscape:pageshadow="2"
     inkscape:pageopacity="0.0"
     inkscape:pagecheckerboard="0"
     inkscape:document-units="mm"
     showgrid="true"
     inkscape:zoom="0.83402488"
     inkscape:cx="613.89056"
     inkscape:cy="669.64429"
     inkscape:window-width="2560"
     inkscape:window-height="1343"
     inkscape:window-x="1200"
     inkscape:window-y="357"
     inkscape:window-maximized="1"
     inkscape:current-layer="layer4"
     units="px"
     width="1024px"
     inkscape:snap-smooth-nodes="true"
     inkscape:snap-center="true">
    <inkscape:grid
       type="xygrid"
       id="grid844"
       empspacing="8"
       units="px"
       spacingx="1.0583333"
       spacingy="1.0583333"
       originy="0" />
  </sodipodi:namedview>
  <defs
     id="defs2">
    <inkscape:perspective
       sodipodi:type="inkscape:persp3d"
       inkscape:vp_x="0 : 135.46667 : 1"
       inkscape:vp_y="0 : 1000 : 0"
       inkscape:vp_z="270.93333 : 135.46667 : 1"
       inkscape:persp3d-origin="135.46667 : 90.311113 : 1"
       id="perspective1502" />
    <filter
       inkscape:collect="always"
       style="color-interpolation-filters:sRGB"
       id="filter553"
       x="-0.087635807"
       y="-0.036210322"
       width="1.1752651"
       height="1.0724192">
      <feGaussianBlur
         inkscape:collect="always"
         stdDeviation="2.2418471"
         id="feGaussianBlur555" />
    </filter>
  </defs>
  <g
     inkscape:label="Floor"
     inkscape:groupmode="layer"
     id="layer1"
     style="display:inline"
     sodipodi:insensitive="true">
    <rect
       style="fill:#cccccc;fill-opacity:1;stroke:none;stroke-width:0.529167;stroke-linejoin:bevel;stroke-miterlimit:4;stroke-dasharray:none;stroke-opacity:0.999964;stop-color:#000000"
       id="rect2901"
       width="270.93301"
       height="270.93335"
       x="0"
       y="0"
       rx="0"
       ry="0" />
  </g>
  <g
     inkscape:groupmode="layer"
     id="layer2"
     inkscape:label="Tiles"
     style="display:inline;opacity:1"
     sodipodi:insensitive="true">
    <rect
       style="opacity:1;fill:#f2f2f2;stroke:#ffffff;stroke-width:0.529167;stroke-linecap:round;stroke-linejoin:round;stroke-opacity:0.999962;stop-color:#000000"
       id="rect2835"
       width="63.5"
       height="63.235416"
       x="2.1166668"
       y="2.3812499"
       rx="2.1166694"
       ry="1.8520833" />
    <rect
       style="display:inline;fill:#f2f2f2;stroke:#ffffff;stroke-width:0.529167;stroke-linecap:round;stroke-linejoin:round;stroke-opacity:0.999962;stop-color:#000000"
       id="rect2835-2"
       width="63.5"
       height="63.235416"
       x="69.849998"
       y="2.1166666"
       rx="2.1166694"
       ry="1.8520833" />
    <rect
       style="display:inline;fill:#f2f2f2;stroke:#ffffff;stroke-width:0.529167;stroke-linecap:round;stroke-linejoin:round;stroke-opacity:0.999962;stop-color:#000000"
       id="rect2835-2-9"
       width="63.5"
       height="63.235416"
       x="137.58333"
       y="2.1166666"
       rx="2.1166694"
       ry="1.8520833" />
    <rect
       style="display:inline;fill:#f2f2f2;stroke:#ffffff;stroke-width:0.529167;stroke-linecap:round;stroke-linejoin:round;stroke-opacity:0.999962;stop-color:#000000"
       id="rect2835-2-0"
       width="63.5"
       height="63.235416"
       x="205.31667"
       y="2.1166666"
       rx="2.1166694"
       ry="1.8520833" />
    <rect
       style="display:inline;fill:#f2f2f2;stroke:#ffffff;stroke-width:0.529167;stroke-linecap:round;stroke-linejoin:round;stroke-opacity:0.999962;stop-color:#000000"
       id="rect2835-28"
       width="63.5"
       height="63.235416"
       x="2.1166666"
       y="69.849998"
       rx="2.1166694"
       ry="1.8520833" />
    <rect
       style="display:inline;fill:#f2f2f2;stroke:#ffffff;stroke-width:0.529167;stroke-linecap:round;stroke-linejoin:round;stroke-opacity:0.999962;stop-color:#000000"
       id="rect2835-2-3"
       width="63.5"
       height="63.235416"
       x="69.849991"
       y="69.585419"
       rx="2.1166694"
       ry="1.8520833" />
    <rect
       style="display:inline;fill:#f2f2f2;stroke:#ffffff;stroke-width:0.529167;stroke-linecap:round;stroke-linejoin:round;stroke-opacity:0.999962;stop-color:#000000"
       id="rect2835-2-9-8"
       width="63.5"
       height="63.235416"
       x="137.58333"
       y="69.585419"
       rx="2.1166694"
       ry="1.8520833" />
    <rect
       style="display:inline;fill:#f2f2f2;stroke:#ffffff;stroke-width:0.529167;stroke-linecap:round;stroke-linejoin:round;stroke-opacity:0.999962;stop-color:#000000"
       id="rect2835-2-0-0"
       width="63.5"
       height="63.235416"
       x="205.31667"
       y="69.585419"
       rx="2.1166694"
       ry="1.8520833" />
    <rect
       style="display:inline;fill:#f2f2f2;stroke:#ffffff;stroke-width:0.529167;stroke-linecap:round;stroke-linejoin:round;stroke-opacity:0.999962;stop-color:#000000"
       id="rect2835-4"
       width="63.5"
       height="63.235416"
       x="2.1166666"
       y="137.58333"
       rx="2.1166694"
       ry="1.8520833" />
    <rect
       style="display:inline;fill:#f2f2f2;stroke:#ffffff;stroke-width:0.529167;stroke-linecap:round;stroke-linejoin:round;stroke-opacity:0.999962;stop-color:#000000"
       id="rect2835-2-09"
       width="63.5"
       height="63.235416"
       x="69.849991"
       y="137.31876"
       rx="2.1166694"
       ry="1.8520833" />
    <rect
       style="display:inline;fill:#f2f2f2;stroke:#ffffff;stroke-width:0.529167;stroke-linecap:round;stroke-linejoin:round;stroke-opacity:0.999962;stop-color:#000000"
       id="rect2835-2-9-1"
       width="63.5"
       height="63.235416"
       x="137.58331"
       y="137.31876"
       rx="2.1166694"
       ry="1.8520833" />
    <rect
       style="display:inline;fill:#f2f2f2;stroke:#ffffff;stroke-width:0.529167;stroke-linecap:round;stroke-linejoin:round;stroke-opacity:0.999962;stop-color:#000000"
       id="rect2835-2-0-9"
       width="63.5"
       height="63.235416"
       x="205.31665"
       y="137.31876"
       rx="2.1166694"
       ry="1.8520833" />
    <rect
       style="display:inline;fill:#f2f2f2;stroke:#ffffff;stroke-width:0.529167;stroke-linecap:round;stroke-linejoin:round;stroke-opacity:0.999962;stop-color:#000000"
       id="rect2835-6"
       width="63.5"
       height="63.235416"
       x="2.1166666"
       y="205.31667"
       rx="2.1166694"
       ry="1.8520833" />
    <rect
       style="display:inline;fill:#f2f2f2;stroke:#ffffff;stroke-width:0.529167;stroke-linecap:round;stroke-linejoin:round;stroke-opacity:0.999962;stop-color:#000000"
       id="rect2835-2-2"
       width="63.5"
       height="63.235416"
       x="69.849998"
       y="205.05208"
       rx="2.1166694"
       ry="1.8520833" />
    <rect
       style="display:inline;fill:#f2f2f2;stroke:#ffffff;stroke-width:0.529167;stroke-linecap:round;stroke-linejoin:round;stroke-opacity:0.999962;stop-color:#000000"
       id="rect2835-2-9-5"
       width="63.5"
       height="63.235416"
       x="137.58331"
       y="205.05208"
       rx="2.1166694"
       ry="1.8520833" />
    <rect
       style="display:inline;fill:#f2f2f2;stroke:#ffffff;stroke-width:0.529167;stroke-linecap:round;stroke-linejoin:round;stroke-opacity:0.999962;stop-color:#000000"
       id="rect2835-2-0-4"
       width="63.5"
       height="63.235416"
       x="205.31665"
       y="205.05208"
       rx="2.1166694"
       ry="1.8520833" />
  </g>
  <g
     inkscape:groupmode="layer"
     id="layer4"
     inkscape:label="Pattern 2"
     style="display:inline;opacity:0.5;filter:url(#filter553)">
    <path
       style="fill:#999999;stroke:#999999;stroke-width:0.264583px;stroke-linecap:butt;stroke-linejoin:miter;stroke-opacity:1"
       d="m 103.71666,83.60833 c 2.01074,-1.467218 6.59619,6.593742 7.94337,2.552197 1.38597,-4.157914 -1.00616,-6.808949 -5.27531,-6.064067 -0.71474,0.124708 -1.22688,1.454173 -2.11412,1.749922 -0.72525,0.24175 -1.74971,-0.114795 -2.34109,0.476591 -1.0053,1.005293 0.98345,1.859698 1.78715,1.285357"
       id="path301" />
    <path
       style="fill:#b3b3b3;stroke:#e6e6e6;stroke-width:0.264583px;stroke-linecap:butt;stroke-linejoin:miter;stroke-opacity:1"
       d="m 151.34166,224.36666 c 0.28441,-2.47681 1.53727,-4.98436 4.28443,-5.25774 14.05835,-1.399 9.41503,9.3533 0.33883,12.97053 -2.86624,1.14231 -6.68256,-5.93326 -4.62326,-7.71279"
       id="path303" />
  </g>
  <g
     inkscape:groupmode="layer"
     id="layer3"
     inkscape:label="Pattern 3"
     style="display:inline" />
</svg>
