<?xml version="1.0" encoding="UTF-8" standalone="no"?>
<svg
   xmlns:dc="http://purl.org/dc/elements/1.1/"
   xmlns:cc="http://creativecommons.org/ns#"
   xmlns:rdf="http://www.w3.org/1999/02/22-rdf-syntax-ns#"
   xmlns:svg="http://www.w3.org/2000/svg"
   xmlns="http://www.w3.org/2000/svg"
   xmlns:sodipodi="http://sodipodi.sourceforge.net/DTD/sodipodi-0.dtd"
   xmlns:inkscape="http://www.inkscape.org/namespaces/inkscape"
   width="1024"
   height="32"
   viewBox="0 0 270.93333 8.4666659"
   version="1.1"
   id="svg8"
   inkscape:version="1.0.2 (e86c870879, 2021-01-15)"
   sodipodi:docname="molecular_bonded_hull.svg">
  <defs
     id="defs2" />
  <sodipodi:namedview
     id="base"
     pagecolor="#ffffff"
     bordercolor="#666666"
     borderopacity="1.0"
     inkscape:pageopacity="0.0"
     inkscape:pageshadow="2"
     inkscape:zoom="1.979899"
     inkscape:cx="385.16347"
     inkscape:cy="-47.888836"
     inkscape:document-units="mm"
     inkscape:current-layer="layer3"
     inkscape:document-rotation="0"
     showgrid="true"
     units="px"
     inkscape:window-width="2560"
     inkscape:window-height="1357"
     inkscape:window-x="1200"
     inkscape:window-y="240"
     inkscape:window-maximized="1">
    <inkscape:grid
       type="xygrid"
       id="grid833"
       spacingx="1.0583333"
       units="px"
       spacingy="1.0583333"
       empspacing="8" />
  </sodipodi:namedview>
  <metadata
     id="metadata5">
    <rdf:RDF>
      <cc:Work
         rdf:about="">
        <dc:format>image/svg+xml</dc:format>
        <dc:type
           rdf:resource="http://purl.org/dc/dcmitype/StillImage" />
        <dc:title></dc:title>
      </cc:Work>
    </rdf:RDF>
  </metadata>
  <g
     inkscape:groupmode="layer"
     id="layer3"
     inkscape:label="Back">
    <rect
       style="fill:#c8b7b7;stroke:none;stroke-width:1.00012;stroke-linecap:square;stroke-linejoin:round;stop-color:#000000"
       id="rect855"
       width="270.93332"
       height="6.3499999"
       x="0"
       y="1.0583333"
       rx="1.0463265e-07"
       ry="1.9579352e-06" />
  </g>
  <g
     inkscape:label="Middle"
     inkscape:groupmode="layer"
     id="layer1"
     sodipodi:insensitive="true">
    <rect
       style="fill:#666666;stroke:#000000;stroke-width:0.264999;stroke-linecap:square;stop-color:#000000"
       id="rect963"
       width="4.2333317"
       height="4.2333336"
       x="14.816667"
       y="2.1166666"
       rx="2.1166658"
       ry="2.1166658" />
    <rect
       style="fill:#666666;stroke:#000000;stroke-width:0.264999;stroke-linecap:square;stop-color:#000000"
       id="rect965"
       width="2.1166666"
       height="2.1166666"
       x="20.108334"
       y="3.175"
       ry="1.0583333"
       rx="1.0583333" />
    <rect
       style="fill:#666666;stroke:#000000;stroke-width:0.264999;stroke-linecap:square;stop-color:#000000"
       id="rect967"
       width="2.1166666"
       height="2.1166666"
       x="11.641666"
       y="3.175"
       rx="1.0583333"
       ry="1.0583333" />
    <rect
       style="fill:#666666;stroke:#000000;stroke-width:0.264999;stroke-linecap:square;stop-color:#000000"
       id="rect963-5"
       width="4.2333317"
       height="4.2333336"
       x="48.683331"
       y="2.1166658"
       rx="2.1166658"
       ry="2.1166658" />
    <rect
       style="fill:#666666;stroke:#000000;stroke-width:0.264999;stroke-linecap:square;stop-color:#000000"
       id="rect965-3"
       width="2.1166666"
       height="2.1166666"
       x="53.974998"
       y="3.1749992"
       ry="1.0583333"
       rx="1.0583333" />
    <rect
       style="fill:#666666;stroke:#000000;stroke-width:0.264999;stroke-linecap:square;stop-color:#000000"
       id="rect967-5"
       width="2.1166666"
       height="2.1166666"
       x="45.508331"
       y="3.1749992"
       rx="1.0583333"
       ry="1.0583333" />
    <rect
       style="fill:#666666;stroke:#000000;stroke-width:0.264999;stroke-linecap:square;stop-color:#000000"
       id="rect963-5-6"
       width="4.2333317"
       height="4.2333336"
       x="82.549995"
       y="2.1166663"
       rx="2.1166658"
       ry="2.1166658" />
    <rect
       style="fill:#666666;stroke:#000000;stroke-width:0.264999;stroke-linecap:square;stop-color:#000000"
       id="rect965-3-2"
       width="2.1166666"
       height="2.1166666"
       x="87.841667"
       y="3.1749997"
       ry="1.0583333"
       rx="1.0583333" />
    <rect
       style="fill:#666666;stroke:#000000;stroke-width:0.264999;stroke-linecap:square;stop-color:#000000"
       id="rect967-5-9"
       width="2.1166666"
       height="2.1166666"
       x="79.375"
       y="3.1749997"
       rx="1.0583333"
       ry="1.0583333" />
    <rect
       style="fill:#666666;stroke:#000000;stroke-width:0.264999;stroke-linecap:square;stop-color:#000000"
       id="rect963-5-1"
       width="4.2333317"
       height="4.2333336"
       x="116.41666"
       y="2.1166663"
       rx="2.1166658"
       ry="2.1166658" />
    <rect
       style="fill:#666666;stroke:#000000;stroke-width:0.264999;stroke-linecap:square;stop-color:#000000"
       id="rect965-3-27"
       width="2.1166666"
       height="2.1166666"
       x="121.70834"
       y="3.1749997"
       ry="1.0583333"
       rx="1.0583333" />
    <rect
       style="fill:#666666;stroke:#000000;stroke-width:0.264999;stroke-linecap:square;stop-color:#000000"
       id="rect967-5-0"
       width="2.1166666"
       height="2.1166666"
       x="113.24167"
       y="3.1749997"
       rx="1.0583333"
       ry="1.0583333" />
    <rect
       style="fill:#666666;stroke:#000000;stroke-width:0.264999;stroke-linecap:square;stop-color:#000000"
       id="rect963-9"
       width="4.2333317"
       height="4.2333336"
       x="150.28334"
       y="2.1166675"
       rx="2.1166658"
       ry="2.1166658" />
    <rect
       style="fill:#666666;stroke:#000000;stroke-width:0.264999;stroke-linecap:square;stop-color:#000000"
       id="rect965-36"
       width="2.1166666"
       height="2.1166666"
       x="155.575"
       y="3.1750009"
       ry="1.0583333"
       rx="1.0583333" />
    <rect
       style="fill:#666666;stroke:#000000;stroke-width:0.264999;stroke-linecap:square;stop-color:#000000"
       id="rect967-0"
       width="2.1166666"
       height="2.1166666"
       x="147.10834"
       y="3.1750009"
       rx="1.0583333"
       ry="1.0583333" />
    <rect
       style="fill:#666666;stroke:#000000;stroke-width:0.264999;stroke-linecap:square;stop-color:#000000"
       id="rect963-5-62"
       width="4.2333317"
       height="4.2333336"
       x="184.14999"
       y="2.1166666"
       rx="2.1166658"
       ry="2.1166658" />
    <rect
       style="fill:#666666;stroke:#000000;stroke-width:0.264999;stroke-linecap:square;stop-color:#000000"
       id="rect965-3-6"
       width="2.1166666"
       height="2.1166666"
       x="189.44165"
       y="3.175"
       ry="1.0583333"
       rx="1.0583333" />
    <rect
       style="fill:#666666;stroke:#000000;stroke-width:0.264999;stroke-linecap:square;stop-color:#000000"
       id="rect967-5-1"
       width="2.1166666"
       height="2.1166666"
       x="180.97499"
       y="3.175"
       rx="1.0583333"
       ry="1.0583333" />
    <rect
       style="fill:#666666;stroke:#000000;stroke-width:0.264999;stroke-linecap:square;stop-color:#000000"
       id="rect963-5-6-8"
       width="4.2333317"
       height="4.2333336"
       x="218.01666"
       y="2.1166666"
       rx="2.1166658"
       ry="2.1166658" />
    <rect
       style="fill:#666666;stroke:#000000;stroke-width:0.264999;stroke-linecap:square;stop-color:#000000"
       id="rect965-3-2-7"
       width="2.1166666"
       height="2.1166666"
       x="223.30833"
       y="3.175"
       ry="1.0583333"
       rx="1.0583333" />
    <rect
       style="fill:#666666;stroke:#000000;stroke-width:0.264999;stroke-linecap:square;stop-color:#000000"
       id="rect967-5-9-9"
       width="2.1166666"
       height="2.1166666"
       x="214.84167"
       y="3.175"
       rx="1.0583333"
       ry="1.0583333" />
    <rect
       style="fill:#666666;stroke:#000000;stroke-width:0.264999;stroke-linecap:square;stop-color:#000000"
       id="rect963-5-1-2"
       width="4.2333317"
       height="4.2333336"
       x="251.88333"
       y="2.1166666"
       rx="2.1166658"
       ry="2.1166658" />
    <rect
       style="fill:#666666;stroke:#000000;stroke-width:0.264999;stroke-linecap:square;stop-color:#000000"
       id="rect965-3-27-0"
       width="2.1166666"
       height="2.1166666"
       x="257.17502"
       y="3.175"
       ry="1.0583333"
       rx="1.0583333" />
    <rect
       style="fill:#666666;stroke:#000000;stroke-width:0.264999;stroke-linecap:square;stop-color:#000000"
       id="rect967-5-0-2"
       width="2.1166666"
       height="2.1166666"
       x="248.70834"
       y="3.175"
       rx="1.0583333"
       ry="1.0583333" />
  </g>
  <g
     inkscape:groupmode="layer"
     id="layer4"
     inkscape:label="Crystal"
     sodipodi:insensitive="true" />
  <g
     inkscape:groupmode="layer"
     id="layer2"
     inkscape:label="Front"
     sodipodi:insensitive="true">
    <rect
       style="fill:#000000;stroke:none;stroke-width:1.00012;stroke-linecap:square;stroke-linejoin:round;stop-color:#000000"
       id="rect853"
       width="270.93332"
       height="1.0583332"
       x="0"
       y="7.4083333"
       rx="1.0463257e-07"
       ry="1.9579352e-06" />
    <rect
       style="fill:#000000;stroke:none;stroke-width:1.00012;stroke-linecap:square;stroke-linejoin:round;stop-color:#000000"
       id="rect853-1"
       width="270.93332"
       height="1.058333"
       x="0"
       y="1.4150694e-07"
       rx="1.0463257e-07"
       ry="1.9579352e-06" />
  </g>
</svg>
