<?xml version="1.0" encoding="UTF-8" standalone="no"?>
<svg
   width="256"
   height="256"
   viewBox="0 0 67.73333 67.733335"
   version="1.1"
   id="svg8"
   inkscape:version="1.1.2 (0a00cf5339, 2022-02-04)"
   sodipodi:docname="docking_clamp_b.svg"
   xmlns:inkscape="http://www.inkscape.org/namespaces/inkscape"
   xmlns:sodipodi="http://sodipodi.sourceforge.net/DTD/sodipodi-0.dtd"
   xmlns:xlink="http://www.w3.org/1999/xlink"
   xmlns="http://www.w3.org/2000/svg"
   xmlns:svg="http://www.w3.org/2000/svg"
   xmlns:rdf="http://www.w3.org/1999/02/22-rdf-syntax-ns#"
   xmlns:cc="http://creativecommons.org/ns#"
   xmlns:dc="http://purl.org/dc/elements/1.1/">
  <defs
     id="defs2">
    <linearGradient
       inkscape:collect="always"
       id="linearGradient1254">
      <stop
         style="stop-color:#000000;stop-opacity:0"
         offset="0"
         id="stop1250" />
      <stop
         style="stop-color:#000000;stop-opacity:0.5595634"
         offset="1"
         id="stop1252" />
    </linearGradient>
    <filter
       inkscape:label="Metallized Paint"
       inkscape:menu="Materials"
       inkscape:menu-tooltip="Metallized effect with a soft lighting, slightly translucent at the edges"
       style="color-interpolation-filters:sRGB"
       id="filter4673">
      <feGaussianBlur
         stdDeviation="1"
         result="result1"
         id="feGaussianBlur4647" />
      <feComposite
         in="result1"
         in2="result1"
         result="result4"
         operator="in"
         id="feComposite4649" />
      <feBlend
         in="result1"
         mode="screen"
         result="result5"
         in2="result4"
         id="feBlend4651" />
      <feGaussianBlur
         stdDeviation="8"
         result="result6"
         in="result5"
         id="feGaussianBlur4653" />
      <feComposite
         operator="atop"
         in="result6"
         in2="result5"
         result="result8"
         id="feComposite4655" />
      <feComposite
         operator="in"
         result="fbSourceGraphic"
         in="result6"
         in2="result8"
         id="feComposite4657" />
      <feGaussianBlur
         result="result0"
         in="fbSourceGraphic"
         stdDeviation="2.5"
         id="feGaussianBlur4659" />
      <feSpecularLighting
         specularExponent="45"
         specularConstant="1.5"
         surfaceScale="1"
         lighting-color="#ffffff"
         result="result1"
         in="result0"
         id="feSpecularLighting4663">
        <fePointLight
           z="21000"
           y="-9000"
           x="-6000"
           id="fePointLight4661" />
      </feSpecularLighting>
      <feComposite
         operator="in"
         result="result2"
         in="result1"
         in2="fbSourceGraphic"
         id="feComposite4665" />
      <feComposite
         k3="1"
         k2="1"
         operator="arithmetic"
         result="result4"
         in="fbSourceGraphic"
         in2="result2"
         id="feComposite4667"
         k1="0"
         k4="0" />
      <feComposite
         operator="in"
         in2="result4"
         result="result91"
         id="feComposite4669" />
      <feBlend
         mode="multiply"
         in2="result91"
         id="feBlend4671" />
    </filter>
    <linearGradient
       inkscape:collect="always"
       xlink:href="#linearGradient1254"
       id="linearGradient3223"
       gradientUnits="userSpaceOnUse"
       gradientTransform="matrix(0.94117605,0,0,1,6.848059,7.408333)"
       x1="56.091663"
       y1="16.933332"
       x2="56.091663"
       y2="19.049999" />
    <linearGradient
       inkscape:collect="always"
       xlink:href="#linearGradient1254"
       id="linearGradient3225"
       gradientUnits="userSpaceOnUse"
       gradientTransform="matrix(0.9411766,0,0,1,6.8480342,-41.274997)"
       x1="56.091663"
       y1="16.933332"
       x2="56.091663"
       y2="19.049999" />
    <linearGradient
       inkscape:collect="always"
       xlink:href="#linearGradient1254"
       id="linearGradient3473"
       gradientUnits="userSpaceOnUse"
       gradientTransform="matrix(0.94117605,0,0,1,6.848059,7.408333)"
       x1="56.091663"
       y1="16.933332"
       x2="56.091663"
       y2="19.049999" />
    <linearGradient
       inkscape:collect="always"
       xlink:href="#linearGradient1254"
       id="linearGradient3475"
       gradientUnits="userSpaceOnUse"
       gradientTransform="matrix(0.9411766,0,0,1,6.8480342,-41.274997)"
       x1="56.091663"
       y1="16.933332"
       x2="56.091663"
       y2="19.049999" />
    <linearGradient
       inkscape:collect="always"
       xlink:href="#linearGradient1254"
       id="linearGradient5159"
       gradientUnits="userSpaceOnUse"
       gradientTransform="matrix(0.94117605,0,0,1,6.848059,7.408333)"
       x1="56.091663"
       y1="16.933332"
       x2="56.091663"
       y2="19.049999" />
    <linearGradient
       inkscape:collect="always"
       xlink:href="#linearGradient1254"
       id="linearGradient5161"
       gradientUnits="userSpaceOnUse"
       gradientTransform="matrix(0.9411766,0,0,1,6.8480342,-41.274997)"
       x1="56.091663"
       y1="16.933332"
       x2="56.091663"
       y2="19.049999" />
    <linearGradient
       inkscape:collect="always"
       xlink:href="#linearGradient1254"
       id="linearGradient5163"
       gradientUnits="userSpaceOnUse"
       gradientTransform="matrix(0.94117605,0,0,1,6.848059,7.408333)"
       x1="56.091663"
       y1="16.933332"
       x2="56.091663"
       y2="19.049999" />
    <linearGradient
       inkscape:collect="always"
       xlink:href="#linearGradient1254"
       id="linearGradient5165"
       gradientUnits="userSpaceOnUse"
       gradientTransform="matrix(0.9411766,0,0,1,6.8480342,-41.274997)"
       x1="56.091663"
       y1="16.933332"
       x2="56.091663"
       y2="19.049999" />
    <linearGradient
       inkscape:collect="always"
       xlink:href="#linearGradient1254"
       id="linearGradient5468"
       gradientUnits="userSpaceOnUse"
       gradientTransform="matrix(0.94117605,0,0,1,6.848059,7.408333)"
       x1="56.091663"
       y1="16.933332"
       x2="56.091663"
       y2="19.049999" />
    <linearGradient
       inkscape:collect="always"
       xlink:href="#linearGradient1254"
       id="linearGradient5470"
       gradientUnits="userSpaceOnUse"
       gradientTransform="matrix(0.9411766,0,0,1,6.8480342,-41.274997)"
       x1="56.091663"
       y1="16.933332"
       x2="56.091663"
       y2="19.049999" />
    <linearGradient
       inkscape:collect="always"
       xlink:href="#linearGradient1254"
       id="linearGradient5472"
       gradientUnits="userSpaceOnUse"
       gradientTransform="matrix(0.94117605,0,0,1,6.848059,7.408333)"
       x1="56.091663"
       y1="16.933332"
       x2="56.091663"
       y2="19.049999" />
    <linearGradient
       inkscape:collect="always"
       xlink:href="#linearGradient1254"
       id="linearGradient5474"
       gradientUnits="userSpaceOnUse"
       gradientTransform="matrix(0.9411766,0,0,1,6.8480342,-41.274997)"
       x1="56.091663"
       y1="16.933332"
       x2="56.091663"
       y2="19.049999" />
  </defs>
  <sodipodi:namedview
     id="base"
     pagecolor="#ffffff"
     bordercolor="#666666"
     borderopacity="1.0"
     inkscape:pageopacity="0"
     inkscape:pageshadow="2"
     inkscape:zoom="1.4"
     inkscape:cx="-34.642857"
     inkscape:cy="99.642856"
     inkscape:document-units="px"
     inkscape:current-layer="layer1"
     inkscape:document-rotation="0"
     showgrid="true"
     units="px"
     inkscape:window-width="2560"
     inkscape:window-height="1343"
     inkscape:window-x="1200"
     inkscape:window-y="240"
     inkscape:window-maximized="1"
     inkscape:snap-grids="true"
     inkscape:pagecheckerboard="0"
     inkscape:snap-smooth-nodes="true"
     inkscape:snap-object-midpoints="true">
    <inkscape:grid
       type="xygrid"
       id="grid833"
       units="px"
       empspacing="4"
       spacingy="1.0583333"
       spacingx="1.0583333" />
  </sodipodi:namedview>
  <metadata
     id="metadata5">
    <rdf:RDF>
      <cc:Work
         rdf:about="">
        <dc:format>image/svg+xml</dc:format>
        <dc:type
           rdf:resource="http://purl.org/dc/dcmitype/StillImage" />
      </cc:Work>
    </rdf:RDF>
  </metadata>
  <g
     inkscape:label="Desk"
     inkscape:groupmode="layer"
     id="layer1">
    <rect
       style="fill:#4d4d4d;stroke:#333333;stroke-width:0.529167;stroke-linecap:round;stroke-opacity:0.996078;stop-color:#000000"
       id="rect820"
       width="6.3499999"
       height="4.2333331"
       x="19.049999"
       y="8.4666653"
       rx="1.0814697e-06"
       ry="1.7838134e-07" />
    <rect
       style="fill:#4d4d4d;stroke:#333333;stroke-width:0.529167;stroke-linecap:round;stroke-opacity:0.996078;stop-color:#000000"
       id="rect820-2"
       width="6.3499999"
       height="4.2333331"
       x="19.049999"
       y="17.991667"
       rx="1.0814697e-06"
       ry="1.7838134e-07" />
    <rect
       style="fill:#4d4d4d;stroke:#333333;stroke-width:0.529167;stroke-linecap:round;stroke-opacity:0.996078;stop-color:#000000"
       id="rect820-2-9"
       width="6.3499999"
       height="4.2333331"
       x="19.049999"
       y="27.516666"
       rx="1.0814697e-06"
       ry="1.7838134e-07" />
    <rect
       style="fill:#4d4d4d;stroke:#333333;stroke-width:0.529167;stroke-linecap:round;stroke-opacity:0.996078;stop-color:#000000"
       id="rect820-2-1"
       width="6.3499999"
       height="4.2333331"
       x="19.049999"
       y="35.983334"
       rx="1.0814697e-06"
       ry="1.7838134e-07" />
    <rect
       style="fill:#999999;fill-opacity:1;stroke:#333333;stroke-width:0.529167;stroke-linecap:round;stroke-miterlimit:4;stroke-dasharray:none;stroke-opacity:0.996078;stop-color:#000000"
       id="rect10757"
       width="14.816667"
       height="8.4666662"
       x="4.2333331"
       y="11.641666"
       rx="1.0583333"
       ry="1.0583333" />
    <rect
       style="fill:#4d4d4d;stroke:#333333;stroke-width:0.529167;stroke-linecap:round;stroke-opacity:0.996078;stop-color:#000000"
       id="rect820-2-2"
       width="6.3499999"
       height="4.2333331"
       x="19.049999"
       y="45.508331"
       rx="1.0814697e-06"
       ry="1.7838134e-07" />
    <rect
       style="fill:#999999;fill-opacity:1;stroke:#333333;stroke-width:0.529167;stroke-linecap:round;stroke-miterlimit:4;stroke-dasharray:none;stroke-opacity:0.996078;stop-color:#000000"
       id="rect10757-9"
       width="14.816667"
       height="8.4666662"
       x="4.2333336"
       y="29.633333"
       rx="1.0583333"
       ry="1.0583333" />
    <rect
       style="fill:#4d4d4d;stroke:#333333;stroke-width:0.529167;stroke-linecap:round;stroke-opacity:0.996078;stop-color:#000000"
       id="rect820-2-7"
       width="6.3499999"
       height="4.2333331"
       x="19.049999"
       y="55.033333"
       rx="1.0814697e-06"
       ry="1.7838134e-07" />
    <g
       id="g4848-4"
       transform="translate(1.1517572e-6,41.274999)">
      <g
         id="g3276-5"
         transform="translate(-4.2333346,-15.874999)">
        <rect
           style="fill:#ffffff;stroke:#333333;stroke-width:0.529167;stroke-linecap:round;stroke-opacity:0.996078;stop-color:#000000"
           id="rect350-7-2-2"
           width="8.4666672"
           height="4.2333331"
           x="57.149998"
           y="22.225"
           rx="1.058336"
           ry="1.0583333" />
        <rect
           style="fill:#ffffff;stroke:#333333;stroke-width:0.529167;stroke-linecap:round;stroke-opacity:0.996078;stop-color:#000000"
           id="rect350-7-5-6-5"
           width="8.4666672"
           height="4.2333331"
           x="48.683331"
           y="22.225"
           rx="1.058336"
           ry="1.0583333" />
        <rect
           style="fill:url(#linearGradient5468);fill-opacity:1;stroke:none;stroke-width:0.513367;stroke-linecap:round;stroke-opacity:0.996078;stop-color:#000000"
           id="rect1196-1-4"
           width="16.933327"
           height="4.2333331"
           x="48.683334"
           y="22.225"
           rx="0.99608052"
           ry="1.0583333" />
        <rect
           style="fill:url(#linearGradient5470);fill-opacity:1;stroke:none;stroke-width:0.513367;stroke-linecap:round;stroke-opacity:0.996078;stop-color:#000000"
           id="rect1196-3-8-74"
           width="16.933336"
           height="4.2333331"
           x="48.683331"
           y="-26.458332"
           rx="0.99608111"
           ry="1.0583333"
           transform="scale(1,-1)" />
      </g>
      <g
         id="g3276-2-4"
         transform="translate(-4.233335,-7.4083344)">
        <rect
           style="fill:#ffffff;stroke:#333333;stroke-width:0.529167;stroke-linecap:round;stroke-opacity:0.996078;stop-color:#000000"
           id="rect350-7-2-0-3"
           width="8.4666672"
           height="4.2333331"
           x="57.149998"
           y="22.225"
           rx="1.058336"
           ry="1.0583333" />
        <rect
           style="fill:#ffffff;stroke:#333333;stroke-width:0.529167;stroke-linecap:round;stroke-opacity:0.996078;stop-color:#000000"
           id="rect350-7-5-6-2-0"
           width="8.4666672"
           height="4.2333331"
           x="48.683331"
           y="22.225"
           rx="1.058336"
           ry="1.0583333" />
        <rect
           style="fill:url(#linearGradient5472);fill-opacity:1;stroke:none;stroke-width:0.513367;stroke-linecap:round;stroke-opacity:0.996078;stop-color:#000000"
           id="rect1196-1-3-7"
           width="16.933327"
           height="4.2333331"
           x="48.683334"
           y="22.225"
           rx="0.99608052"
           ry="1.0583333" />
        <rect
           style="fill:url(#linearGradient5474);fill-opacity:1;stroke:none;stroke-width:0.513367;stroke-linecap:round;stroke-opacity:0.996078;stop-color:#000000"
           id="rect1196-3-8-7-8"
           width="16.933336"
           height="4.2333331"
           x="48.683331"
           y="-26.458332"
           rx="0.99608111"
           ry="1.0583333"
           transform="scale(1,-1)" />
      </g>
      <circle
         style="fill:#333333;fill-opacity:1;stroke:#333333;stroke-width:0.529167;stroke-linecap:round;stroke-opacity:0.996078;stop-color:#000000"
         id="path3782-6"
         cx="63.499996"
         cy="6.3499999"
         r="0.52916664" />
      <circle
         style="fill:#333333;fill-opacity:1;stroke:#333333;stroke-width:0.529167;stroke-linecap:round;stroke-opacity:0.996078;stop-color:#000000"
         id="path3782-5-8"
         cx="63.499996"
         cy="8.4666662"
         r="0.52916664" />
      <circle
         style="fill:#333333;fill-opacity:1;stroke:#333333;stroke-width:0.529167;stroke-linecap:round;stroke-opacity:0.996078;stop-color:#000000"
         id="path3782-9-8"
         cx="63.499996"
         cy="10.583333"
         r="0.52916664" />
      <circle
         style="fill:#333333;fill-opacity:1;stroke:#333333;stroke-width:0.529167;stroke-linecap:round;stroke-opacity:0.996078;stop-color:#000000"
         id="path3782-2-4"
         cx="63.499996"
         cy="12.7"
         r="0.52916664" />
      <circle
         style="fill:#333333;fill-opacity:1;stroke:#333333;stroke-width:0.529167;stroke-linecap:round;stroke-opacity:0.996078;stop-color:#000000"
         id="path3782-28-3"
         cx="63.499996"
         cy="14.816667"
         r="0.52916664" />
      <circle
         style="fill:#333333;fill-opacity:1;stroke:#333333;stroke-width:0.529167;stroke-linecap:round;stroke-opacity:0.996078;stop-color:#000000"
         id="path3782-97-1"
         cx="63.499996"
         cy="16.933332"
         r="0.52916664" />
      <circle
         style="fill:#333333;fill-opacity:1;stroke:#333333;stroke-width:0.529167;stroke-linecap:round;stroke-opacity:0.996078;stop-color:#000000"
         id="path3782-3-4"
         cx="63.499996"
         cy="19.049999"
         r="0.52916664" />
      <rect
         style="fill:#666666;stroke:#333333;stroke-width:0.529167;stroke-linecap:round;stroke-opacity:0.996078;stop-color:#000000"
         id="rect142-9"
         width="4.2333331"
         height="16.933332"
         x="59.266666"
         y="4.2333331"
         rx="1.0583353"
         ry="1.0583334" />
      <rect
         style="fill:#666666;stroke:#333333;stroke-width:0.374177;stroke-linecap:round;stroke-opacity:0.996078;stop-color:#000000"
         id="rect142-5-2"
         width="2.1166656"
         height="16.933332"
         x="51.858334"
         y="4.2333331"
         rx="1.0583324"
         ry="1.0583334" />
      <rect
         style="fill:#666666;fill-opacity:1;stroke:#333333;stroke-width:0.748356;stroke-linecap:round;stroke-opacity:0.996078;stop-color:#000000"
         id="rect4230-0"
         width="2.1166685"
         height="3.175"
         x="60.324997"
         y="6.3499999"
         rx="2.1166739"
         ry="1.0583332" />
      <rect
         style="fill:#666666;fill-opacity:1;stroke:#333333;stroke-width:0.748356;stroke-linecap:round;stroke-opacity:0.996078;stop-color:#000000"
         id="rect4230-1-68"
         width="2.1166685"
         height="3.175"
         x="60.324997"
         y="11.1125"
         rx="2.1166739"
         ry="1.0583332" />
      <rect
         style="fill:#666666;fill-opacity:1;stroke:#333333;stroke-width:0.748356;stroke-linecap:round;stroke-opacity:0.996078;stop-color:#000000"
         id="rect4230-2-9"
         width="2.1166685"
         height="3.175"
         x="60.324997"
         y="15.874999"
         rx="2.1166739"
         ry="1.0583332" />
      <path
         style="fill:#333333;fill-opacity:1;stroke:#333333;stroke-width:0.529167;stroke-linecap:round;stroke-opacity:0.996078;stop-color:#000000"
         d="m 52.916666,5.2916666 -10e-7,6.3499994"
         id="path4512-2"
         sodipodi:nodetypes="cc" />
      <path
         style="fill:#333333;fill-opacity:1;stroke:#333333;stroke-width:0.529167;stroke-linecap:round;stroke-opacity:0.996078;stop-color:#000000"
         d="m 52.916666,20.108333 v -6.35"
         id="path4514-6" />
    </g>
    <g
       id="g4848-1"
       transform="translate(-2.7011717e-6,21.166666)">
      <g
         id="g3276-9"
         transform="translate(-4.2333346,-15.874999)">
        <rect
           style="fill:#ffffff;stroke:#333333;stroke-width:0.529167;stroke-linecap:round;stroke-opacity:0.996078;stop-color:#000000"
           id="rect350-7-2-4"
           width="8.4666672"
           height="4.2333331"
           x="57.149998"
           y="22.225"
           rx="1.058336"
           ry="1.0583333" />
        <rect
           style="fill:#ffffff;stroke:#333333;stroke-width:0.529167;stroke-linecap:round;stroke-opacity:0.996078;stop-color:#000000"
           id="rect350-7-5-6-7"
           width="8.4666672"
           height="4.2333331"
           x="48.683331"
           y="22.225"
           rx="1.058336"
           ry="1.0583333" />
        <rect
           style="fill:url(#linearGradient5159);fill-opacity:1;stroke:none;stroke-width:0.513367;stroke-linecap:round;stroke-opacity:0.996078;stop-color:#000000"
           id="rect1196-1-8"
           width="16.933327"
           height="4.2333331"
           x="48.683334"
           y="22.225"
           rx="0.99608052"
           ry="1.0583333" />
        <rect
           style="fill:url(#linearGradient5161);fill-opacity:1;stroke:none;stroke-width:0.513367;stroke-linecap:round;stroke-opacity:0.996078;stop-color:#000000"
           id="rect1196-3-8-4"
           width="16.933336"
           height="4.2333331"
           x="48.683331"
           y="-26.458332"
           rx="0.99608111"
           ry="1.0583333"
           transform="scale(1,-1)" />
      </g>
      <g
         id="g3276-2-5"
         transform="translate(-4.233335,-7.4083344)">
        <rect
           style="fill:#ffffff;stroke:#333333;stroke-width:0.529167;stroke-linecap:round;stroke-opacity:0.996078;stop-color:#000000"
           id="rect350-7-2-0-0"
           width="8.4666672"
           height="4.2333331"
           x="57.149998"
           y="22.225"
           rx="1.058336"
           ry="1.0583333" />
        <rect
           style="fill:#ffffff;stroke:#333333;stroke-width:0.529167;stroke-linecap:round;stroke-opacity:0.996078;stop-color:#000000"
           id="rect350-7-5-6-2-3"
           width="8.4666672"
           height="4.2333331"
           x="48.683331"
           y="22.225"
           rx="1.058336"
           ry="1.0583333" />
        <rect
           style="fill:url(#linearGradient5163);fill-opacity:1;stroke:none;stroke-width:0.513367;stroke-linecap:round;stroke-opacity:0.996078;stop-color:#000000"
           id="rect1196-1-3-6"
           width="16.933327"
           height="4.2333331"
           x="48.683334"
           y="22.225"
           rx="0.99608052"
           ry="1.0583333" />
        <rect
           style="fill:url(#linearGradient5165);fill-opacity:1;stroke:none;stroke-width:0.513367;stroke-linecap:round;stroke-opacity:0.996078;stop-color:#000000"
           id="rect1196-3-8-7-1"
           width="16.933336"
           height="4.2333331"
           x="48.683331"
           y="-26.458332"
           rx="0.99608111"
           ry="1.0583333"
           transform="scale(1,-1)" />
      </g>
      <circle
         style="fill:#333333;fill-opacity:1;stroke:#333333;stroke-width:0.529167;stroke-linecap:round;stroke-opacity:0.996078;stop-color:#000000"
         id="path3782-0"
         cx="63.499996"
         cy="6.3499999"
         r="0.52916664" />
      <circle
         style="fill:#333333;fill-opacity:1;stroke:#333333;stroke-width:0.529167;stroke-linecap:round;stroke-opacity:0.996078;stop-color:#000000"
         id="path3782-5-6"
         cx="63.499996"
         cy="8.4666662"
         r="0.52916664" />
      <circle
         style="fill:#333333;fill-opacity:1;stroke:#333333;stroke-width:0.529167;stroke-linecap:round;stroke-opacity:0.996078;stop-color:#000000"
         id="path3782-9-3"
         cx="63.499996"
         cy="10.583333"
         r="0.52916664" />
      <circle
         style="fill:#333333;fill-opacity:1;stroke:#333333;stroke-width:0.529167;stroke-linecap:round;stroke-opacity:0.996078;stop-color:#000000"
         id="path3782-2-2"
         cx="63.499996"
         cy="12.7"
         r="0.52916664" />
      <circle
         style="fill:#333333;fill-opacity:1;stroke:#333333;stroke-width:0.529167;stroke-linecap:round;stroke-opacity:0.996078;stop-color:#000000"
         id="path3782-28-0"
         cx="63.499996"
         cy="14.816667"
         r="0.52916664" />
      <circle
         style="fill:#333333;fill-opacity:1;stroke:#333333;stroke-width:0.529167;stroke-linecap:round;stroke-opacity:0.996078;stop-color:#000000"
         id="path3782-97-6"
         cx="63.499996"
         cy="16.933332"
         r="0.52916664" />
      <circle
         style="fill:#333333;fill-opacity:1;stroke:#333333;stroke-width:0.529167;stroke-linecap:round;stroke-opacity:0.996078;stop-color:#000000"
         id="path3782-3-1"
         cx="63.499996"
         cy="19.049999"
         r="0.52916664" />
      <rect
         style="fill:#666666;stroke:#333333;stroke-width:0.529167;stroke-linecap:round;stroke-opacity:0.996078;stop-color:#000000"
         id="rect142-55"
         width="4.2333331"
         height="16.933332"
         x="59.266666"
         y="4.2333331"
         rx="1.0583353"
         ry="1.0583334" />
      <rect
         style="fill:#666666;stroke:#333333;stroke-width:0.374177;stroke-linecap:round;stroke-opacity:0.996078;stop-color:#000000"
         id="rect142-5-4"
         width="2.1166656"
         height="16.933332"
         x="51.858334"
         y="4.2333331"
         rx="1.0583324"
         ry="1.0583334" />
      <rect
         style="fill:#666666;fill-opacity:1;stroke:#333333;stroke-width:0.748356;stroke-linecap:round;stroke-opacity:0.996078;stop-color:#000000"
         id="rect4230-7"
         width="2.1166685"
         height="3.175"
         x="60.324997"
         y="6.3499999"
         rx="2.1166739"
         ry="1.0583332" />
      <rect
         style="fill:#666666;fill-opacity:1;stroke:#333333;stroke-width:0.748356;stroke-linecap:round;stroke-opacity:0.996078;stop-color:#000000"
         id="rect4230-1-6"
         width="2.1166685"
         height="3.175"
         x="60.324997"
         y="11.1125"
         rx="2.1166739"
         ry="1.0583332" />
      <rect
         style="fill:#666666;fill-opacity:1;stroke:#333333;stroke-width:0.748356;stroke-linecap:round;stroke-opacity:0.996078;stop-color:#000000"
         id="rect4230-2-5"
         width="2.1166685"
         height="3.175"
         x="60.324997"
         y="15.874999"
         rx="2.1166739"
         ry="1.0583332" />
      <path
         style="fill:#333333;fill-opacity:1;stroke:#333333;stroke-width:0.529167;stroke-linecap:round;stroke-opacity:0.996078;stop-color:#000000"
         d="m 52.916666,5.2916666 -10e-7,6.3499994"
         id="path4512-6"
         sodipodi:nodetypes="cc" />
      <path
         style="fill:#333333;fill-opacity:1;stroke:#333333;stroke-width:0.529167;stroke-linecap:round;stroke-opacity:0.996078;stop-color:#000000"
         d="m 52.916666,20.108333 v -6.35"
         id="path4514-9" />
    </g>
    <g
       id="g4848">
      <g
         id="g3276"
         transform="translate(-4.2333346,-15.874999)">
        <rect
           style="fill:#ffffff;stroke:#333333;stroke-width:0.529167;stroke-linecap:round;stroke-opacity:0.996078;stop-color:#000000"
           id="rect350-7-2"
           width="8.4666672"
           height="4.2333331"
           x="57.149998"
           y="22.225"
           rx="1.058336"
           ry="1.0583333" />
        <rect
           style="fill:#ffffff;stroke:#333333;stroke-width:0.529167;stroke-linecap:round;stroke-opacity:0.996078;stop-color:#000000"
           id="rect350-7-5-6"
           width="8.4666672"
           height="4.2333331"
           x="48.683331"
           y="22.225"
           rx="1.058336"
           ry="1.0583333" />
        <rect
           style="fill:url(#linearGradient3223);fill-opacity:1;stroke:none;stroke-width:0.513367;stroke-linecap:round;stroke-opacity:0.996078;stop-color:#000000"
           id="rect1196-1"
           width="16.933327"
           height="4.2333331"
           x="48.683334"
           y="22.225"
           rx="0.99608052"
           ry="1.0583333" />
        <rect
           style="fill:url(#linearGradient3225);fill-opacity:1;stroke:none;stroke-width:0.513367;stroke-linecap:round;stroke-opacity:0.996078;stop-color:#000000"
           id="rect1196-3-8"
           width="16.933336"
           height="4.2333331"
           x="48.683331"
           y="-26.458332"
           rx="0.99608111"
           ry="1.0583333"
           transform="scale(1,-1)" />
      </g>
      <g
         id="g3276-2"
         transform="translate(-4.233335,-7.4083344)">
        <rect
           style="fill:#ffffff;stroke:#333333;stroke-width:0.529167;stroke-linecap:round;stroke-opacity:0.996078;stop-color:#000000"
           id="rect350-7-2-0"
           width="8.4666672"
           height="4.2333331"
           x="57.149998"
           y="22.225"
           rx="1.058336"
           ry="1.0583333" />
        <rect
           style="fill:#ffffff;stroke:#333333;stroke-width:0.529167;stroke-linecap:round;stroke-opacity:0.996078;stop-color:#000000"
           id="rect350-7-5-6-2"
           width="8.4666672"
           height="4.2333331"
           x="48.683331"
           y="22.225"
           rx="1.058336"
           ry="1.0583333" />
        <rect
           style="fill:url(#linearGradient3473);fill-opacity:1;stroke:none;stroke-width:0.513367;stroke-linecap:round;stroke-opacity:0.996078;stop-color:#000000"
           id="rect1196-1-3"
           width="16.933327"
           height="4.2333331"
           x="48.683334"
           y="22.225"
           rx="0.99608052"
           ry="1.0583333" />
        <rect
           style="fill:url(#linearGradient3475);fill-opacity:1;stroke:none;stroke-width:0.513367;stroke-linecap:round;stroke-opacity:0.996078;stop-color:#000000"
           id="rect1196-3-8-7"
           width="16.933336"
           height="4.2333331"
           x="48.683331"
           y="-26.458332"
           rx="0.99608111"
           ry="1.0583333"
           transform="scale(1,-1)" />
      </g>
      <circle
         style="fill:#333333;fill-opacity:1;stroke:#333333;stroke-width:0.529167;stroke-linecap:round;stroke-opacity:0.996078;stop-color:#000000"
         id="path3782"
         cx="63.499996"
         cy="6.3499999"
         r="0.52916664" />
      <circle
         style="fill:#333333;fill-opacity:1;stroke:#333333;stroke-width:0.529167;stroke-linecap:round;stroke-opacity:0.996078;stop-color:#000000"
         id="path3782-5"
         cx="63.499996"
         cy="8.4666662"
         r="0.52916664" />
      <circle
         style="fill:#333333;fill-opacity:1;stroke:#333333;stroke-width:0.529167;stroke-linecap:round;stroke-opacity:0.996078;stop-color:#000000"
         id="path3782-9"
         cx="63.499996"
         cy="10.583333"
         r="0.52916664" />
      <circle
         style="fill:#333333;fill-opacity:1;stroke:#333333;stroke-width:0.529167;stroke-linecap:round;stroke-opacity:0.996078;stop-color:#000000"
         id="path3782-2"
         cx="63.499996"
         cy="12.7"
         r="0.52916664" />
      <circle
         style="fill:#333333;fill-opacity:1;stroke:#333333;stroke-width:0.529167;stroke-linecap:round;stroke-opacity:0.996078;stop-color:#000000"
         id="path3782-28"
         cx="63.499996"
         cy="14.816667"
         r="0.52916664" />
      <circle
         style="fill:#333333;fill-opacity:1;stroke:#333333;stroke-width:0.529167;stroke-linecap:round;stroke-opacity:0.996078;stop-color:#000000"
         id="path3782-97"
         cx="63.499996"
         cy="16.933332"
         r="0.52916664" />
      <circle
         style="fill:#333333;fill-opacity:1;stroke:#333333;stroke-width:0.529167;stroke-linecap:round;stroke-opacity:0.996078;stop-color:#000000"
         id="path3782-3"
         cx="63.499996"
         cy="19.049999"
         r="0.52916664" />
      <rect
         style="fill:#666666;stroke:#333333;stroke-width:0.529167;stroke-linecap:round;stroke-opacity:0.996078;stop-color:#000000"
         id="rect142"
         width="4.2333331"
         height="16.933332"
         x="59.266666"
         y="4.2333331"
         rx="1.0583353"
         ry="1.0583334" />
      <rect
         style="fill:#666666;stroke:#333333;stroke-width:0.374177;stroke-linecap:round;stroke-opacity:0.996078;stop-color:#000000"
         id="rect142-5"
         width="2.1166656"
         height="16.933332"
         x="51.858334"
         y="4.2333331"
         rx="1.0583324"
         ry="1.0583334" />
      <rect
         style="fill:#666666;fill-opacity:1;stroke:#333333;stroke-width:0.748356;stroke-linecap:round;stroke-opacity:0.996078;stop-color:#000000"
         id="rect4230"
         width="2.1166685"
         height="3.175"
         x="60.324997"
         y="6.3499999"
         rx="2.1166739"
         ry="1.0583332" />
      <rect
         style="fill:#666666;fill-opacity:1;stroke:#333333;stroke-width:0.748356;stroke-linecap:round;stroke-opacity:0.996078;stop-color:#000000"
         id="rect4230-1"
         width="2.1166685"
         height="3.175"
         x="60.324997"
         y="11.1125"
         rx="2.1166739"
         ry="1.0583332" />
      <rect
         style="fill:#666666;fill-opacity:1;stroke:#333333;stroke-width:0.748356;stroke-linecap:round;stroke-opacity:0.996078;stop-color:#000000"
         id="rect4230-2"
         width="2.1166685"
         height="3.175"
         x="60.324997"
         y="15.874999"
         rx="2.1166739"
         ry="1.0583332" />
      <path
         style="fill:#333333;fill-opacity:1;stroke:#333333;stroke-width:0.529167;stroke-linecap:round;stroke-opacity:0.996078;stop-color:#000000"
         d="m 52.916666,5.2916666 -10e-7,6.3499994"
         id="path4512"
         sodipodi:nodetypes="cc" />
      <path
         style="fill:#333333;fill-opacity:1;stroke:#333333;stroke-width:0.529167;stroke-linecap:round;stroke-opacity:0.996078;stop-color:#000000"
         d="m 52.916666,20.108333 v -6.35"
         id="path4514" />
    </g>
    <rect
       style="fill:#808080;stroke:#333333;stroke-width:0.529167;stroke-linecap:round;stroke-opacity:0.996078;stop-color:#000000"
       id="rect140"
       width="24.341669"
       height="59.266666"
       x="24.341665"
       y="4.2333331"
       rx="2.1166673"
       ry="2.1166666" />
    <rect
       style="fill:#666666;fill-opacity:1;stroke:#333333;stroke-width:0.529167;stroke-linecap:round;stroke-opacity:0.996078;stop-color:#000000"
       id="rect5523"
       width="20.108334"
       height="4.2333326"
       x="26.458332"
       y="6.3500004"
       rx="1.0583338"
       ry="1.0583335" />
    <rect
       style="fill:#666666;fill-opacity:1;stroke:#333333;stroke-width:0.529167;stroke-linecap:round;stroke-opacity:0.996078;stop-color:#000000"
       id="rect5523-6"
       width="20.108334"
       height="4.2333326"
       x="26.45833"
       y="14.816667"
       rx="1.0583338"
       ry="1.0583335" />
    <rect
       style="fill:#666666;fill-opacity:1;stroke:#333333;stroke-width:0.529167;stroke-linecap:round;stroke-opacity:0.996078;stop-color:#000000"
       id="rect5523-4"
       width="20.108334"
       height="4.2333326"
       x="26.458334"
       y="23.283333"
       rx="1.0583338"
       ry="1.0583335" />
    <rect
       style="fill:#666666;fill-opacity:1;stroke:#333333;stroke-width:0.529167;stroke-linecap:round;stroke-opacity:0.996078;stop-color:#000000"
       id="rect5523-9"
       width="20.108334"
       height="4.2333326"
       x="26.458332"
       y="31.749998"
       rx="1.0583338"
       ry="1.0583335" />
    <rect
       style="fill:#666666;fill-opacity:1;stroke:#333333;stroke-width:0.529167;stroke-linecap:round;stroke-opacity:0.996078;stop-color:#000000"
       id="rect5523-5"
       width="20.108334"
       height="4.2333326"
       x="26.458332"
       y="40.216667"
       rx="1.0583338"
       ry="1.0583335" />
    <rect
       style="fill:#666666;fill-opacity:1;stroke:#333333;stroke-width:0.529167;stroke-linecap:round;stroke-opacity:0.996078;stop-color:#000000"
       id="rect5523-0"
       width="20.108334"
       height="4.2333326"
       x="26.458332"
       y="48.683331"
       rx="1.0583338"
       ry="1.0583335" />
    <rect
       style="fill:#666666;fill-opacity:1;stroke:#333333;stroke-width:0.529167;stroke-linecap:round;stroke-opacity:0.996078;stop-color:#000000"
       id="rect5523-48"
       width="20.108334"
       height="4.2333326"
       x="26.458332"
       y="57.149998"
       rx="1.0583338"
       ry="1.0583335" />
    <g
       id="g7844">
      <path
         style="fill:#4d4d4d;fill-opacity:1;stroke:#333333;stroke-width:1.5875;stroke-linecap:round;stroke-miterlimit:4;stroke-dasharray:none;stroke-opacity:0.996078;stop-color:#000000"
         d="M 27.516666,12.7 H 45.508332"
         id="path6082"
         sodipodi:nodetypes="cc" />
      <path
         style="fill:#4d4d4d;fill-opacity:1;stroke:#b3b3b3;stroke-width:0.79375;stroke-linecap:round;stroke-miterlimit:4;stroke-dasharray:none;stroke-opacity:0.996078;stop-color:#000000"
         d="M 27.516666,12.7 H 45.508333"
         id="path7321"
         sodipodi:nodetypes="cc" />
    </g>
    <g
       id="g7844-0"
       transform="translate(-1.1000003e-6,8.466666)">
      <path
         style="fill:#4d4d4d;fill-opacity:1;stroke:#333333;stroke-width:1.5875;stroke-linecap:round;stroke-miterlimit:4;stroke-dasharray:none;stroke-opacity:0.996078;stop-color:#000000"
         d="M 27.516666,12.7 H 45.508332"
         id="path6082-6"
         sodipodi:nodetypes="cc" />
      <path
         style="fill:#4d4d4d;fill-opacity:1;stroke:#b3b3b3;stroke-width:0.79375;stroke-linecap:round;stroke-miterlimit:4;stroke-dasharray:none;stroke-opacity:0.996078;stop-color:#000000"
         d="M 27.516666,12.7 H 45.508333"
         id="path7321-1"
         sodipodi:nodetypes="cc" />
    </g>
    <g
       id="g7844-5"
       transform="translate(-9.9999334e-8,16.933332)">
      <path
         style="fill:#4d4d4d;fill-opacity:1;stroke:#333333;stroke-width:1.5875;stroke-linecap:round;stroke-miterlimit:4;stroke-dasharray:none;stroke-opacity:0.996078;stop-color:#000000"
         d="M 27.516666,12.7 H 45.508332"
         id="path6082-9"
         sodipodi:nodetypes="cc" />
      <path
         style="fill:#4d4d4d;fill-opacity:1;stroke:#b3b3b3;stroke-width:0.79375;stroke-linecap:round;stroke-miterlimit:4;stroke-dasharray:none;stroke-opacity:0.996078;stop-color:#000000"
         d="M 27.516666,12.7 H 45.508333"
         id="path7321-4"
         sodipodi:nodetypes="cc" />
    </g>
    <g
       id="g7844-9"
       transform="translate(-1.1000003e-6,25.399999)">
      <path
         style="fill:#4d4d4d;fill-opacity:1;stroke:#333333;stroke-width:1.5875;stroke-linecap:round;stroke-miterlimit:4;stroke-dasharray:none;stroke-opacity:0.996078;stop-color:#000000"
         d="M 27.516666,12.7 H 45.508332"
         id="path6082-0"
         sodipodi:nodetypes="cc" />
      <path
         style="fill:#4d4d4d;fill-opacity:1;stroke:#b3b3b3;stroke-width:0.79375;stroke-linecap:round;stroke-miterlimit:4;stroke-dasharray:none;stroke-opacity:0.996078;stop-color:#000000"
         d="M 27.516666,12.7 H 45.508333"
         id="path7321-9"
         sodipodi:nodetypes="cc" />
    </g>
    <g
       id="g7844-1"
       transform="translate(-1.000003e-7,33.866665)">
      <path
         style="fill:#4d4d4d;fill-opacity:1;stroke:#333333;stroke-width:1.5875;stroke-linecap:round;stroke-miterlimit:4;stroke-dasharray:none;stroke-opacity:0.996078;stop-color:#000000"
         d="M 27.516666,12.7 H 45.508332"
         id="path6082-7"
         sodipodi:nodetypes="cc" />
      <path
         style="fill:#4d4d4d;fill-opacity:1;stroke:#b3b3b3;stroke-width:0.79375;stroke-linecap:round;stroke-miterlimit:4;stroke-dasharray:none;stroke-opacity:0.996078;stop-color:#000000"
         d="M 27.516666,12.7 H 45.508333"
         id="path7321-7"
         sodipodi:nodetypes="cc" />
    </g>
    <g
       id="g7844-11"
       transform="translate(-1.000003e-7,42.333332)">
      <path
         style="fill:#4d4d4d;fill-opacity:1;stroke:#333333;stroke-width:1.5875;stroke-linecap:round;stroke-miterlimit:4;stroke-dasharray:none;stroke-opacity:0.996078;stop-color:#000000"
         d="M 27.516666,12.7 H 45.508332"
         id="path6082-5"
         sodipodi:nodetypes="cc" />
      <path
         style="fill:#4d4d4d;fill-opacity:1;stroke:#b3b3b3;stroke-width:0.79375;stroke-linecap:round;stroke-miterlimit:4;stroke-dasharray:none;stroke-opacity:0.996078;stop-color:#000000"
         d="M 27.516666,12.7 H 45.508333"
         id="path7321-97"
         sodipodi:nodetypes="cc" />
    </g>
    <rect
       style="fill:#999999;fill-opacity:1;stroke:#333333;stroke-width:0.529167;stroke-linecap:round;stroke-miterlimit:4;stroke-dasharray:none;stroke-opacity:0.996078;stop-color:#000000"
       id="rect10757-3"
       width="14.816667"
       height="8.4666662"
       x="4.2333331"
       y="48.683331"
       rx="1.0583333"
       ry="1.0583333" />
    <rect
       style="fill:#666666;fill-opacity:1;stroke:#333333;stroke-width:0.529167;stroke-linecap:round;stroke-miterlimit:4;stroke-dasharray:none;stroke-opacity:0.996078;stop-color:#000000"
       id="rect10653"
       width="7.9375005"
       height="59.266666"
       x="13.758333"
       y="4.2333331"
       rx="1.0583332"
       ry="1.0583334" />
    <path
       style="fill:#666666;fill-opacity:1;stroke:#333333;stroke-width:0.529167;stroke-linecap:round;stroke-miterlimit:4;stroke-dasharray:none;stroke-opacity:0.996078;stop-color:#000000"
       d="m 1.0583332,2.1166665 3.175,10e-8 4.233333,4.233333 0,55.0333324 -4.233333,4.233333 -3.175,-10e-7 z"
       id="path10941"
       sodipodi:nodetypes="ccccccc" />
    <g
       id="g11596">
      <path
         style="fill:#999999;fill-opacity:1;stroke:#333333;stroke-width:0.529167;stroke-linecap:round;stroke-miterlimit:4;stroke-dasharray:none;stroke-opacity:0.996078;stop-color:#000000"
         d="M 10.583333,10.583333 V 21.166666"
         id="path11489" />
      <path
         style="fill:#999999;fill-opacity:1;stroke:#333333;stroke-width:0.529167;stroke-linecap:round;stroke-miterlimit:4;stroke-dasharray:none;stroke-opacity:0.996078;stop-color:#000000"
         d="M 11.641666,10.583333 V 21.166666"
         id="path11491" />
      <path
         style="fill:#999999;fill-opacity:1;stroke:#333333;stroke-width:0.529167;stroke-linecap:round;stroke-miterlimit:4;stroke-dasharray:none;stroke-opacity:0.996078;stop-color:#000000"
         d="M 12.7,10.583333 V 21.166666"
         id="path11493" />
      <path
         style="fill:#999999;fill-opacity:1;stroke:#333333;stroke-width:0.529167;stroke-linecap:round;stroke-miterlimit:4;stroke-dasharray:none;stroke-opacity:0.996078;stop-color:#000000"
         d="M 9.5249996,10.583333 V 21.166666"
         id="path11495" />
    </g>
    <g
       id="g11596-0"
       transform="translate(0,17.991666)">
      <path
         style="fill:#999999;fill-opacity:1;stroke:#333333;stroke-width:0.529167;stroke-linecap:round;stroke-miterlimit:4;stroke-dasharray:none;stroke-opacity:0.996078;stop-color:#000000"
         d="M 10.583333,10.583333 V 21.166666"
         id="path11489-9" />
      <path
         style="fill:#999999;fill-opacity:1;stroke:#333333;stroke-width:0.529167;stroke-linecap:round;stroke-miterlimit:4;stroke-dasharray:none;stroke-opacity:0.996078;stop-color:#000000"
         d="M 11.641666,10.583333 V 21.166666"
         id="path11491-6" />
      <path
         style="fill:#999999;fill-opacity:1;stroke:#333333;stroke-width:0.529167;stroke-linecap:round;stroke-miterlimit:4;stroke-dasharray:none;stroke-opacity:0.996078;stop-color:#000000"
         d="M 12.7,10.583333 V 21.166666"
         id="path11493-3" />
      <path
         style="fill:#999999;fill-opacity:1;stroke:#333333;stroke-width:0.529167;stroke-linecap:round;stroke-miterlimit:4;stroke-dasharray:none;stroke-opacity:0.996078;stop-color:#000000"
         d="M 9.5249996,10.583333 V 21.166666"
         id="path11495-8" />
    </g>
    <g
       id="g11596-9"
       transform="translate(3.0000012e-7,37.041665)">
      <path
         style="fill:#999999;fill-opacity:1;stroke:#333333;stroke-width:0.529167;stroke-linecap:round;stroke-miterlimit:4;stroke-dasharray:none;stroke-opacity:0.996078;stop-color:#000000"
         d="M 10.583333,10.583333 V 21.166666"
         id="path11489-0" />
      <path
         style="fill:#999999;fill-opacity:1;stroke:#333333;stroke-width:0.529167;stroke-linecap:round;stroke-miterlimit:4;stroke-dasharray:none;stroke-opacity:0.996078;stop-color:#000000"
         d="M 11.641666,10.583333 V 21.166666"
         id="path11491-8" />
      <path
         style="fill:#999999;fill-opacity:1;stroke:#333333;stroke-width:0.529167;stroke-linecap:round;stroke-miterlimit:4;stroke-dasharray:none;stroke-opacity:0.996078;stop-color:#000000"
         d="M 12.7,10.583333 V 21.166666"
         id="path11493-8" />
      <path
         style="fill:#999999;fill-opacity:1;stroke:#333333;stroke-width:0.529167;stroke-linecap:round;stroke-miterlimit:4;stroke-dasharray:none;stroke-opacity:0.996078;stop-color:#000000"
         d="M 9.5249996,10.583333 V 21.166666"
         id="path11495-5" />
    </g>
    <g
       id="g12283"
       transform="translate(-4.6327353e-8,-1.5875002)">
      <circle
         style="fill:#999999;fill-opacity:1;stroke:#333333;stroke-width:0.582084;stroke-linecap:round;stroke-miterlimit:4;stroke-dasharray:none;stroke-opacity:0.996078;stop-color:#000000"
         id="path11846"
         cx="17.727083"
         cy="10.847917"
         r="2.9104166" />
      <circle
         style="fill:#4d4d4d;fill-opacity:1;stroke:#333333;stroke-width:0.529167;stroke-linecap:round;stroke-miterlimit:4;stroke-dasharray:none;stroke-opacity:0.996078;stop-color:#000000"
         id="path11950"
         cx="17.727083"
         cy="10.847917"
         r="1.5875" />
    </g>
    <g
       id="g12283-0"
       transform="translate(-4.6327353e-8,8.2549988)">
      <circle
         style="fill:#999999;fill-opacity:1;stroke:#333333;stroke-width:0.582084;stroke-linecap:round;stroke-miterlimit:4;stroke-dasharray:none;stroke-opacity:0.996078;stop-color:#000000"
         id="path11846-4"
         cx="17.727083"
         cy="10.847917"
         r="2.9104166" />
      <circle
         style="fill:#4d4d4d;fill-opacity:1;stroke:#333333;stroke-width:0.529167;stroke-linecap:round;stroke-miterlimit:4;stroke-dasharray:none;stroke-opacity:0.996078;stop-color:#000000"
         id="path11950-4"
         cx="17.727083"
         cy="10.847917"
         r="1.5875" />
    </g>
    <g
       id="g12283-4"
       transform="translate(-4.6327353e-8,18.097499)">
      <circle
         style="fill:#999999;fill-opacity:1;stroke:#333333;stroke-width:0.582084;stroke-linecap:round;stroke-miterlimit:4;stroke-dasharray:none;stroke-opacity:0.996078;stop-color:#000000"
         id="path11846-47"
         cx="17.727083"
         cy="10.847917"
         r="2.9104166" />
      <circle
         style="fill:#4d4d4d;fill-opacity:1;stroke:#333333;stroke-width:0.529167;stroke-linecap:round;stroke-miterlimit:4;stroke-dasharray:none;stroke-opacity:0.996078;stop-color:#000000"
         id="path11950-6"
         cx="17.727083"
         cy="10.847917"
         r="1.5875" />
    </g>
    <g
       id="g12283-3"
       transform="translate(-4.6327353e-8,27.940001)">
      <circle
         style="fill:#999999;fill-opacity:1;stroke:#333333;stroke-width:0.582084;stroke-linecap:round;stroke-miterlimit:4;stroke-dasharray:none;stroke-opacity:0.996078;stop-color:#000000"
         id="path11846-1"
         cx="17.727083"
         cy="10.847917"
         r="2.9104166" />
      <circle
         style="fill:#4d4d4d;fill-opacity:1;stroke:#333333;stroke-width:0.529167;stroke-linecap:round;stroke-miterlimit:4;stroke-dasharray:none;stroke-opacity:0.996078;stop-color:#000000"
         id="path11950-7"
         cx="17.727083"
         cy="10.847917"
         r="1.5875" />
    </g>
    <g
       id="g12283-5"
       transform="translate(-4.6327351e-8,37.782499)">
      <circle
         style="fill:#999999;fill-opacity:1;stroke:#333333;stroke-width:0.582084;stroke-linecap:round;stroke-miterlimit:4;stroke-dasharray:none;stroke-opacity:0.996078;stop-color:#000000"
         id="path11846-9"
         cx="17.727083"
         cy="10.847917"
         r="2.9104166" />
      <circle
         style="fill:#4d4d4d;fill-opacity:1;stroke:#333333;stroke-width:0.529167;stroke-linecap:round;stroke-miterlimit:4;stroke-dasharray:none;stroke-opacity:0.996078;stop-color:#000000"
         id="path11950-62"
         cx="17.727083"
         cy="10.847917"
         r="1.5875" />
    </g>
    <g
       id="g12283-1"
       transform="translate(-4.6327353e-8,47.624998)">
      <circle
         style="fill:#999999;fill-opacity:1;stroke:#333333;stroke-width:0.582084;stroke-linecap:round;stroke-miterlimit:4;stroke-dasharray:none;stroke-opacity:0.996078;stop-color:#000000"
         id="path11846-7"
         cx="17.727083"
         cy="10.847917"
         r="2.9104166" />
      <circle
         style="fill:#4d4d4d;fill-opacity:1;stroke:#333333;stroke-width:0.529167;stroke-linecap:round;stroke-miterlimit:4;stroke-dasharray:none;stroke-opacity:0.996078;stop-color:#000000"
         id="path11950-8"
         cx="17.727083"
         cy="10.847917"
         r="1.5875" />
    </g>
  </g>
  <g
     inkscape:groupmode="layer"
     id="layer2"
     inkscape:label="Display" />
</svg>
