<?xml version="1.0" encoding="UTF-8" standalone="no"?>
<svg
   width="512"
   height="1024"
   viewBox="0 0 135.46666 270.93334"
   version="1.1"
   id="svg8"
   inkscape:version="1.1.2 (0a00cf5339, 2022-02-04)"
   sodipodi:docname="j-drive_8.svg"
   xmlns:inkscape="http://www.inkscape.org/namespaces/inkscape"
   xmlns:sodipodi="http://sodipodi.sourceforge.net/DTD/sodipodi-0.dtd"
   xmlns:xlink="http://www.w3.org/1999/xlink"
   xmlns="http://www.w3.org/2000/svg"
   xmlns:svg="http://www.w3.org/2000/svg"
   xmlns:rdf="http://www.w3.org/1999/02/22-rdf-syntax-ns#"
   xmlns:cc="http://creativecommons.org/ns#"
   xmlns:dc="http://purl.org/dc/elements/1.1/">
  <defs
     id="defs2">
    <linearGradient
       inkscape:collect="always"
       id="linearGradient914">
      <stop
         style="stop-color:#ffffff;stop-opacity:1"
         offset="0"
         id="stop910" />
      <stop
         style="stop-color:#000000;stop-opacity:0"
         offset="1"
         id="stop912" />
    </linearGradient>
    <radialGradient
       inkscape:collect="always"
       xlink:href="#linearGradient914"
       id="radialGradient916"
       cx="67.733383"
       cy="67.733299"
       fx="67.733383"
       fy="67.733299"
       r="42.30909"
       gradientTransform="matrix(1.9010889,2.8185451e-8,-1.5787933e-7,1.9010887,-61.033846,-61.033678)"
       gradientUnits="userSpaceOnUse" />
    <filter
       inkscape:collect="always"
       style="color-interpolation-filters:sRGB"
       id="filter2367"
       x="-0.20963778"
       width="1.4192756"
       y="-0.20968525"
       height="1.4193705">
      <feGaussianBlur
         inkscape:collect="always"
         stdDeviation="1.9439857"
         id="feGaussianBlur2369" />
    </filter>
    <filter
       inkscape:collect="always"
       style="color-interpolation-filters:sRGB"
       id="filter2367-6"
       x="-0.20963778"
       width="1.4192756"
       y="-0.20968525"
       height="1.4193705">
      <feGaussianBlur
         inkscape:collect="always"
         stdDeviation="1.9439857"
         id="feGaussianBlur2369-2" />
    </filter>
    <filter
       inkscape:collect="always"
       style="color-interpolation-filters:sRGB"
       id="filter2367-3"
       x="-0.20963778"
       width="1.4192756"
       y="-0.20968525"
       height="1.4193705">
      <feGaussianBlur
         inkscape:collect="always"
         stdDeviation="1.9439857"
         id="feGaussianBlur2369-4" />
    </filter>
  </defs>
  <sodipodi:namedview
     id="base"
     pagecolor="#ffffff"
     bordercolor="#666666"
     borderopacity="1.0"
     inkscape:pageopacity="0"
     inkscape:pageshadow="2"
     inkscape:zoom="0.7"
     inkscape:cx="-272.14286"
     inkscape:cy="355.71429"
     inkscape:document-units="px"
     inkscape:current-layer="layer1"
     inkscape:document-rotation="0"
     showgrid="true"
     units="px"
     inkscape:window-width="2560"
     inkscape:window-height="1349"
     inkscape:window-x="1200"
     inkscape:window-y="240"
     inkscape:window-maximized="1"
     inkscape:snap-grids="true"
     inkscape:pagecheckerboard="0">
    <inkscape:grid
       type="xygrid"
       id="grid833"
       units="px"
       empspacing="4"
       spacingy="4.2333333"
       spacingx="4.2333333" />
  </sodipodi:namedview>
  <metadata
     id="metadata5">
    <rdf:RDF>
      <cc:Work
         rdf:about="">
        <dc:format>image/svg+xml</dc:format>
        <dc:type
           rdf:resource="http://purl.org/dc/dcmitype/StillImage" />
      </cc:Work>
    </rdf:RDF>
  </metadata>
  <g
     inkscape:label="Desk"
     inkscape:groupmode="layer"
     id="layer1">
    <rect
       style="fill:#53676c;stroke:#004455;stroke-width:2.11667;stroke-linecap:round;stroke-linejoin:round;stroke-miterlimit:4;stroke-dasharray:none;stroke-opacity:0.999607;stop-color:#000000"
       id="rect873"
       width="118.53333"
       height="253.99998"
       x="8.4666662"
       y="8.4666662"
       rx="4.2333331"
       ry="4.2333331" />
    <circle
       style="opacity:1;fill:#333333;fill-opacity:1;stroke:#808080;stroke-width:1.05833;stroke-linecap:round;stroke-miterlimit:4;stroke-dasharray:none;stop-color:#000000"
       id="path1723"
       sodipodi:type="arc"
       sodipodi:cx="67.710266"
       sodipodi:cy="67.752563"
       sodipodi:rx="21.189743"
       sodipodi:ry="21.189743"
       sodipodi:start="0"
       sodipodi:end="6.2822777"
       sodipodi:open="true"
       sodipodi:arc-type="arc"
       d="M 88.900009,67.752563 A 21.189743,21.189743 0 0 1 67.715074,88.942306 21.189743,21.189743 0 0 1 46.520525,67.762179 21.189743,21.189743 0 0 1 67.695842,46.562825 21.189743,21.189743 0 0 1 88.9,67.733332" />
    <g
       id="g1068"
       transform="translate(4.2333347,4.2333336)">
      <circle
         style="opacity:1;fill:#333333;fill-opacity:1;stroke:#ff0000;stroke-width:12.7;stroke-linecap:round;stroke-miterlimit:4;stroke-dasharray:none;stop-color:#000000"
         id="path1789"
         sodipodi:type="arc"
         sodipodi:cx="63.511536"
         sodipodi:cy="63.511536"
         sodipodi:rx="12.711539"
         sodipodi:ry="12.711539"
         sodipodi:start="0"
         sodipodi:end="6.2822777"
         sodipodi:open="true"
         sodipodi:arc-type="arc"
         d="M 76.223075,63.511536 A 12.711539,12.711539 0 0 1 63.51442,76.223075 12.711539,12.711539 0 0 1 50.799998,63.517304 12.711539,12.711539 0 0 1 63.502883,50.799999 a 12.711539,12.711539 0 0 1 12.720187,12.7" />
      <circle
         style="opacity:1;fill:none;fill-opacity:1;stroke:#ffd42a;stroke-width:4.86833;stroke-linecap:round;stroke-miterlimit:4;stroke-dasharray:none;filter:url(#filter2367);stop-color:#000000"
         id="path1791"
         sodipodi:type="arc"
         sodipodi:cx="67.733345"
         sodipodi:cy="67.748695"
         sodipodi:rx="16.933329"
         sodipodi:ry="16.929495"
         sodipodi:start="0"
         sodipodi:end="6.2822777"
         sodipodi:open="true"
         sodipodi:arc-type="arc"
         d="M 84.666674,67.748695 A 16.933329,16.929495 0 0 1 67.737187,84.67819 16.933329,16.929495 0 0 1 50.800018,67.756378 16.933329,16.929495 0 0 1 67.721818,50.819204 16.933329,16.929495 0 0 1 84.666667,67.73333"
         transform="matrix(0.74999986,0,0,0.74999986,12.700011,12.704807)" />
      <circle
         style="opacity:1;fill:#000000;fill-opacity:1;stroke:none;stroke-width:0.264583;stroke-linecap:round;stroke-miterlimit:4;stroke-dasharray:none;stop-color:#000000"
         id="path2371"
         sodipodi:type="arc"
         sodipodi:cx="63.5"
         sodipodi:cy="63.503841"
         sodipodi:rx="4.2333331"
         sodipodi:ry="4.2333331"
         sodipodi:start="0"
         sodipodi:end="6.2822777"
         sodipodi:open="true"
         sodipodi:arc-type="arc"
         d="m 67.733333,63.503841 a 4.2333331,4.2333331 0 0 1 -4.232372,4.233333 4.2333331,4.2333331 0 0 1 -4.234294,-4.231411 4.2333331,4.2333331 0 0 1 4.230451,-4.235254 4.2333331,4.2333331 0 0 1 4.236213,4.22949" />
    </g>
    <g
       id="g931">
      <path
         style="fill:#006680;stroke:#004455;stroke-width:0.264583px;stroke-linecap:butt;stroke-linejoin:miter;stroke-opacity:1"
         d="M 25.4,21.166666 V 16.933333 H 46.566666 L 50.8,21.166666 v 21.166667 h -4.233334 z"
         id="path875"
         sodipodi:nodetypes="ccccccc" />
      <path
         style="fill:#006680;stroke:#004455;stroke-width:0.264583px;stroke-linecap:butt;stroke-linejoin:miter;stroke-opacity:1"
         d="M 42.333333,50.8 H 21.166666 L 16.933333,46.566666 V 25.4 h 4.233334 l 21.166666,21.166666 z"
         id="path875-6"
         sodipodi:nodetypes="ccccccc" />
      <path
         style="fill:#006680;stroke:#004455;stroke-width:0.264583px;stroke-linecap:butt;stroke-linejoin:miter;stroke-opacity:1"
         d="m 16.933333,16.933333 h 4.233333 v 4.233333 h -4.233333 v -4.233333"
         id="path917" />
      <path
         style="fill:#006680;stroke:#004455;stroke-width:0.264583px;stroke-linecap:butt;stroke-linejoin:miter;stroke-opacity:1"
         d="m 46.566666,46.566666 h 4.233333 v 4.233333 h -4.233333 v -4.233333"
         id="path919" />
      <path
         style="fill:#6f918a;stroke:#000000;stroke-width:0.264583px;stroke-linecap:butt;stroke-linejoin:miter;stroke-opacity:1"
         d="M 33.866666,21.166666 V 25.4 l 8.466667,8.466666 h 4.233333 V 25.4 l -4.233333,-4.233334 h -8.466667"
         id="path921" />
      <path
         style="fill:#6f918a;stroke:#000000;stroke-width:0.264583px;stroke-linecap:butt;stroke-linejoin:miter;stroke-opacity:1"
         d="m 25.4,33.866666 h -4.233334 v 8.466667 L 25.4,46.566666 h 8.466666 v -4.233333 z"
         id="path923" />
    </g>
    <g
       id="g931-7"
       transform="rotate(90,67.733333,67.733333)">
      <path
         style="fill:#006680;stroke:#004455;stroke-width:0.264583px;stroke-linecap:butt;stroke-linejoin:miter;stroke-opacity:1"
         d="M 25.4,21.166666 V 16.933333 H 46.566666 L 50.8,21.166666 v 21.166667 h -4.233334 z"
         id="path875-5"
         sodipodi:nodetypes="ccccccc" />
      <path
         style="fill:#006680;stroke:#004455;stroke-width:0.264583px;stroke-linecap:butt;stroke-linejoin:miter;stroke-opacity:1"
         d="M 42.333333,50.8 H 21.166666 L 16.933333,46.566666 V 25.4 h 4.233334 l 21.166666,21.166666 z"
         id="path875-6-3"
         sodipodi:nodetypes="ccccccc" />
      <path
         style="fill:#006680;stroke:#004455;stroke-width:0.264583px;stroke-linecap:butt;stroke-linejoin:miter;stroke-opacity:1"
         d="m 16.933333,16.933333 h 4.233333 v 4.233333 h -4.233333 v -4.233333"
         id="path917-5" />
      <path
         style="fill:#006680;stroke:#004455;stroke-width:0.264583px;stroke-linecap:butt;stroke-linejoin:miter;stroke-opacity:1"
         d="m 46.566666,46.566666 h 4.233333 v 4.233333 h -4.233333 v -4.233333"
         id="path919-6" />
      <path
         style="fill:#6f918a;stroke:#000000;stroke-width:0.264583px;stroke-linecap:butt;stroke-linejoin:miter;stroke-opacity:1"
         d="M 33.866666,21.166666 V 25.4 l 8.466667,8.466666 h 4.233333 V 25.4 l -4.233333,-4.233334 h -8.466667"
         id="path921-2" />
      <path
         style="fill:#6f918a;stroke:#000000;stroke-width:0.264583px;stroke-linecap:butt;stroke-linejoin:miter;stroke-opacity:1"
         d="m 25.4,33.866666 h -4.233334 v 8.466667 L 25.4,46.566666 h 8.466666 v -4.233333 z"
         id="path923-9" />
    </g>
    <g
       id="g931-7-1"
       transform="translate(67.733333,203.2)">
      <path
         style="fill:#006680;stroke:#004455;stroke-width:0.264583px;stroke-linecap:butt;stroke-linejoin:miter;stroke-opacity:1"
         d="M 25.4,21.166666 V 16.933333 H 46.566666 L 50.8,21.166666 v 21.166667 h -4.233334 z"
         id="path875-5-2"
         sodipodi:nodetypes="ccccccc" />
      <path
         style="fill:#006680;stroke:#004455;stroke-width:0.264583px;stroke-linecap:butt;stroke-linejoin:miter;stroke-opacity:1"
         d="M 42.333333,50.8 H 21.166666 L 16.933333,46.566666 V 25.4 h 4.233334 l 21.166666,21.166666 z"
         id="path875-6-3-7"
         sodipodi:nodetypes="ccccccc" />
      <path
         style="fill:#006680;stroke:#004455;stroke-width:0.264583px;stroke-linecap:butt;stroke-linejoin:miter;stroke-opacity:1"
         d="m 16.933333,16.933333 h 4.233333 v 4.233333 h -4.233333 v -4.233333"
         id="path917-5-0" />
      <path
         style="fill:#006680;stroke:#004455;stroke-width:0.264583px;stroke-linecap:butt;stroke-linejoin:miter;stroke-opacity:1"
         d="m 46.566666,46.566666 h 4.233333 v 4.233333 h -4.233333 v -4.233333"
         id="path919-6-9" />
      <path
         style="fill:#6f918a;stroke:#000000;stroke-width:0.264583px;stroke-linecap:butt;stroke-linejoin:miter;stroke-opacity:1"
         d="M 33.866666,21.166666 V 25.4 l 8.466667,8.466666 h 4.233333 V 25.4 l -4.233333,-4.233334 h -8.466667"
         id="path921-2-3" />
      <path
         style="fill:#6f918a;stroke:#000000;stroke-width:0.264583px;stroke-linecap:butt;stroke-linejoin:miter;stroke-opacity:1"
         d="m 25.4,33.866666 h -4.233334 v 8.466667 L 25.4,46.566666 h 8.466666 v -4.233333 z"
         id="path923-9-6" />
    </g>
    <g
       id="g931-0"
       transform="rotate(90,-67.733332,135.46667)">
      <path
         style="fill:#006680;stroke:#004455;stroke-width:0.264583px;stroke-linecap:butt;stroke-linejoin:miter;stroke-opacity:1"
         d="M 25.4,21.166666 V 16.933333 H 46.566666 L 50.8,21.166666 v 21.166667 h -4.233334 z"
         id="path875-62"
         sodipodi:nodetypes="ccccccc" />
      <path
         style="fill:#006680;stroke:#004455;stroke-width:0.264583px;stroke-linecap:butt;stroke-linejoin:miter;stroke-opacity:1"
         d="M 42.333333,50.8 H 21.166666 L 16.933333,46.566666 V 25.4 h 4.233334 l 21.166666,21.166666 z"
         id="path875-6-6"
         sodipodi:nodetypes="ccccccc" />
      <path
         style="fill:#006680;stroke:#004455;stroke-width:0.264583px;stroke-linecap:butt;stroke-linejoin:miter;stroke-opacity:1"
         d="m 16.933333,16.933333 h 4.233333 v 4.233333 h -4.233333 v -4.233333"
         id="path917-1" />
      <path
         style="fill:#006680;stroke:#004455;stroke-width:0.264583px;stroke-linecap:butt;stroke-linejoin:miter;stroke-opacity:1"
         d="m 46.566666,46.566666 h 4.233333 v 4.233333 h -4.233333 v -4.233333"
         id="path919-8" />
      <path
         style="fill:#6f918a;stroke:#000000;stroke-width:0.264583px;stroke-linecap:butt;stroke-linejoin:miter;stroke-opacity:1"
         d="M 33.866666,21.166666 V 25.4 l 8.466667,8.466666 h 4.233333 V 25.4 l -4.233333,-4.233334 h -8.466667"
         id="path921-7" />
      <path
         style="fill:#6f918a;stroke:#000000;stroke-width:0.264583px;stroke-linecap:butt;stroke-linejoin:miter;stroke-opacity:1"
         d="m 25.4,33.866666 h -4.233334 v 8.466667 L 25.4,46.566666 h 8.466666 v -4.233333 z"
         id="path923-92" />
    </g>
    <rect
       style="fill:#6f918a;stroke:#004455;stroke-width:2.11667;stroke-linecap:round;stroke-linejoin:round;stroke-miterlimit:4;stroke-dasharray:none;stroke-opacity:0.999607;stop-color:#000000"
       id="rect1070"
       width="38.099998"
       height="25.4"
       x="4.2333331"
       y="55.033333"
       rx="4.2333331"
       ry="4.2333331" />
    <rect
       style="fill:#6f918a;stroke:#004455;stroke-width:2.11667;stroke-linecap:round;stroke-linejoin:round;stroke-miterlimit:4;stroke-dasharray:none;stroke-opacity:0.999607;stop-color:#000000"
       id="rect1072"
       width="25.4"
       height="38.099998"
       x="55.033333"
       y="4.2333331"
       rx="4.2333331"
       ry="4.2333331" />
    <rect
       style="fill:#6f918a;stroke:#004455;stroke-width:2.11667;stroke-linecap:round;stroke-linejoin:round;stroke-miterlimit:4;stroke-dasharray:none;stroke-opacity:0.999607;stop-color:#000000"
       id="rect1074"
       width="38.099998"
       height="25.4"
       x="93.133331"
       y="55.033333"
       rx="4.2333331"
       ry="4.2333331" />
    <rect
       style="fill:#6f918a;stroke:#004455;stroke-width:2.11667;stroke-linecap:round;stroke-linejoin:round;stroke-miterlimit:4;stroke-dasharray:none;stroke-opacity:0.999607;stop-color:#000000"
       id="rect1076"
       width="25.4"
       height="38.099998"
       x="55.033333"
       y="228.59999"
       rx="4.2333331"
       ry="4.2333331" />
    <path
       style="fill:none;stroke:#ff0000;stroke-width:2.11667;stroke-linecap:round;stroke-linejoin:miter;stroke-miterlimit:4;stroke-dasharray:none;stroke-opacity:1"
       d="M 25.4,25.4 42.333333,42.333333"
       id="path1088" />
    <path
       style="fill:none;stroke:#ff0000;stroke-width:2.11667;stroke-linecap:round;stroke-linejoin:miter;stroke-miterlimit:4;stroke-dasharray:none;stroke-opacity:1"
       d="M 93.133332,42.333333 110.06667,25.4"
       id="path1090" />
    <path
       style="fill:none;stroke:#ff0000;stroke-width:2.11667;stroke-linecap:round;stroke-linejoin:miter;stroke-miterlimit:4;stroke-dasharray:none;stroke-opacity:1"
       d="m 93.133332,228.6 16.933338,16.93333"
       id="path1092" />
    <path
       style="fill:none;stroke:#ff0000;stroke-width:2.11667;stroke-linecap:round;stroke-linejoin:miter;stroke-miterlimit:4;stroke-dasharray:none;stroke-opacity:1"
       d="M 42.333333,228.6 25.4,245.53333"
       id="path1094" />
    <path
       style="fill:none;stroke:#ffd42a;stroke-width:1.05833;stroke-linecap:round;stroke-linejoin:miter;stroke-miterlimit:4;stroke-dasharray:none;stroke-opacity:1"
       d="M 25.4,25.4 42.333333,42.333333"
       id="path1096" />
    <path
       style="fill:none;stroke:#ffd42a;stroke-width:1.05833;stroke-linecap:round;stroke-linejoin:miter;stroke-miterlimit:4;stroke-dasharray:none;stroke-opacity:1"
       d="M 93.133332,42.333333 110.06667,25.4"
       id="path1098" />
    <path
       style="fill:none;stroke:#ffd42a;stroke-width:1.05833;stroke-linecap:round;stroke-linejoin:miter;stroke-miterlimit:4;stroke-dasharray:none;stroke-opacity:1"
       d="m 93.133332,228.6 16.933338,16.93333"
       id="path1100" />
    <path
       style="fill:none;stroke:#ffd42a;stroke-width:1.05833;stroke-linecap:round;stroke-linejoin:miter;stroke-miterlimit:4;stroke-dasharray:none;stroke-opacity:1"
       d="M 42.333333,228.6 25.4,245.53333"
       id="path1102" />
    <text
       xml:space="preserve"
       style="font-size:8.46667px;line-height:0.85;font-family:'Permanent Marker';-inkscape-font-specification:'Permanent Marker';stroke-width:0.264583"
       x="64.83773"
       y="237.96358"
       id="text1106"><tspan
         sodipodi:role="line"
         id="tspan1104"
         x="64.83773"
         y="237.96358"
         style="font-style:normal;font-variant:normal;font-weight:normal;font-stretch:normal;font-family:'Vilani Headline';-inkscape-font-specification:'Vilani Headline';stroke-width:0.264583">J</tspan><tspan
         sodipodi:role="line"
         x="64.83773"
         y="246.21176"
         style="font-style:normal;font-variant:normal;font-weight:normal;font-stretch:normal;font-family:'Vilani Headline';-inkscape-font-specification:'Vilani Headline';stroke-width:0.264583"
         id="tspan1108">U</tspan><tspan
         sodipodi:role="line"
         x="64.83773"
         y="254.45993"
         style="font-style:normal;font-variant:normal;font-weight:normal;font-stretch:normal;font-family:'Vilani Headline';-inkscape-font-specification:'Vilani Headline';stroke-width:0.264583"
         id="tspan1110">M</tspan><tspan
         sodipodi:role="line"
         x="64.83773"
         y="262.7081"
         style="font-style:normal;font-variant:normal;font-weight:normal;font-stretch:normal;font-family:'Vilani Headline';-inkscape-font-specification:'Vilani Headline';stroke-width:0.264583"
         id="tspan1112">P</tspan></text>
    <text
       xml:space="preserve"
       style="font-size:8.46667px;line-height:0.85;font-family:'Permanent Marker';-inkscape-font-specification:'Permanent Marker';stroke-width:0.264583"
       x="-70.628937"
       y="-33.242123"
       id="text1106-1"
       transform="scale(-1)"><tspan
         sodipodi:role="line"
         id="tspan1104-1"
         x="-70.628937"
         y="-33.242123"
         style="font-style:normal;font-variant:normal;font-weight:normal;font-stretch:normal;font-family:'Vilani Headline';-inkscape-font-specification:'Vilani Headline';stroke-width:0.264583">J</tspan><tspan
         sodipodi:role="line"
         x="-70.628937"
         y="-24.993946"
         style="font-style:normal;font-variant:normal;font-weight:normal;font-stretch:normal;font-family:'Vilani Headline';-inkscape-font-specification:'Vilani Headline';stroke-width:0.264583"
         id="tspan1108-7">U</tspan><tspan
         sodipodi:role="line"
         x="-70.628937"
         y="-16.745771"
         style="font-style:normal;font-variant:normal;font-weight:normal;font-stretch:normal;font-family:'Vilani Headline';-inkscape-font-specification:'Vilani Headline';stroke-width:0.264583"
         id="tspan1110-0">M</tspan><tspan
         sodipodi:role="line"
         x="-70.628937"
         y="-8.4975948"
         style="font-style:normal;font-variant:normal;font-weight:normal;font-stretch:normal;font-family:'Vilani Headline';-inkscape-font-specification:'Vilani Headline';stroke-width:0.264583"
         id="tspan1112-4">P</tspan></text>
    <text
       xml:space="preserve"
       style="font-size:8.46667px;line-height:0.85;font-family:'Permanent Marker';-inkscape-font-specification:'Permanent Marker';stroke-width:0.264583"
       x="-70.628937"
       y="102.77024"
       id="text1106-6"
       transform="rotate(-90)"><tspan
         sodipodi:role="line"
         id="tspan1104-2"
         x="-70.628937"
         y="102.77024"
         style="font-style:normal;font-variant:normal;font-weight:normal;font-stretch:normal;font-family:'Vilani Headline';-inkscape-font-specification:'Vilani Headline';stroke-width:0.264583">J</tspan><tspan
         sodipodi:role="line"
         x="-70.628937"
         y="111.01842"
         style="font-style:normal;font-variant:normal;font-weight:normal;font-stretch:normal;font-family:'Vilani Headline';-inkscape-font-specification:'Vilani Headline';stroke-width:0.264583"
         id="tspan1108-1">U</tspan><tspan
         sodipodi:role="line"
         x="-70.628937"
         y="119.26659"
         style="font-style:normal;font-variant:normal;font-weight:normal;font-stretch:normal;font-family:'Vilani Headline';-inkscape-font-specification:'Vilani Headline';stroke-width:0.264583"
         id="tspan1110-9">M</tspan><tspan
         sodipodi:role="line"
         x="-70.628937"
         y="127.51477"
         style="font-style:normal;font-variant:normal;font-weight:normal;font-stretch:normal;font-family:'Vilani Headline';-inkscape-font-specification:'Vilani Headline';stroke-width:0.264583"
         id="tspan1112-6">P</tspan></text>
    <text
       xml:space="preserve"
       style="font-size:8.46667px;line-height:0.85;font-family:'Permanent Marker';-inkscape-font-specification:'Permanent Marker';stroke-width:0.264583"
       x="64.83773"
       y="-31.581745"
       id="text1106-4"
       transform="rotate(90)"><tspan
         sodipodi:role="line"
         id="tspan1104-8"
         x="64.83773"
         y="-31.581745"
         style="font-style:normal;font-variant:normal;font-weight:normal;font-stretch:normal;font-family:'Vilani Headline';-inkscape-font-specification:'Vilani Headline';stroke-width:0.264583">J</tspan><tspan
         sodipodi:role="line"
         x="64.83773"
         y="-23.333569"
         style="font-style:normal;font-variant:normal;font-weight:normal;font-stretch:normal;font-family:'Vilani Headline';-inkscape-font-specification:'Vilani Headline';stroke-width:0.264583"
         id="tspan1108-0">U</tspan><tspan
         sodipodi:role="line"
         x="64.83773"
         y="-15.085393"
         style="font-style:normal;font-variant:normal;font-weight:normal;font-stretch:normal;font-family:'Vilani Headline';-inkscape-font-specification:'Vilani Headline';stroke-width:0.264583"
         id="tspan1110-8">M</tspan><tspan
         sodipodi:role="line"
         x="64.83773"
         y="-6.8372173"
         style="font-style:normal;font-variant:normal;font-weight:normal;font-stretch:normal;font-family:'Vilani Headline';-inkscape-font-specification:'Vilani Headline';stroke-width:0.264583"
         id="tspan1112-1">P</tspan></text>
    <circle
       style="opacity:1;fill:#333333;fill-opacity:1;stroke:#808080;stroke-width:1.05833;stroke-linecap:round;stroke-miterlimit:4;stroke-dasharray:none;stop-color:#000000"
       id="path1723-8"
       sodipodi:type="arc"
       sodipodi:cx="67.710266"
       sodipodi:cy="135.4859"
       sodipodi:rx="21.189743"
       sodipodi:ry="21.189743"
       sodipodi:start="0"
       sodipodi:end="6.2822777"
       sodipodi:open="true"
       sodipodi:arc-type="arc"
       d="M 88.900009,135.4859 A 21.189743,21.189743 0 0 1 67.715074,156.67564 21.189743,21.189743 0 0 1 46.520525,135.49552 21.189743,21.189743 0 0 1 67.695842,114.29616 21.189743,21.189743 0 0 1 88.9,135.46667" />
    <g
       id="g1068-4"
       transform="translate(4.2333347,71.966666)">
      <circle
         style="opacity:1;fill:#333333;fill-opacity:1;stroke:#ff0000;stroke-width:12.7;stroke-linecap:round;stroke-miterlimit:4;stroke-dasharray:none;stop-color:#000000"
         id="path1789-7"
         sodipodi:type="arc"
         sodipodi:cx="63.511536"
         sodipodi:cy="63.511536"
         sodipodi:rx="12.711539"
         sodipodi:ry="12.711539"
         sodipodi:start="0"
         sodipodi:end="6.2822777"
         sodipodi:open="true"
         sodipodi:arc-type="arc"
         d="M 76.223075,63.511536 A 12.711539,12.711539 0 0 1 63.51442,76.223075 12.711539,12.711539 0 0 1 50.799998,63.517304 12.711539,12.711539 0 0 1 63.502883,50.799999 a 12.711539,12.711539 0 0 1 12.720187,12.7" />
      <circle
         style="opacity:1;fill:none;fill-opacity:1;stroke:#ffd42a;stroke-width:4.86833;stroke-linecap:round;stroke-miterlimit:4;stroke-dasharray:none;filter:url(#filter2367-6);stop-color:#000000"
         id="path1791-2"
         sodipodi:type="arc"
         sodipodi:cx="67.733345"
         sodipodi:cy="67.748695"
         sodipodi:rx="16.933329"
         sodipodi:ry="16.929495"
         sodipodi:start="0"
         sodipodi:end="6.2822777"
         sodipodi:open="true"
         sodipodi:arc-type="arc"
         transform="matrix(0.74999986,0,0,0.74999986,12.700011,12.704807)"
         d="M 84.666674,67.748695 A 16.933329,16.929495 0 0 1 67.737187,84.67819 16.933329,16.929495 0 0 1 50.800018,67.756378 16.933329,16.929495 0 0 1 67.721818,50.819204 16.933329,16.929495 0 0 1 84.666667,67.73333" />
      <circle
         style="opacity:1;fill:#000000;fill-opacity:1;stroke:none;stroke-width:0.264583;stroke-linecap:round;stroke-miterlimit:4;stroke-dasharray:none;stop-color:#000000"
         id="path2371-4"
         sodipodi:type="arc"
         sodipodi:cx="63.5"
         sodipodi:cy="63.503841"
         sodipodi:rx="4.2333331"
         sodipodi:ry="4.2333331"
         sodipodi:start="0"
         sodipodi:end="6.2822777"
         sodipodi:open="true"
         sodipodi:arc-type="arc"
         d="m 67.733333,63.503841 a 4.2333331,4.2333331 0 0 1 -4.232372,4.233333 4.2333331,4.2333331 0 0 1 -4.234294,-4.231411 4.2333331,4.2333331 0 0 1 4.230451,-4.235254 4.2333331,4.2333331 0 0 1 4.236213,4.22949" />
    </g>
    <rect
       style="fill:#6f918a;stroke:#004455;stroke-width:2.11667;stroke-linecap:round;stroke-linejoin:round;stroke-miterlimit:4;stroke-dasharray:none;stroke-opacity:0.999607;stop-color:#000000"
       id="rect1070-0"
       width="38.099998"
       height="25.4"
       x="4.2333331"
       y="122.76667"
       rx="4.2333331"
       ry="4.2333331" />
    <rect
       style="fill:#6f918a;stroke:#004455;stroke-width:2.11667;stroke-linecap:round;stroke-linejoin:round;stroke-miterlimit:4;stroke-dasharray:none;stroke-opacity:0.999607;stop-color:#000000"
       id="rect1074-6"
       width="38.099998"
       height="25.4"
       x="93.133331"
       y="122.76667"
       rx="4.2333331"
       ry="4.2333331" />
    <text
       xml:space="preserve"
       style="font-size:8.46667px;line-height:0.85;font-family:'Permanent Marker';-inkscape-font-specification:'Permanent Marker';stroke-width:0.264583"
       x="-138.36227"
       y="102.77024"
       id="text1106-6-2"
       transform="rotate(-90)"><tspan
         sodipodi:role="line"
         id="tspan1104-2-9"
         x="-138.36227"
         y="102.77024"
         style="font-style:normal;font-variant:normal;font-weight:normal;font-stretch:normal;font-family:'Vilani Headline';-inkscape-font-specification:'Vilani Headline';stroke-width:0.264583">J</tspan><tspan
         sodipodi:role="line"
         x="-138.36227"
         y="111.01842"
         style="font-style:normal;font-variant:normal;font-weight:normal;font-stretch:normal;font-family:'Vilani Headline';-inkscape-font-specification:'Vilani Headline';stroke-width:0.264583"
         id="tspan1108-1-9">U</tspan><tspan
         sodipodi:role="line"
         x="-138.36227"
         y="119.26659"
         style="font-style:normal;font-variant:normal;font-weight:normal;font-stretch:normal;font-family:'Vilani Headline';-inkscape-font-specification:'Vilani Headline';stroke-width:0.264583"
         id="tspan1110-9-0">M</tspan><tspan
         sodipodi:role="line"
         x="-138.36227"
         y="127.51477"
         style="font-style:normal;font-variant:normal;font-weight:normal;font-stretch:normal;font-family:'Vilani Headline';-inkscape-font-specification:'Vilani Headline';stroke-width:0.264583"
         id="tspan1112-6-8">P</tspan></text>
    <text
       xml:space="preserve"
       style="font-size:8.46667px;line-height:0.85;font-family:'Permanent Marker';-inkscape-font-specification:'Permanent Marker';stroke-width:0.264583"
       x="132.57106"
       y="-31.581745"
       id="text1106-4-1"
       transform="rotate(90)"><tspan
         sodipodi:role="line"
         id="tspan1104-8-3"
         x="132.57106"
         y="-31.581745"
         style="font-style:normal;font-variant:normal;font-weight:normal;font-stretch:normal;font-family:'Vilani Headline';-inkscape-font-specification:'Vilani Headline';stroke-width:0.264583">J</tspan><tspan
         sodipodi:role="line"
         x="132.57106"
         y="-23.333569"
         style="font-style:normal;font-variant:normal;font-weight:normal;font-stretch:normal;font-family:'Vilani Headline';-inkscape-font-specification:'Vilani Headline';stroke-width:0.264583"
         id="tspan1108-0-1">U</tspan><tspan
         sodipodi:role="line"
         x="132.57106"
         y="-15.085393"
         style="font-style:normal;font-variant:normal;font-weight:normal;font-stretch:normal;font-family:'Vilani Headline';-inkscape-font-specification:'Vilani Headline';stroke-width:0.264583"
         id="tspan1110-8-1">M</tspan><tspan
         sodipodi:role="line"
         x="132.57106"
         y="-6.8372173"
         style="font-style:normal;font-variant:normal;font-weight:normal;font-stretch:normal;font-family:'Vilani Headline';-inkscape-font-specification:'Vilani Headline';stroke-width:0.264583"
         id="tspan1112-1-0">P</tspan></text>
    <circle
       style="opacity:1;fill:#333333;fill-opacity:1;stroke:#808080;stroke-width:1.05833;stroke-linecap:round;stroke-miterlimit:4;stroke-dasharray:none;stop-color:#000000"
       id="path1723-0"
       sodipodi:type="arc"
       sodipodi:cx="67.710266"
       sodipodi:cy="203.21922"
       sodipodi:rx="21.189743"
       sodipodi:ry="21.189743"
       sodipodi:start="0"
       sodipodi:end="6.2822777"
       sodipodi:open="true"
       sodipodi:arc-type="arc"
       d="M 88.900009,203.21922 A 21.189743,21.189743 0 0 1 67.715074,224.40897 21.189743,21.189743 0 0 1 46.520525,203.22884 21.189743,21.189743 0 0 1 67.695842,182.02948 21.189743,21.189743 0 0 1 88.9,203.19999" />
    <g
       id="g1068-3"
       transform="translate(4.2333347,139.7)">
      <circle
         style="opacity:1;fill:#333333;fill-opacity:1;stroke:#ff0000;stroke-width:12.7;stroke-linecap:round;stroke-miterlimit:4;stroke-dasharray:none;stop-color:#000000"
         id="path1789-9"
         sodipodi:type="arc"
         sodipodi:cx="63.511536"
         sodipodi:cy="63.511536"
         sodipodi:rx="12.711539"
         sodipodi:ry="12.711539"
         sodipodi:start="0"
         sodipodi:end="6.2822777"
         sodipodi:open="true"
         sodipodi:arc-type="arc"
         d="M 76.223075,63.511536 A 12.711539,12.711539 0 0 1 63.51442,76.223075 12.711539,12.711539 0 0 1 50.799998,63.517304 12.711539,12.711539 0 0 1 63.502883,50.799999 a 12.711539,12.711539 0 0 1 12.720187,12.7" />
      <circle
         style="opacity:1;fill:none;fill-opacity:1;stroke:#ffd42a;stroke-width:4.86833;stroke-linecap:round;stroke-miterlimit:4;stroke-dasharray:none;filter:url(#filter2367-3);stop-color:#000000"
         id="path1791-1"
         sodipodi:type="arc"
         sodipodi:cx="67.733345"
         sodipodi:cy="67.748695"
         sodipodi:rx="16.933329"
         sodipodi:ry="16.929495"
         sodipodi:start="0"
         sodipodi:end="6.2822777"
         sodipodi:open="true"
         sodipodi:arc-type="arc"
         transform="matrix(0.74999986,0,0,0.74999986,12.700011,12.704807)"
         d="M 84.666674,67.748695 A 16.933329,16.929495 0 0 1 67.737187,84.67819 16.933329,16.929495 0 0 1 50.800018,67.756378 16.933329,16.929495 0 0 1 67.721818,50.819204 16.933329,16.929495 0 0 1 84.666667,67.73333" />
      <circle
         style="opacity:1;fill:#000000;fill-opacity:1;stroke:none;stroke-width:0.264583;stroke-linecap:round;stroke-miterlimit:4;stroke-dasharray:none;stop-color:#000000"
         id="path2371-9"
         sodipodi:type="arc"
         sodipodi:cx="63.5"
         sodipodi:cy="63.503841"
         sodipodi:rx="4.2333331"
         sodipodi:ry="4.2333331"
         sodipodi:start="0"
         sodipodi:end="6.2822777"
         sodipodi:open="true"
         sodipodi:arc-type="arc"
         d="m 67.733333,63.503841 a 4.2333331,4.2333331 0 0 1 -4.232372,4.233333 4.2333331,4.2333331 0 0 1 -4.234294,-4.231411 4.2333331,4.2333331 0 0 1 4.230451,-4.235254 4.2333331,4.2333331 0 0 1 4.236213,4.22949" />
    </g>
    <rect
       style="fill:#6f918a;stroke:#004455;stroke-width:2.11667;stroke-linecap:round;stroke-linejoin:round;stroke-miterlimit:4;stroke-dasharray:none;stroke-opacity:0.999607;stop-color:#000000"
       id="rect1070-6"
       width="38.099998"
       height="25.4"
       x="4.2333326"
       y="190.5"
       rx="4.2333331"
       ry="4.2333331" />
    <rect
       style="fill:#6f918a;stroke:#004455;stroke-width:2.11667;stroke-linecap:round;stroke-linejoin:round;stroke-miterlimit:4;stroke-dasharray:none;stroke-opacity:0.999607;stop-color:#000000"
       id="rect1074-9"
       width="38.099998"
       height="25.4"
       x="93.133331"
       y="190.5"
       rx="4.2333331"
       ry="4.2333331" />
    <text
       xml:space="preserve"
       style="font-size:8.46667px;line-height:0.85;font-family:'Permanent Marker';-inkscape-font-specification:'Permanent Marker';stroke-width:0.264583"
       x="-206.09561"
       y="102.77024"
       id="text1106-6-3"
       transform="rotate(-90)"><tspan
         sodipodi:role="line"
         id="tspan1104-2-3"
         x="-206.09561"
         y="102.77024"
         style="font-style:normal;font-variant:normal;font-weight:normal;font-stretch:normal;font-family:'Vilani Headline';-inkscape-font-specification:'Vilani Headline';stroke-width:0.264583">J</tspan><tspan
         sodipodi:role="line"
         x="-206.09561"
         y="111.01842"
         style="font-style:normal;font-variant:normal;font-weight:normal;font-stretch:normal;font-family:'Vilani Headline';-inkscape-font-specification:'Vilani Headline';stroke-width:0.264583"
         id="tspan1108-1-8">U</tspan><tspan
         sodipodi:role="line"
         x="-206.09561"
         y="119.26659"
         style="font-style:normal;font-variant:normal;font-weight:normal;font-stretch:normal;font-family:'Vilani Headline';-inkscape-font-specification:'Vilani Headline';stroke-width:0.264583"
         id="tspan1110-9-05">M</tspan><tspan
         sodipodi:role="line"
         x="-206.09561"
         y="127.51477"
         style="font-style:normal;font-variant:normal;font-weight:normal;font-stretch:normal;font-family:'Vilani Headline';-inkscape-font-specification:'Vilani Headline';stroke-width:0.264583"
         id="tspan1112-6-6">P</tspan></text>
    <text
       xml:space="preserve"
       style="font-size:8.46667px;line-height:0.85;font-family:'Permanent Marker';-inkscape-font-specification:'Permanent Marker';stroke-width:0.264583"
       x="200.3044"
       y="-31.581747"
       id="text1106-4-6"
       transform="rotate(90)"><tspan
         sodipodi:role="line"
         id="tspan1104-8-4"
         x="200.3044"
         y="-31.581747"
         style="font-style:normal;font-variant:normal;font-weight:normal;font-stretch:normal;font-family:'Vilani Headline';-inkscape-font-specification:'Vilani Headline';stroke-width:0.264583">J</tspan><tspan
         sodipodi:role="line"
         x="200.3044"
         y="-23.33357"
         style="font-style:normal;font-variant:normal;font-weight:normal;font-stretch:normal;font-family:'Vilani Headline';-inkscape-font-specification:'Vilani Headline';stroke-width:0.264583"
         id="tspan1108-0-0">U</tspan><tspan
         sodipodi:role="line"
         x="200.3044"
         y="-15.085394"
         style="font-style:normal;font-variant:normal;font-weight:normal;font-stretch:normal;font-family:'Vilani Headline';-inkscape-font-specification:'Vilani Headline';stroke-width:0.264583"
         id="tspan1110-8-0">M</tspan><tspan
         sodipodi:role="line"
         x="200.3044"
         y="-6.8372183"
         style="font-style:normal;font-variant:normal;font-weight:normal;font-stretch:normal;font-family:'Vilani Headline';-inkscape-font-specification:'Vilani Headline';stroke-width:0.264583"
         id="tspan1112-1-4">P</tspan></text>
    <g
       id="g3116">
      <path
         style="fill:#006680;stroke:#004455;stroke-width:0.264583px;stroke-linecap:butt;stroke-linejoin:miter;stroke-opacity:1"
         d="M 93.133332,88.899999 V 84.666666 H 114.3 l 4.23333,4.233333 V 110.06667 H 114.3 Z"
         id="path875-2"
         sodipodi:nodetypes="ccccccc" />
      <path
         style="fill:#006680;stroke:#004455;stroke-width:0.26458333;stroke-linecap:butt;stroke-linejoin:miter;stroke-opacity:1;stroke-miterlimit:4;stroke-dasharray:none"
         d="M 42.333333,118.53333 H 21.166666 L 16.933333,114.3 V 93.133333 h 4.233334 L 42.333333,114.3 Z"
         id="path875-6-67"
         sodipodi:nodetypes="ccccccc" />
      <path
         style="fill:#006680;stroke:#004455;stroke-width:0.264583px;stroke-linecap:butt;stroke-linejoin:miter;stroke-opacity:1"
         d="m 16.933333,84.666666 h 4.233333 v 4.233333 h -4.233333 v -4.233333"
         id="path917-56" />
      <path
         style="fill:#006680;stroke:#004455;stroke-width:0.264583px;stroke-linecap:butt;stroke-linejoin:miter;stroke-opacity:1"
         d="m 25.399998,84.666669 h 21.166666 v 4.23333 H 25.399998 v -4.23333"
         id="path917-56-9" />
      <path
         style="fill:#006680;stroke:#004455;stroke-width:0.264583px;stroke-linecap:butt;stroke-linejoin:miter;stroke-opacity:1"
         d="m 88.899999,114.3 h 21.166671 v 4.23333 H 88.899999 V 114.3"
         id="path917-56-9-6" />
      <path
         style="fill:#006680;stroke:#004455;stroke-width:0.264583px;stroke-linecap:butt;stroke-linejoin:miter;stroke-opacity:1"
         d="m 84.666666,84.666666 h 4.233333 v 4.233333 h -4.233333 v -4.233333"
         id="path917-56-2" />
      <path
         style="fill:#006680;stroke:#004455;stroke-width:0.264583px;stroke-linecap:butt;stroke-linejoin:miter;stroke-opacity:1"
         d="m 114.3,114.3 h 4.23333 v 4.23333 H 114.3 V 114.3"
         id="path917-56-8" />
      <path
         style="fill:#006680;stroke:#004455;stroke-width:0.264583px;stroke-linecap:butt;stroke-linejoin:miter;stroke-opacity:1"
         d="m 46.566666,114.3 h 4.233333 v 4.23333 H 46.566666 V 114.3"
         id="path919-9" />
      <path
         style="fill:#6f918a;stroke:#000000;stroke-width:0.264583px;stroke-linecap:butt;stroke-linejoin:miter;stroke-opacity:1"
         d="m 101.6,88.899999 v 4.233334 L 110.06667,101.6 H 114.3 v -8.466667 l -4.23333,-4.233334 H 101.6"
         id="path921-8" />
      <path
         style="fill:#6f918a;stroke:#000000;stroke-width:0.264583px;stroke-linecap:butt;stroke-linejoin:miter;stroke-opacity:1"
         d="m 25.4,101.6 h -4.233334 v 8.46667 L 25.4,114.3 h 8.466666 v -4.23333 z"
         id="path923-7" />
      <path
         style="fill:#006680;fill-opacity:1;stroke:#004455;stroke-width:0.264583;stroke-linecap:round;stroke-linejoin:round;stroke-miterlimit:4;stroke-dasharray:none;stroke-opacity:1;stop-color:#000000"
         d="M 88.899996,93.133329 105.83334,110.06667 H 46.566666 L 29.633336,93.133329 Z"
         id="path1505"
         sodipodi:nodetypes="ccccc" />
      <path
         style="fill:#6f918a;stroke:#000000;stroke-width:0.264583px;stroke-linecap:butt;stroke-linejoin:miter;stroke-opacity:1"
         d="M 50.8,97.366666 H 42.333333 L 50.8,105.83333 h 8.466666 z"
         id="path923-7-0"
         sodipodi:nodetypes="ccccc" />
      <path
         style="fill:#6f918a;stroke:#000000;stroke-width:0.264583px;stroke-linecap:butt;stroke-linejoin:miter;stroke-opacity:1"
         d="m 84.666666,97.366673 h -8.466667 l 8.466667,8.466657 h 8.466666 z"
         id="path923-7-0-2"
         sodipodi:nodetypes="ccccc" />
      <path
         style="fill:#6f918a;stroke:#000000;stroke-width:0.264583px;stroke-linecap:butt;stroke-linejoin:miter;stroke-opacity:1"
         d="m 67.733333,97.366666 h -8.466667 l 8.466667,8.466664 h 8.466666 z"
         id="path923-7-0-7"
         sodipodi:nodetypes="ccccc" />
    </g>
    <g
       id="g3116-6"
       transform="matrix(-1,0,0,1,135.46666,67.733333)">
      <path
         style="fill:#006680;stroke:#004455;stroke-width:0.264583px;stroke-linecap:butt;stroke-linejoin:miter;stroke-opacity:1"
         d="M 93.133332,88.899999 V 84.666666 H 114.3 l 4.23333,4.233333 V 110.06667 H 114.3 Z"
         id="path875-2-1"
         sodipodi:nodetypes="ccccccc" />
      <path
         style="fill:#006680;stroke:#004455;stroke-width:0.264583;stroke-linecap:butt;stroke-linejoin:miter;stroke-miterlimit:4;stroke-dasharray:none;stroke-opacity:1"
         d="M 42.333333,118.53333 H 21.166666 L 16.933333,114.3 V 93.133333 h 4.233334 L 42.333333,114.3 Z"
         id="path875-6-67-3"
         sodipodi:nodetypes="ccccccc" />
      <path
         style="fill:#006680;stroke:#004455;stroke-width:0.264583px;stroke-linecap:butt;stroke-linejoin:miter;stroke-opacity:1"
         d="m 16.933333,84.666666 h 4.233333 v 4.233333 h -4.233333 v -4.233333"
         id="path917-56-21" />
      <path
         style="fill:#006680;stroke:#004455;stroke-width:0.264583px;stroke-linecap:butt;stroke-linejoin:miter;stroke-opacity:1"
         d="m 25.399998,84.666669 h 21.166666 v 4.23333 H 25.399998 v -4.23333"
         id="path917-56-9-5" />
      <path
         style="fill:#006680;stroke:#004455;stroke-width:0.264583px;stroke-linecap:butt;stroke-linejoin:miter;stroke-opacity:1"
         d="m 88.899999,114.3 h 21.166671 v 4.23333 H 88.899999 V 114.3"
         id="path917-56-9-6-9" />
      <path
         style="fill:#006680;stroke:#004455;stroke-width:0.264583px;stroke-linecap:butt;stroke-linejoin:miter;stroke-opacity:1"
         d="m 84.666666,84.666666 h 4.233333 v 4.233333 h -4.233333 v -4.233333"
         id="path917-56-2-9" />
      <path
         style="fill:#006680;stroke:#004455;stroke-width:0.264583px;stroke-linecap:butt;stroke-linejoin:miter;stroke-opacity:1"
         d="m 114.3,114.3 h 4.23333 v 4.23333 H 114.3 V 114.3"
         id="path917-56-8-1" />
      <path
         style="fill:#006680;stroke:#004455;stroke-width:0.264583px;stroke-linecap:butt;stroke-linejoin:miter;stroke-opacity:1"
         d="m 46.566666,114.3 h 4.233333 v 4.23333 H 46.566666 V 114.3"
         id="path919-9-4" />
      <path
         style="fill:#6f918a;stroke:#000000;stroke-width:0.264583px;stroke-linecap:butt;stroke-linejoin:miter;stroke-opacity:1"
         d="m 101.6,88.899999 v 4.233334 L 110.06667,101.6 H 114.3 v -8.466667 l -4.23333,-4.233334 H 101.6"
         id="path921-8-9" />
      <path
         style="fill:#6f918a;stroke:#000000;stroke-width:0.264583px;stroke-linecap:butt;stroke-linejoin:miter;stroke-opacity:1"
         d="m 25.4,101.6 h -4.233334 v 8.46667 L 25.4,114.3 h 8.466666 v -4.23333 z"
         id="path923-7-1" />
      <path
         style="fill:#006680;fill-opacity:1;stroke:#004455;stroke-width:0.264583;stroke-linecap:round;stroke-linejoin:round;stroke-miterlimit:4;stroke-dasharray:none;stroke-opacity:1;stop-color:#000000"
         d="M 88.899996,93.133329 105.83334,110.06667 H 46.566666 L 29.633336,93.133329 Z"
         id="path1505-0"
         sodipodi:nodetypes="ccccc" />
      <path
         style="fill:#6f918a;stroke:#000000;stroke-width:0.264583px;stroke-linecap:butt;stroke-linejoin:miter;stroke-opacity:1"
         d="M 50.8,97.366666 H 42.333333 L 50.8,105.83333 h 8.466666 z"
         id="path923-7-0-75"
         sodipodi:nodetypes="ccccc" />
      <path
         style="fill:#6f918a;stroke:#000000;stroke-width:0.264583px;stroke-linecap:butt;stroke-linejoin:miter;stroke-opacity:1"
         d="m 84.666666,97.366673 h -8.466667 l 8.466667,8.466657 h 8.466666 z"
         id="path923-7-0-2-8"
         sodipodi:nodetypes="ccccc" />
      <path
         style="fill:#6f918a;stroke:#000000;stroke-width:0.264583px;stroke-linecap:butt;stroke-linejoin:miter;stroke-opacity:1"
         d="m 67.733333,97.366666 h -8.466667 l 8.466667,8.466664 h 8.466666 z"
         id="path923-7-0-7-7"
         sodipodi:nodetypes="ccccc" />
    </g>
  </g>
  <g
     inkscape:groupmode="layer"
     id="layer2"
     inkscape:label="Display" />
</svg>
