<?xml version="1.0" encoding="UTF-8" standalone="no"?>
<svg
   xmlns:dc="http://purl.org/dc/elements/1.1/"
   xmlns:cc="http://creativecommons.org/ns#"
   xmlns:rdf="http://www.w3.org/1999/02/22-rdf-syntax-ns#"
   xmlns:svg="http://www.w3.org/2000/svg"
   xmlns="http://www.w3.org/2000/svg"
   xmlns:xlink="http://www.w3.org/1999/xlink"
   xmlns:sodipodi="http://sodipodi.sourceforge.net/DTD/sodipodi-0.dtd"
   xmlns:inkscape="http://www.inkscape.org/namespaces/inkscape"
   width="256"
   height="256"
   viewBox="0 0 67.733332 67.733335"
   version="1.1"
   id="svg8"
   inkscape:version="1.0.2 (e86c870879, 2021-01-15)"
   sodipodi:docname="m-thruster_1.svg">
  <defs
     id="defs2">
    <linearGradient
       inkscape:collect="always"
       id="linearGradient1117">
      <stop
         style="stop-color:#00ffff;stop-opacity:0.4978376"
         offset="0"
         id="stop1113" />
      <stop
         style="stop-color:#00ffff;stop-opacity:0"
         offset="1"
         id="stop1115" />
    </linearGradient>
    <linearGradient
       inkscape:collect="always"
       id="linearGradient938">
      <stop
         style="stop-color:#e6e6e6;stop-opacity:1"
         offset="0"
         id="stop934" />
      <stop
         style="stop-color:#808080;stop-opacity:1"
         offset="1"
         id="stop936" />
    </linearGradient>
    <linearGradient
       inkscape:collect="always"
       id="linearGradient930">
      <stop
         style="stop-color:#b3b3b3;stop-opacity:1"
         offset="0"
         id="stop926" />
      <stop
         style="stop-color:#4d4d4d;stop-opacity:1"
         offset="1"
         id="stop928" />
    </linearGradient>
    <linearGradient
       inkscape:collect="always"
       id="linearGradient895">
      <stop
         style="stop-color:#808080;stop-opacity:1"
         offset="0"
         id="stop891" />
      <stop
         style="stop-color:#000000;stop-opacity:1"
         offset="1"
         id="stop893" />
    </linearGradient>
    <radialGradient
       inkscape:collect="always"
       xlink:href="#linearGradient930"
       id="radialGradient932-0"
       cx="48.683331"
       cy="42.098148"
       fx="48.683331"
       fy="42.098148"
       r="11.112498"
       gradientTransform="matrix(0.95238075,-8.5606213e-8,8.5886689e-6,2.4615391,2.3179099,-60.315974)"
       gradientUnits="userSpaceOnUse" />
    <radialGradient
       inkscape:collect="always"
       xlink:href="#linearGradient938"
       id="radialGradient940-6"
       cx="48.683334"
       cy="50.800003"
       fx="48.683334"
       fy="50.800003"
       r="12.832293"
       gradientTransform="matrix(0.98969051,-1.1204304e-7,1.329354e-8,0.49484538,0.50189945,25.66186)"
       gradientUnits="userSpaceOnUse" />
    <radialGradient
       inkscape:collect="always"
       xlink:href="#linearGradient938"
       id="radialGradient940-9-7"
       cx="48.683334"
       cy="50.800003"
       fx="48.683334"
       fy="50.800003"
       r="12.832293"
       gradientTransform="matrix(0.98969051,-1.1204304e-7,1.329354e-8,0.49484538,0.5018984,17.195193)"
       gradientUnits="userSpaceOnUse" />
    <radialGradient
       inkscape:collect="always"
       xlink:href="#linearGradient938"
       id="radialGradient940-0-9"
       cx="48.683334"
       cy="50.800003"
       fx="48.683334"
       fy="50.800003"
       r="12.832293"
       gradientTransform="matrix(0.98969051,-1.1204304e-7,1.329354e-8,0.49484538,0.5018984,8.7285274)"
       gradientUnits="userSpaceOnUse" />
    <radialGradient
       inkscape:collect="always"
       xlink:href="#linearGradient895"
       id="radialGradient889-36"
       cx="19.049997"
       cy="57.150002"
       fx="19.049997"
       fy="57.150002"
       r="6.6145835"
       gradientUnits="userSpaceOnUse"
       gradientTransform="matrix(0.53333336,-3.0429109e-7,6.2374081e-6,1.6457013,23.706313,-78.630391)" />
    <radialGradient
       inkscape:collect="always"
       xlink:href="#linearGradient895"
       id="radialGradient889-36-6"
       cx="19.049997"
       cy="57.150002"
       fx="19.049997"
       fy="57.150002"
       r="6.6145835"
       gradientUnits="userSpaceOnUse"
       gradientTransform="matrix(0.53333336,-3.0429109e-7,6.2374081e-6,1.6457013,17.356314,-78.630391)" />
    <radialGradient
       inkscape:collect="always"
       xlink:href="#linearGradient895"
       id="radialGradient889-36-2"
       cx="19.049997"
       cy="57.150002"
       fx="19.049997"
       fy="57.150002"
       r="6.6145835"
       gradientUnits="userSpaceOnUse"
       gradientTransform="matrix(0.53333336,-3.0429109e-7,6.2374081e-6,1.6457013,11.006313,-78.630391)" />
    <radialGradient
       inkscape:collect="always"
       xlink:href="#linearGradient895"
       id="radialGradient889-36-3"
       cx="19.049997"
       cy="57.150002"
       fx="19.049997"
       fy="57.150002"
       r="6.6145835"
       gradientUnits="userSpaceOnUse"
       gradientTransform="matrix(0.53333336,-3.0429109e-7,6.2374081e-6,1.6457013,4.6563138,-78.63039)" />
    <radialGradient
       inkscape:collect="always"
       xlink:href="#linearGradient895"
       id="radialGradient889-36-26"
       cx="19.049997"
       cy="57.150002"
       fx="19.049997"
       fy="57.150002"
       r="6.6145835"
       gradientUnits="userSpaceOnUse"
       gradientTransform="matrix(0.53333336,-3.0429109e-7,6.2374081e-6,1.6457013,30.056314,-78.63039)" />
    <radialGradient
       inkscape:collect="always"
       xlink:href="#linearGradient895"
       id="radialGradient889-36-9"
       cx="19.049997"
       cy="57.150002"
       fx="19.049997"
       fy="57.150002"
       r="6.6145835"
       gradientUnits="userSpaceOnUse"
       gradientTransform="matrix(0.53333336,-3.0429109e-7,6.2374081e-6,1.6457013,36.406315,-78.63039)" />
    <radialGradient
       inkscape:collect="always"
       xlink:href="#linearGradient895"
       id="radialGradient889-36-37"
       cx="19.049997"
       cy="57.150002"
       fx="19.049997"
       fy="57.150002"
       r="6.6145835"
       gradientUnits="userSpaceOnUse"
       gradientTransform="matrix(0.53333336,-3.0429109e-7,6.2374081e-6,1.6457013,42.756313,-78.63039)" />
    <radialGradient
       inkscape:collect="always"
       xlink:href="#linearGradient1117"
       id="radialGradient1111"
       cx="33.866653"
       cy="3.1750057"
       fx="33.866653"
       fy="3.1750057"
       r="25.400002"
       gradientTransform="matrix(-1.8471758e-6,1.25,-1.1666666,-1.1224553e-7,37.570902,-23.283319)"
       gradientUnits="userSpaceOnUse" />
    <radialGradient
       inkscape:collect="always"
       xlink:href="#linearGradient930"
       id="radialGradient932-0-8"
       cx="48.683331"
       cy="42.098148"
       fx="48.683331"
       fy="42.098148"
       r="11.112498"
       gradientTransform="matrix(0.95238075,-8.5606213e-8,8.5886689e-6,2.4615391,2.3179099,-60.315974)"
       gradientUnits="userSpaceOnUse" />
    <radialGradient
       inkscape:collect="always"
       xlink:href="#linearGradient938"
       id="radialGradient940-6-3"
       cx="48.683334"
       cy="50.800003"
       fx="48.683334"
       fy="50.800003"
       r="12.832293"
       gradientTransform="matrix(0.98969051,-1.1204304e-7,1.329354e-8,0.49484538,0.50189945,25.66186)"
       gradientUnits="userSpaceOnUse" />
    <radialGradient
       inkscape:collect="always"
       xlink:href="#linearGradient938"
       id="radialGradient940-9-7-2"
       cx="48.683334"
       cy="50.800003"
       fx="48.683334"
       fy="50.800003"
       r="12.832293"
       gradientTransform="matrix(0.98969051,-1.1204304e-7,1.329354e-8,0.49484538,0.5018984,17.195193)"
       gradientUnits="userSpaceOnUse" />
    <radialGradient
       inkscape:collect="always"
       xlink:href="#linearGradient938"
       id="radialGradient940-0-9-9"
       cx="48.683334"
       cy="50.800003"
       fx="48.683334"
       fy="50.800003"
       r="12.832293"
       gradientTransform="matrix(0.98969051,-1.1204304e-7,1.329354e-8,0.49484538,0.5018984,8.7285274)"
       gradientUnits="userSpaceOnUse" />
  </defs>
  <sodipodi:namedview
     id="base"
     pagecolor="#ffffff"
     bordercolor="#666666"
     borderopacity="1.0"
     inkscape:pageopacity="0"
     inkscape:pageshadow="2"
     inkscape:zoom="1.4"
     inkscape:cx="207.80585"
     inkscape:cy="153.15091"
     inkscape:document-units="px"
     inkscape:current-layer="layer1"
     inkscape:document-rotation="0"
     showgrid="true"
     units="px"
     inkscape:window-width="2560"
     inkscape:window-height="1357"
     inkscape:window-x="1200"
     inkscape:window-y="240"
     inkscape:window-maximized="1"
     inkscape:snap-grids="true">
    <inkscape:grid
       type="xygrid"
       id="grid833"
       units="px"
       empspacing="4"
       spacingy="2.1166667"
       spacingx="2.1166667" />
  </sodipodi:namedview>
  <metadata
     id="metadata5">
    <rdf:RDF>
      <cc:Work
         rdf:about="">
        <dc:format>image/svg+xml</dc:format>
        <dc:type
           rdf:resource="http://purl.org/dc/dcmitype/StillImage" />
        <dc:title></dc:title>
      </cc:Work>
    </rdf:RDF>
  </metadata>
  <g
     inkscape:label="Desk"
     inkscape:groupmode="layer"
     id="layer1">
    <rect
       style="fill:url(#radialGradient1111);fill-opacity:1;stroke:none;stroke-width:2.11668;stroke-linecap:round;stroke-linejoin:round;stop-color:#000000"
       id="rect1103"
       width="50.800003"
       height="31.750004"
       x="8.4666662"
       y="19.049999"
       rx="4.2333331"
       ry="7.7119159e-07" />
    <g
       id="g989-2"
       transform="matrix(0.52272705,0,0,0.50000002,22.946602,-14.816667)">
      <rect
         style="fill:url(#radialGradient932-0);fill-opacity:1;stroke:#000000;stroke-width:1.05833;stroke-linecap:round;stroke-miterlimit:4;stroke-dasharray:none;stop-color:#000000"
         id="rect840-5-0"
         width="21.166666"
         height="25.399998"
         x="38.099998"
         y="29.633333"
         rx="2.1166666"
         ry="2.1166666" />
      <rect
         style="fill:url(#radialGradient940-6);fill-opacity:1;stroke:#000000;stroke-width:0.529167;stroke-linecap:round;stroke-miterlimit:4;stroke-dasharray:none;stop-color:#000000"
         id="rect873-2"
         width="25.400003"
         height="4.2333331"
         x="35.983334"
         y="48.683334"
         rx="2.1166666"
         ry="2.1166666" />
      <rect
         style="fill:url(#radialGradient940-9-7);fill-opacity:1;stroke:#000000;stroke-width:0.529167;stroke-linecap:round;stroke-miterlimit:4;stroke-dasharray:none;stop-color:#000000"
         id="rect873-7-3"
         width="25.400003"
         height="4.2333331"
         x="35.983334"
         y="40.216667"
         rx="2.1166666"
         ry="2.1166666" />
      <rect
         style="fill:url(#radialGradient940-0-9);fill-opacity:1;stroke:#000000;stroke-width:0.529167;stroke-linecap:round;stroke-miterlimit:4;stroke-dasharray:none;stop-color:#000000"
         id="rect873-6-7"
         width="25.400003"
         height="4.2333331"
         x="35.983334"
         y="31.75"
         rx="2.1166666"
         ry="2.1166666" />
    </g>
    <path
       id="rect844"
       style="fill:#4d4d4d;stroke:#000000;stroke-width:1.05833;stroke-linecap:round;stroke-linejoin:bevel;stroke-miterlimit:4;stroke-dasharray:none;stop-color:#000000"
       d="M 8.4666668,12.7 H 59.266668 l 4.233333,4.233334 0,10.583333 h -4.233333 l 0,-4.233333 L 55.033334,19.05 H 12.7 l -4.2333332,4.233334 v 4.233333 H 4.2333334 l 0,-10.583333 z"
       sodipodi:nodetypes="ccccccccccccc" />
    <rect
       style="fill:url(#radialGradient889-36);fill-opacity:1;stroke:none;stroke-width:1.05833;stroke-linecap:round;stroke-linejoin:bevel;stroke-miterlimit:4;stroke-dasharray:none;stop-color:#000000"
       id="rect877-3"
       width="4.2333341"
       height="6.3499999"
       x="31.75"
       y="12.7"
       rx="0"
       ry="0" />
    <rect
       style="fill:url(#radialGradient889-36-6);fill-opacity:1;stroke:none;stroke-width:1.05833;stroke-linecap:round;stroke-linejoin:bevel;stroke-miterlimit:4;stroke-dasharray:none;stop-color:#000000"
       id="rect877-3-1"
       width="4.2333341"
       height="6.3499999"
       x="25.4"
       y="12.7"
       rx="0"
       ry="0" />
    <g
       id="g989-2-3"
       transform="matrix(0.52272705,0,0,0.50000002,-6.1094616,-14.816667)">
      <rect
         style="fill:url(#radialGradient932-0-8);fill-opacity:1;stroke:#000000;stroke-width:1.05833;stroke-linecap:round;stroke-miterlimit:4;stroke-dasharray:none;stop-color:#000000"
         id="rect840-5-0-1"
         width="21.166666"
         height="25.399998"
         x="38.099998"
         y="29.633333"
         rx="2.1166666"
         ry="2.1166666" />
      <rect
         style="fill:url(#radialGradient940-6-3);fill-opacity:1;stroke:#000000;stroke-width:0.529167;stroke-linecap:round;stroke-miterlimit:4;stroke-dasharray:none;stop-color:#000000"
         id="rect873-2-9"
         width="25.400003"
         height="4.2333331"
         x="35.983334"
         y="48.683334"
         rx="2.1166666"
         ry="2.1166666" />
      <rect
         style="fill:url(#radialGradient940-9-7-2);fill-opacity:1;stroke:#000000;stroke-width:0.529167;stroke-linecap:round;stroke-miterlimit:4;stroke-dasharray:none;stop-color:#000000"
         id="rect873-7-3-4"
         width="25.400003"
         height="4.2333331"
         x="35.983334"
         y="40.216667"
         rx="2.1166666"
         ry="2.1166666" />
      <rect
         style="fill:url(#radialGradient940-0-9-9);fill-opacity:1;stroke:#000000;stroke-width:0.529167;stroke-linecap:round;stroke-miterlimit:4;stroke-dasharray:none;stop-color:#000000"
         id="rect873-6-7-7"
         width="25.400003"
         height="4.2333331"
         x="35.983334"
         y="31.75"
         rx="2.1166666"
         ry="2.1166666" />
    </g>
    <rect
       style="fill:url(#radialGradient889-36-2);fill-opacity:1;stroke:none;stroke-width:1.05833;stroke-linecap:round;stroke-linejoin:bevel;stroke-miterlimit:4;stroke-dasharray:none;stop-color:#000000"
       id="rect877-3-9"
       width="4.2333341"
       height="6.3499999"
       x="19.049999"
       y="12.7"
       rx="0"
       ry="0" />
    <rect
       style="fill:url(#radialGradient889-36-3);fill-opacity:1;stroke:none;stroke-width:1.05833;stroke-linecap:round;stroke-linejoin:bevel;stroke-miterlimit:4;stroke-dasharray:none;stop-color:#000000"
       id="rect877-3-6"
       width="4.2333341"
       height="6.3499999"
       x="12.7"
       y="12.700001"
       rx="0"
       ry="0" />
    <rect
       style="fill:url(#radialGradient889-36-26);fill-opacity:1;stroke:none;stroke-width:1.05833;stroke-linecap:round;stroke-linejoin:bevel;stroke-miterlimit:4;stroke-dasharray:none;stop-color:#000000"
       id="rect877-3-7"
       width="4.2333341"
       height="6.3499999"
       x="38.100002"
       y="12.700001"
       rx="0"
       ry="0" />
    <rect
       style="fill:url(#radialGradient889-36-9);fill-opacity:1;stroke:none;stroke-width:1.05833;stroke-linecap:round;stroke-linejoin:bevel;stroke-miterlimit:4;stroke-dasharray:none;stop-color:#000000"
       id="rect877-3-2"
       width="4.2333341"
       height="6.3499999"
       x="44.450001"
       y="12.7"
       rx="0"
       ry="0" />
    <rect
       style="fill:url(#radialGradient889-36-37);fill-opacity:1;stroke:none;stroke-width:1.05833;stroke-linecap:round;stroke-linejoin:bevel;stroke-miterlimit:4;stroke-dasharray:none;stop-color:#000000"
       id="rect877-3-22"
       width="4.2333341"
       height="6.3499999"
       x="50.799999"
       y="12.700001"
       rx="0"
       ry="0" />
    <path
       id="rect844-5"
       style="fill:none;stroke:#000000;stroke-width:1.05833;stroke-linecap:round;stroke-linejoin:bevel;stroke-miterlimit:4;stroke-dasharray:none;stop-color:#000000"
       d="M 8.4666672,12.7 H 59.266668 l 4.233333,4.233334 V 27.516667 H 59.266668 V 23.283334 L 55.033334,19.05 H 12.7 l -4.2333328,4.233334 v 4.233333 H 4.2333332 V 16.933334 Z"
       sodipodi:nodetypes="ccccccccccccc" />
  </g>
  <g
     inkscape:groupmode="layer"
     id="layer2"
     inkscape:label="Display" />
</svg>
