<?xml version="1.0" encoding="UTF-8" standalone="no"?>
<svg
   width="256"
   height="256"
   viewBox="0 0 67.73333 67.733335"
   version="1.1"
   id="svg8"
   inkscape:version="1.1.2 (0a00cf5339, 2022-02-04)"
   sodipodi:docname="machinery_h.svg"
   xmlns:inkscape="http://www.inkscape.org/namespaces/inkscape"
   xmlns:sodipodi="http://sodipodi.sourceforge.net/DTD/sodipodi-0.dtd"
   xmlns="http://www.w3.org/2000/svg"
   xmlns:svg="http://www.w3.org/2000/svg"
   xmlns:rdf="http://www.w3.org/1999/02/22-rdf-syntax-ns#"
   xmlns:cc="http://creativecommons.org/ns#"
   xmlns:dc="http://purl.org/dc/elements/1.1/">
  <defs
     id="defs2">
    <filter
       inkscape:label="Metallized Paint"
       inkscape:menu="Materials"
       inkscape:menu-tooltip="Metallized effect with a soft lighting, slightly translucent at the edges"
       style="color-interpolation-filters:sRGB"
       id="filter4673">
      <feGaussianBlur
         stdDeviation="1"
         result="result1"
         id="feGaussianBlur4647" />
      <feComposite
         in="result1"
         in2="result1"
         result="result4"
         operator="in"
         id="feComposite4649" />
      <feBlend
         in="result1"
         mode="screen"
         result="result5"
         in2="result4"
         id="feBlend4651" />
      <feGaussianBlur
         stdDeviation="8"
         result="result6"
         in="result5"
         id="feGaussianBlur4653" />
      <feComposite
         operator="atop"
         in="result6"
         in2="result5"
         result="result8"
         id="feComposite4655" />
      <feComposite
         operator="in"
         result="fbSourceGraphic"
         in="result6"
         in2="result8"
         id="feComposite4657" />
      <feGaussianBlur
         result="result0"
         in="fbSourceGraphic"
         stdDeviation="2.5"
         id="feGaussianBlur4659" />
      <feSpecularLighting
         specularExponent="45"
         specularConstant="1.5"
         surfaceScale="1"
         lighting-color="#ffffff"
         result="result1"
         in="result0"
         id="feSpecularLighting4663">
        <fePointLight
           z="21000"
           y="-9000"
           x="-6000"
           id="fePointLight4661" />
      </feSpecularLighting>
      <feComposite
         operator="in"
         result="result2"
         in="result1"
         in2="fbSourceGraphic"
         id="feComposite4665" />
      <feComposite
         k3="1"
         k2="1"
         operator="arithmetic"
         result="result4"
         in="fbSourceGraphic"
         in2="result2"
         id="feComposite4667"
         k1="0"
         k4="0" />
      <feComposite
         operator="in"
         in2="result4"
         result="result91"
         id="feComposite4669" />
      <feBlend
         mode="multiply"
         in2="result91"
         id="feBlend4671" />
    </filter>
  </defs>
  <sodipodi:namedview
     id="base"
     pagecolor="#ffffff"
     bordercolor="#666666"
     borderopacity="1.0"
     inkscape:pageopacity="0"
     inkscape:pageshadow="2"
     inkscape:zoom="3.959798"
     inkscape:cx="81.191011"
     inkscape:cy="119.32427"
     inkscape:document-units="px"
     inkscape:current-layer="layer1"
     inkscape:document-rotation="0"
     showgrid="true"
     units="px"
     inkscape:window-width="2560"
     inkscape:window-height="1343"
     inkscape:window-x="1200"
     inkscape:window-y="240"
     inkscape:window-maximized="1"
     inkscape:snap-grids="true"
     inkscape:pagecheckerboard="0"
     inkscape:snap-smooth-nodes="true"
     inkscape:snap-object-midpoints="true">
    <inkscape:grid
       type="xygrid"
       id="grid833"
       units="px"
       empspacing="4"
       spacingy="1.0583333"
       spacingx="1.0583333" />
  </sodipodi:namedview>
  <metadata
     id="metadata5">
    <rdf:RDF>
      <cc:Work
         rdf:about="">
        <dc:format>image/svg+xml</dc:format>
        <dc:type
           rdf:resource="http://purl.org/dc/dcmitype/StillImage" />
      </cc:Work>
    </rdf:RDF>
  </metadata>
  <g
     inkscape:label="Desk"
     inkscape:groupmode="layer"
     id="layer1">
    <rect
       style="fill:#999999;stroke:#333333;stroke-width:1.05833332;stroke-linecap:round;stroke-miterlimit:4;stroke-dasharray:none;stroke-opacity:0.996078;stop-color:#000000"
       id="rect1106"
       width="32.808338"
       height="4.2333326"
       x="17.991667"
       y="10.583333"
       rx="7.9999945e-06"
       ry="2.1166663" />
    <rect
       style="fill:#999999;stroke:#333333;stroke-width:1.05833;stroke-linecap:round;stroke-miterlimit:4;stroke-dasharray:none;stroke-opacity:0.996078;stop-color:#000000"
       id="rect1106-3"
       width="32.808338"
       height="4.2333326"
       x="17.991667"
       y="53.974998"
       rx="7.9999945e-06"
       ry="2.1166663" />
    <rect
       style="fill:#999999;stroke:#333333;stroke-width:1.05833;stroke-linecap:round;stroke-miterlimit:4;stroke-dasharray:none;stroke-opacity:0.996078;stop-color:#000000"
       id="rect1106-3-6"
       width="32.808338"
       height="4.2333326"
       x="19.049999"
       y="-14.816667"
       rx="7.9999945e-06"
       ry="2.1166663"
       transform="rotate(90)" />
    <rect
       style="fill:#999999;stroke:#333333;stroke-width:1.05833;stroke-linecap:round;stroke-miterlimit:4;stroke-dasharray:none;stroke-opacity:0.996078;stop-color:#000000"
       id="rect1106-3-7"
       width="32.808338"
       height="4.2333326"
       x="19.049999"
       y="-57.149998"
       rx="7.9999945e-06"
       ry="2.1166663"
       transform="rotate(90)" />
    <rect
       style="fill:#cccccc;stroke:#666666;stroke-width:0.529167;stroke-linecap:round;stroke-miterlimit:4;stroke-dasharray:none;stroke-opacity:0.996078;stop-color:#000000"
       id="rect1326"
       width="2.1166632"
       height="57.149998"
       x="-1.0583339"
       y="19.319696"
       rx="7.9999945e-06"
       ry="2.1166666"
       transform="rotate(-45)" />
    <circle
       style="fill:#999999;stroke:#333333;stroke-width:2.11666664;stroke-linecap:round;stroke-opacity:0.996078;stop-color:#000000;stroke-miterlimit:4;stroke-dasharray:none"
       id="path173"
       cx="12.7"
       cy="12.7"
       r="8.4666662" />
    <rect
       style="fill:#cccccc;stroke:#666666;stroke-width:0.529167;stroke-linecap:round;stroke-miterlimit:4;stroke-dasharray:none;stroke-opacity:0.996078;stop-color:#000000"
       id="rect1326-5"
       width="2.1166632"
       height="57.149998"
       x="-48.95303"
       y="-28.574999"
       rx="7.9999945e-06"
       ry="2.1166666"
       transform="matrix(-0.70710678,-0.70710678,-0.70710678,0.70710678,0,0)" />
    <circle
       style="fill:#999999;stroke:#333333;stroke-width:2.11667;stroke-linecap:round;stroke-miterlimit:4;stroke-dasharray:none;stroke-opacity:0.996078;stop-color:#000000"
       id="path1078"
       cx="55.033333"
       cy="12.7"
       r="8.4666662" />
    <circle
       style="fill:#999999;stroke:#333333;stroke-width:2.11667;stroke-linecap:round;stroke-miterlimit:4;stroke-dasharray:none;stroke-opacity:0.996078;stop-color:#000000"
       id="path1080"
       cx="12.7"
       cy="55.033333"
       r="8.4666662" />
    <circle
       style="fill:#999999;stroke:#333333;stroke-width:2.11667;stroke-linecap:round;stroke-miterlimit:4;stroke-dasharray:none;stroke-opacity:0.996078;stop-color:#000000"
       id="path1080-3"
       cx="55.033333"
       cy="55.033333"
       r="8.4666662" />
    <circle
       style="fill:#cccccc;stroke:#666666;stroke-width:0.529167;stroke-linecap:round;stroke-miterlimit:4;stroke-dasharray:none;stroke-opacity:0.996078;stop-color:#000000"
       id="path1539"
       cx="33.866665"
       cy="33.866665"
       r="4.2333331" />
    <circle
       style="fill:#cccccc;stroke:#666666;stroke-width:0.529167;stroke-linecap:round;stroke-miterlimit:4;stroke-dasharray:none;stroke-opacity:0.996078;stop-color:#000000"
       id="path1675"
       cx="12.7"
       cy="12.7"
       r="2.1166666" />
    <circle
       style="fill:#cccccc;stroke:#666666;stroke-width:0.529167;stroke-linecap:round;stroke-miterlimit:4;stroke-dasharray:none;stroke-opacity:0.996078;stop-color:#000000"
       id="path1677"
       cx="55.033333"
       cy="12.7"
       r="2.1166666" />
    <circle
       style="fill:#cccccc;stroke:#666666;stroke-width:0.529167;stroke-linecap:round;stroke-miterlimit:4;stroke-dasharray:none;stroke-opacity:0.996078;stop-color:#000000"
       id="path1681"
       cx="55.033333"
       cy="55.033333"
       r="2.1166666" />
    <circle
       style="fill:#cccccc;stroke:#666666;stroke-width:0.529167;stroke-linecap:round;stroke-miterlimit:4;stroke-dasharray:none;stroke-opacity:0.996078;stop-color:#000000"
       id="path1683"
       cx="12.7"
       cy="55.033333"
       r="2.1166666" />
  </g>
  <g
     inkscape:groupmode="layer"
     id="layer2"
     inkscape:label="Display" />
</svg>
