<?xml version="1.0" encoding="UTF-8" standalone="no"?>
<svg
   width="256"
   height="64"
   viewBox="0 0 67.733334 16.933332"
   version="1.1"
   id="svg8"
   inkscape:version="1.1.2 (0a00cf5339, 2022-02-04)"
   sodipodi:docname="bonded_interior_starship_door.svg"
   xmlns:inkscape="http://www.inkscape.org/namespaces/inkscape"
   xmlns:sodipodi="http://sodipodi.sourceforge.net/DTD/sodipodi-0.dtd"
   xmlns="http://www.w3.org/2000/svg"
   xmlns:svg="http://www.w3.org/2000/svg"
   xmlns:rdf="http://www.w3.org/1999/02/22-rdf-syntax-ns#"
   xmlns:cc="http://creativecommons.org/ns#"
   xmlns:dc="http://purl.org/dc/elements/1.1/">
  <defs
     id="defs2" />
  <sodipodi:namedview
     id="base"
     pagecolor="#ffffff"
     bordercolor="#666666"
     borderopacity="1.0"
     inkscape:pageopacity="0.0"
     inkscape:pageshadow="2"
     inkscape:zoom="7.9195959"
     inkscape:cx="138.2015"
     inkscape:cy="22.665298"
     inkscape:document-units="mm"
     inkscape:current-layer="g866-6"
     inkscape:document-rotation="0"
     showgrid="true"
     units="px"
     inkscape:window-width="2560"
     inkscape:window-height="1343"
     inkscape:window-x="1200"
     inkscape:window-y="142"
     inkscape:window-maximized="1"
     inkscape:pagecheckerboard="0">
    <inkscape:grid
       type="xygrid"
       id="grid833"
       spacingx="1.0583333"
       units="px"
       spacingy="1.0583333"
       empspacing="8" />
  </sodipodi:namedview>
  <metadata
     id="metadata5">
    <rdf:RDF>
      <cc:Work
         rdf:about="">
        <dc:format>image/svg+xml</dc:format>
        <dc:type
           rdf:resource="http://purl.org/dc/dcmitype/StillImage" />
      </cc:Work>
    </rdf:RDF>
  </metadata>
  <g
     inkscape:groupmode="layer"
     id="layer3"
     inkscape:label="Back" />
  <g
     inkscape:label="Middle"
     inkscape:groupmode="layer"
     id="layer1"
     sodipodi:insensitive="true" />
  <g
     inkscape:groupmode="layer"
     id="layer4"
     inkscape:label="Crystal" />
  <g
     inkscape:groupmode="layer"
     id="layer2"
     inkscape:label="Front">
    <path
       id="path918-5"
       style="fill:#808080;stroke:#000000;stroke-width:1.05833;stroke-linecap:butt;stroke-linejoin:miter;stroke-miterlimit:4;stroke-dasharray:none;stroke-opacity:1"
       d="m 1.0583327,5.2916665 c 0,-4.2333332 6.3500004,-4.2333332 6.3500004,0 v 1.0583333 l 52.9166649,0 V 5.2916665 c 0,-4.2333332 6.35,-4.2333332 6.35,0 v 6.3499995 c 0,4.233334 -6.35,4.233334 -6.35,0 v -1.058333 l -52.9166649,0 v 1.058333 c 0,4.233334 -6.3500004,4.233334 -6.3500004,0 z"
       sodipodi:nodetypes="ccccccccccccc" />
    <g
       id="g866"
       transform="matrix(0.62499999,0,0,0.5,7.011458,4.2333332)"
       style="stroke-width:1.78885">
      <rect
         style="fill:#666666;stroke:#000000;stroke-width:0.946604;stroke-linecap:round;stroke-miterlimit:4;stroke-dasharray:none;stop-color:#000000"
         id="rect839"
         width="8.4666662"
         height="4.2333331"
         x="8.4666662"
         y="1.0583333"
         rx="1.6741224e-07"
         ry="3.9158704e-06" />
      <rect
         style="fill:#00ff00;stroke:none;stroke-width:0.946604;stroke-linecap:round;stroke-miterlimit:4;stroke-dasharray:none;stop-color:#000000"
         id="rect841"
         width="3.175"
         height="2.1166666"
         x="9.5249996"
         y="2.1166666"
         rx="1.6741224e-07"
         ry="3.9158704e-06" />
      <rect
         style="fill:#ff0000;stroke:none;stroke-width:0.946604;stroke-linecap:round;stroke-miterlimit:4;stroke-dasharray:none;stop-color:#000000"
         id="rect841-3"
         width="3.1750004"
         height="2.1166666"
         x="12.7"
         y="2.1166666"
         rx="1.6741224e-07"
         ry="3.9158704e-06" />
    </g>
    <g
       id="g866-6"
       transform="matrix(-0.62500005,0,0,-0.49999987,60.854166,12.699999)"
       style="stroke-width:1.78885">
      <rect
         style="fill:#666666;stroke:#000000;stroke-width:0.946608;stroke-linecap:round;stroke-miterlimit:4;stroke-dasharray:none;stop-color:#000000"
         id="rect839-7"
         width="8.4666662"
         height="4.2333331"
         x="8.4666662"
         y="1.0583333"
         rx="1.6741225e-07"
         ry="3.9158717e-06" />
      <rect
         style="fill:#00ff00;stroke:none;stroke-width:0.946608;stroke-linecap:round;stroke-miterlimit:4;stroke-dasharray:none;stop-color:#000000"
         id="rect841-5"
         width="3.175"
         height="2.1166666"
         x="9.5249996"
         y="2.1166666"
         rx="1.6741225e-07"
         ry="3.9158717e-06" />
      <rect
         style="fill:#ff0000;stroke:none;stroke-width:0.946608;stroke-linecap:round;stroke-miterlimit:4;stroke-dasharray:none;stop-color:#000000"
         id="rect841-3-3"
         width="3.1750004"
         height="2.1166666"
         x="12.7"
         y="2.1166666"
         rx="1.6741225e-07"
         ry="3.9158717e-06" />
    </g>
    <path
       style="fill:none;stroke:#000000;stroke-width:1.05833;stroke-linecap:butt;stroke-linejoin:miter;stroke-miterlimit:4;stroke-dasharray:none;stroke-opacity:1"
       d="M 33.866666,6.3499998 V 10.583333"
       id="path941"
       sodipodi:nodetypes="cc" />
  </g>
</svg>
