<?xml version="1.0" encoding="UTF-8" standalone="no"?>
<svg
   width="256"
   height="96"
   viewBox="0 0 67.733333 25.399998"
   version="1.1"
   id="svg8"
   inkscape:version="1.1.2 (0a00cf5339, 2022-02-04)"
   sodipodi:docname="crystaliron_airlock.svg"
   xmlns:inkscape="http://www.inkscape.org/namespaces/inkscape"
   xmlns:sodipodi="http://sodipodi.sourceforge.net/DTD/sodipodi-0.dtd"
   xmlns="http://www.w3.org/2000/svg"
   xmlns:svg="http://www.w3.org/2000/svg"
   xmlns:rdf="http://www.w3.org/1999/02/22-rdf-syntax-ns#"
   xmlns:cc="http://creativecommons.org/ns#"
   xmlns:dc="http://purl.org/dc/elements/1.1/">
  <defs
     id="defs2" />
  <sodipodi:namedview
     id="base"
     pagecolor="#ffffff"
     bordercolor="#666666"
     borderopacity="1.0"
     inkscape:pageopacity="0.0"
     inkscape:pageshadow="2"
     inkscape:zoom="5.6"
     inkscape:cx="126.51786"
     inkscape:cy="37.857143"
     inkscape:document-units="mm"
     inkscape:current-layer="layer2"
     inkscape:document-rotation="0"
     showgrid="true"
     units="px"
     inkscape:window-width="2560"
     inkscape:window-height="1357"
     inkscape:window-x="1200"
     inkscape:window-y="240"
     inkscape:window-maximized="1"
     inkscape:pagecheckerboard="0">
    <inkscape:grid
       type="xygrid"
       id="grid833"
       spacingx="1.0583333"
       units="px"
       spacingy="1.0583333"
       empspacing="8" />
  </sodipodi:namedview>
  <metadata
     id="metadata5">
    <rdf:RDF>
      <cc:Work
         rdf:about="">
        <dc:format>image/svg+xml</dc:format>
        <dc:type
           rdf:resource="http://purl.org/dc/dcmitype/StillImage" />
      </cc:Work>
    </rdf:RDF>
  </metadata>
  <g
     inkscape:groupmode="layer"
     id="layer3"
     inkscape:label="Back">
    <rect
       style="fill:#e6e6e6;stroke:none;stroke-width:1.00012;stroke-linecap:square;stroke-linejoin:round;stop-color:#000000"
       id="rect855"
       width="67.73333"
       height="10.583332"
       x="0"
       y="7.4083333"
       rx="1.0463265e-07"
       ry="1.9579352e-06" />
  </g>
  <g
     inkscape:label="Middle"
     inkscape:groupmode="layer"
     id="layer1" />
  <g
     inkscape:groupmode="layer"
     id="layer4"
     inkscape:label="Crystal"
     style="opacity:1" />
  <g
     inkscape:groupmode="layer"
     id="layer2"
     inkscape:label="Front">
    <rect
       style="fill:#000000;stroke:none;stroke-width:1.00012;stroke-linecap:square;stroke-linejoin:round;stop-color:#000000"
       id="rect853"
       width="8.4666662"
       height="3.1750023"
       x="0"
       y="17.991667"
       rx="1.0463258e-07"
       ry="1.9579352e-06" />
    <rect
       style="fill:#000000;stroke:none;stroke-width:1.00012;stroke-linecap:square;stroke-linejoin:round;stop-color:#000000"
       id="rect853-1-6"
       width="8.4666662"
       height="3.175"
       x="59.266666"
       y="17.991667"
       rx="1.0463258e-07"
       ry="1.9579352e-06" />
    <rect
       style="fill:#000000;stroke:none;stroke-width:1.00012;stroke-linecap:square;stroke-linejoin:round;stop-color:#000000"
       id="rect853-1"
       width="8.4666662"
       height="3.175"
       x="0"
       y="4.2333336"
       rx="1.0463258e-07"
       ry="1.9579352e-06" />
    <rect
       style="fill:#000000;stroke:none;stroke-width:1.00012;stroke-linecap:square;stroke-linejoin:round;stop-color:#000000"
       id="rect853-1-7"
       width="3.175"
       height="10.583334"
       x="5.291667"
       y="7.4083338"
       rx="1.046326e-07"
       ry="1.9579352e-06" />
    <rect
       style="fill:#000000;stroke:none;stroke-width:1.00012;stroke-linecap:square;stroke-linejoin:round;stop-color:#000000"
       id="rect853-1-7-3"
       width="50.799995"
       height="2.1166673"
       x="8.466671"
       y="7.4083323"
       rx="1.046326e-07"
       ry="1.9579352e-06" />
    <rect
       style="fill:#000000;stroke:none;stroke-width:1.00012;stroke-linecap:square;stroke-linejoin:round;stop-color:#000000"
       id="rect853-1-7-3-5"
       width="50.799995"
       height="2.1166673"
       x="8.4666662"
       y="15.874998"
       rx="1.046326e-07"
       ry="1.9579352e-06" />
    <rect
       style="fill:#000000;stroke:none;stroke-width:1.00012;stroke-linecap:square;stroke-linejoin:round;stop-color:#000000"
       id="rect853-1-5"
       width="3.1749992"
       height="11.641665"
       x="59.266666"
       y="7.4083328"
       rx="1.0463258e-07"
       ry="1.9579352e-06" />
    <rect
       style="fill:#000000;stroke:none;stroke-width:1.00012;stroke-linecap:square;stroke-linejoin:round;stop-color:#000000"
       id="rect853-1-3"
       width="8.4666662"
       height="3.175"
       x="59.266666"
       y="4.2333331"
       rx="1.0463258e-07"
       ry="1.9579352e-06" />
    <rect
       style="fill:#000000;stroke:none;stroke-width:1.00012;stroke-linecap:square;stroke-linejoin:round;stop-color:#000000"
       id="rect1327"
       height="10.583334"
       x="5.291667"
       y="7.4083338"
       rx="1.046326e-07"
       ry="1.9579352e-06"
       width="3.175" />
    <path
       style="fill:#ff0000;stroke:none;stroke-width:0;stroke-linecap:round;stroke-linejoin:round;stop-color:#000000;stroke-miterlimit:4;stroke-dasharray:none"
       d="m 8.4666663,21.166666 3.1749997,-3.175 H 8.4666663 v 3.175"
       id="path1440" />
    <path
       style="fill:#ffff00;stroke:none;stroke-width:0;stroke-linecap:round;stroke-linejoin:round;stroke-miterlimit:4;stroke-dasharray:none;stop-color:#000000"
       d="m 8.4666666,21.166666 h 3.1749994 l 3.175,-3.175 h -3.175 l -3.1749994,3.175 v 0"
       id="path1621" />
    <path
       style="fill:#ff0000;stroke:none;stroke-width:0;stroke-linecap:round;stroke-linejoin:round;stroke-miterlimit:4;stroke-dasharray:none;stop-color:#000000"
       d="m 11.641667,21.166666 h 3.174999 l 3.175,-3.175 h -3.175 l -3.174999,3.175 v 0"
       id="path1621-6" />
    <path
       style="fill:#ff0000;stroke:none;stroke-width:0;stroke-linecap:round;stroke-linejoin:round;stroke-miterlimit:4;stroke-dasharray:none;stop-color:#000000"
       d="m 17.991667,21.166666 h 3.174999 l 3.175,-3.175 h -3.175 l -3.174999,3.175 v 0"
       id="path1621-6-9" />
    <path
       style="fill:#ffff00;stroke:none;stroke-width:0;stroke-linecap:round;stroke-linejoin:round;stroke-miterlimit:4;stroke-dasharray:none;stop-color:#000000"
       d="m 14.816666,21.166666 h 3.175 l 3.175,-3.175 h -3.175 l -3.175,3.175 v 0"
       id="path1621-2" />
    <path
       style="fill:#ffff00;stroke:none;stroke-width:0;stroke-linecap:round;stroke-linejoin:round;stroke-miterlimit:4;stroke-dasharray:none;stop-color:#000000"
       d="m 21.166666,21.166666 h 3.175 l 3.175,-3.175 h -3.175 l -3.175,3.175 v 0"
       id="path1621-1" />
    <path
       style="fill:#ff0000;stroke:none;stroke-width:0;stroke-linecap:round;stroke-linejoin:round;stroke-miterlimit:4;stroke-dasharray:none;stop-color:#000000"
       d="m 24.341667,21.166666 h 3.174999 l 3.174999,-3.175 h -3.175 l -3.174998,3.175 v 0"
       id="path1621-6-2" />
    <path
       style="fill:#ff0000;stroke:none;stroke-width:0;stroke-linecap:round;stroke-linejoin:round;stroke-miterlimit:4;stroke-dasharray:none;stop-color:#000000"
       d="m 30.691666,21.166666 h 3.174999 l 3.175,-3.175 h -3.175 l -3.174999,3.175 v 0"
       id="path1621-6-9-7" />
    <path
       style="fill:#ffff00;stroke:none;stroke-width:0;stroke-linecap:round;stroke-linejoin:round;stroke-miterlimit:4;stroke-dasharray:none;stop-color:#000000"
       d="m 27.516666,21.166666 h 3.174999 l 3.175,-3.175 h -3.175 l -3.175,3.175 v 0"
       id="path1621-2-0" />
    <path
       style="fill:#ffff00;stroke:none;stroke-width:0;stroke-linecap:round;stroke-linejoin:round;stroke-miterlimit:4;stroke-dasharray:none;stop-color:#000000"
       d="m 33.866665,21.166666 h 3.174999 l 3.175,-3.175 h -3.175 l -3.174999,3.175 v 0"
       id="path1621-9" />
    <path
       style="fill:#ff0000;stroke:none;stroke-width:0;stroke-linecap:round;stroke-linejoin:round;stroke-miterlimit:4;stroke-dasharray:none;stop-color:#000000"
       d="m 37.041665,21.166666 h 3.174999 l 3.175,-3.175 h -3.175 l -3.174999,3.175 v 0"
       id="path1621-6-3" />
    <path
       style="fill:#ff0000;stroke:none;stroke-width:0;stroke-linecap:round;stroke-linejoin:round;stroke-miterlimit:4;stroke-dasharray:none;stop-color:#000000"
       d="m 43.391665,21.166666 h 3.174999 l 3.175,-3.175 h -3.175 l -3.174999,3.175 v 0"
       id="path1621-6-9-6" />
    <path
       style="fill:#ffff00;stroke:none;stroke-width:0;stroke-linecap:round;stroke-linejoin:round;stroke-miterlimit:4;stroke-dasharray:none;stop-color:#000000"
       d="m 40.216664,21.166666 h 3.175 l 3.175,-3.175 h -3.175 l -3.175,3.175 v 0"
       id="path1621-2-06" />
    <path
       style="fill:#ffff00;stroke:none;stroke-width:0;stroke-linecap:round;stroke-linejoin:round;stroke-miterlimit:4;stroke-dasharray:none;stop-color:#000000"
       d="m 46.566666,21.166666 h 3.174999 l 3.175,-3.175 h -3.175 l -3.174999,3.175 v 0"
       id="path1621-26" />
    <path
       style="fill:#ff0000;stroke:none;stroke-width:0;stroke-linecap:round;stroke-linejoin:round;stroke-miterlimit:4;stroke-dasharray:none;stop-color:#000000"
       d="m 49.741666,21.166666 h 3.174999 l 3.175,-3.175 h -3.175 l -3.174999,3.175 v 0"
       id="path1621-6-1" />
    <path
       style="fill:#ff0000;stroke:none;stroke-width:0;stroke-linecap:round;stroke-linejoin:round;stroke-miterlimit:4;stroke-dasharray:none;stop-color:#000000"
       d="m 56.091666,21.166666 h 3.174999 v -3.175 l -3.174999,3.175 v 0"
       id="path1621-6-9-8"
       sodipodi:nodetypes="ccccc" />
    <path
       style="fill:#ffff00;stroke:none;stroke-width:0;stroke-linecap:round;stroke-linejoin:round;stroke-miterlimit:4;stroke-dasharray:none;stop-color:#000000"
       d="m 52.916665,21.166666 h 3.175 l 3.175,-3.175 h -3.175 l -3.175,3.175 v 0"
       id="path1621-2-7" />
    <g
       id="g3083"
       transform="translate(-37.041665)">
      <rect
         style="fill:#000000;stroke:none;stroke-width:0;stroke-linecap:round;stroke-linejoin:round;stroke-miterlimit:4;stroke-dasharray:none;stop-color:#000000"
         id="rect2133"
         width="5.2916665"
         height="2.1166666"
         x="49.741665"
         y="5.2916665"
         rx="1.0463265e-07"
         ry="1.9579352e-06" />
      <rect
         style="fill:#00ff00;stroke:none;stroke-width:0;stroke-linecap:round;stroke-linejoin:round;stroke-miterlimit:4;stroke-dasharray:none;stop-color:#000000"
         id="rect2303"
         width="1.0583333"
         height="1.0583333"
         x="51.85833"
         y="5.2916665"
         rx="1.0463265e-07"
         ry="1.9579352e-06" />
      <rect
         style="fill:#ff0000;stroke:none;stroke-width:0;stroke-linecap:round;stroke-linejoin:round;stroke-miterlimit:4;stroke-dasharray:none;stop-color:#000000"
         id="rect2305"
         width="1.0583333"
         height="1.0583333"
         x="50.799999"
         y="5.2916665"
         rx="1.0463265e-07"
         ry="1.9579352e-06" />
    </g>
    <g
       id="g3083-9"
       transform="rotate(180,52.387499,12.7)">
      <rect
         style="fill:#000000;stroke:none;stroke-width:0;stroke-linecap:round;stroke-linejoin:round;stroke-miterlimit:4;stroke-dasharray:none;stop-color:#000000"
         id="rect2133-2"
         width="5.2916665"
         height="2.1166666"
         x="49.741665"
         y="5.2916665"
         rx="1.0463265e-07"
         ry="1.9579352e-06" />
      <rect
         style="fill:#00ff00;stroke:none;stroke-width:0;stroke-linecap:round;stroke-linejoin:round;stroke-miterlimit:4;stroke-dasharray:none;stop-color:#000000"
         id="rect2303-0"
         width="1.0583333"
         height="1.0583333"
         x="51.85833"
         y="5.2916665"
         rx="1.0463265e-07"
         ry="1.9579352e-06" />
      <rect
         style="fill:#ff0000;stroke:none;stroke-width:0;stroke-linecap:round;stroke-linejoin:round;stroke-miterlimit:4;stroke-dasharray:none;stop-color:#000000"
         id="rect2305-2"
         width="1.0583333"
         height="1.0583333"
         x="50.799999"
         y="5.2916665"
         rx="1.0463265e-07"
         ry="1.9579352e-06" />
    </g>
    <path
       style="fill:none;stroke:#000000;stroke-width:1.05833333;stroke-linecap:round;stroke-linejoin:round;stroke-miterlimit:4;stroke-dasharray:none;stop-color:#000000"
       d="m 7.4083331,8.4666664 4.2333329,4.2333326 h 44.449997 l 4.233334,4.233334"
       id="path2496"
       sodipodi:nodetypes="cccc" />
    <rect
       style="fill:#00ffff;stroke:#000000;stroke-width:0.26458333;stroke-linecap:round;stroke-linejoin:round;stroke-miterlimit:4;stroke-dasharray:none;stop-color:#000000"
       id="rect2087"
       width="16.933332"
       height="4.2333331"
       x="25.4"
       y="10.583333"
       rx="1.0463265e-07"
       ry="1.9579352e-06" />
  </g>
</svg>
