<?xml version="1.0" encoding="UTF-8" standalone="no"?>
<svg
   width="256"
   height="64"
   viewBox="0 0 67.733333 16.933332"
   version="1.1"
   id="svg8"
   inkscape:version="1.1.2 (0a00cf5339, 2022-02-04)"
   sodipodi:docname="inner_bonded_airlock_door.svg"
   xmlns:inkscape="http://www.inkscape.org/namespaces/inkscape"
   xmlns:sodipodi="http://sodipodi.sourceforge.net/DTD/sodipodi-0.dtd"
   xmlns="http://www.w3.org/2000/svg"
   xmlns:svg="http://www.w3.org/2000/svg"
   xmlns:rdf="http://www.w3.org/1999/02/22-rdf-syntax-ns#"
   xmlns:cc="http://creativecommons.org/ns#"
   xmlns:dc="http://purl.org/dc/elements/1.1/">
  <defs
     id="defs2" />
  <sodipodi:namedview
     id="base"
     pagecolor="#ffffff"
     bordercolor="#666666"
     borderopacity="1.0"
     inkscape:pageopacity="0.0"
     inkscape:pageshadow="2"
     inkscape:zoom="5.6"
     inkscape:cx="172.23214"
     inkscape:cy="26.696429"
     inkscape:document-units="mm"
     inkscape:current-layer="g866-6"
     inkscape:document-rotation="0"
     showgrid="true"
     units="px"
     inkscape:window-width="2560"
     inkscape:window-height="1403"
     inkscape:window-x="3760"
     inkscape:window-y="142"
     inkscape:window-maximized="1"
     inkscape:pagecheckerboard="0">
    <inkscape:grid
       type="xygrid"
       id="grid833"
       spacingx="0.52916664"
       units="px"
       spacingy="0.52916664"
       empspacing="8" />
  </sodipodi:namedview>
  <metadata
     id="metadata5">
    <rdf:RDF>
      <cc:Work
         rdf:about="">
        <dc:format>image/svg+xml</dc:format>
        <dc:type
           rdf:resource="http://purl.org/dc/dcmitype/StillImage" />
      </cc:Work>
    </rdf:RDF>
  </metadata>
  <g
     inkscape:groupmode="layer"
     id="layer3"
     inkscape:label="Back">
    <rect
       style="fill:#666666;stroke:none;stroke-width:1.00012;stroke-linecap:square;stroke-linejoin:round;stop-color:#000000"
       id="rect855"
       width="67.733002"
       height="10.583333"
       x="3.8945976e-07"
       y="3.175"
       rx="1.0463264e-07"
       ry="1.9579352e-06" />
    <path
       id="rect1360"
       style="fill:none;stroke:#000000;stroke-width:1.05833;stroke-linecap:round;stroke-linejoin:round;stop-color:#000000"
       d="M 1.0463265e-7,3.175 24.341666,3.1749999 26.458333,5.2916665 H 41.274999 L 43.391665,3.1749999 67.73333,3.175 v 1.9e-6 10.5833291 2e-6 l -24.341665,0 -2.116666,-2.116667 H 26.458332 l -2.116666,2.116667 -24.34166589536735,0 L 0,13.758331 V 3.1750019 Z"
       sodipodi:nodetypes="ccccccccccccccccc" />
    <path
       style="fill:none;stroke:#000000;stroke-width:1.05833;stroke-linecap:round;stroke-linejoin:round;stroke-miterlimit:4;stroke-dasharray:none;stop-color:#000000"
       d="M 26.458332,3.175 H 41.274999"
       id="path2909" />
    <path
       style="fill:none;stroke:#000000;stroke-width:1.05833;stroke-linecap:round;stroke-linejoin:round;stroke-miterlimit:4;stroke-dasharray:none;stop-color:#000000"
       d="M 26.458332,13.758333 H 41.274999"
       id="path2911" />
    <g
       id="g2647">
      <rect
         style="fill:#808080;fill-opacity:0.995733;stroke:#000000;stroke-width:1.05833;stroke-linecap:round;stroke-linejoin:round;stroke-miterlimit:4;stroke-dasharray:none;stroke-opacity:0.999962;stop-color:#000000"
         id="rect46"
         width="5.291666"
         height="14.816667"
         x="0.52916694"
         y="1.0583333"
         rx="2.1166668"
         ry="2.1166666" />
      <path
         style="fill:#ff0000;fill-opacity:0.995733;stroke:none;stroke-width:1.05833;stroke-linecap:round;stroke-linejoin:round;stroke-miterlimit:4;stroke-dasharray:none;stroke-opacity:0.999962;stop-color:#000000"
         d="m 1.0583333,3.7041664 0,1.5875 4.2333331,-2.1166666 -1e-7,-1.5874999 z"
         id="path1227"
         sodipodi:nodetypes="ccccc" />
      <path
         style="fill:#ffff00;fill-opacity:0.995733;stroke:none;stroke-width:1.05833;stroke-linecap:round;stroke-linejoin:round;stroke-miterlimit:4;stroke-dasharray:none;stroke-opacity:0.999962;stop-color:#000000"
         d="m 1.0583333,5.2916664 v 1.5875 l 4.2333331,-2.1166666 -1e-7,-1.5874999 z"
         id="path1227-6"
         sodipodi:nodetypes="ccccc" />
      <path
         style="fill:#ff0000;fill-opacity:0.995733;stroke:none;stroke-width:1.05833;stroke-linecap:round;stroke-linejoin:round;stroke-miterlimit:4;stroke-dasharray:none;stroke-opacity:0.999962;stop-color:#000000"
         d="m 1.0583334,6.8791662 v 1.5875 l 4.2333331,-2.1166666 -10e-8,-1.5874999 z"
         id="path1227-7"
         sodipodi:nodetypes="ccccc" />
      <path
         style="fill:#ffff00;fill-opacity:0.995733;stroke:none;stroke-width:1.05833;stroke-linecap:round;stroke-linejoin:round;stroke-miterlimit:4;stroke-dasharray:none;stroke-opacity:0.999962;stop-color:#000000"
         d="m 1.0583334,8.4666662 v 1.5874998 l 4.2333331,-2.1166664 -10e-8,-1.5874999 z"
         id="path1227-6-5"
         sodipodi:nodetypes="ccccc" />
      <path
         style="fill:#ff0000;fill-opacity:0.995733;stroke:none;stroke-width:1.05833;stroke-linecap:round;stroke-linejoin:round;stroke-miterlimit:4;stroke-dasharray:none;stroke-opacity:0.999962;stop-color:#000000"
         d="m 1.0583333,10.054166 v 1.5875 l 4.2333331,-2.1166664 -1e-7,-1.5874999 z"
         id="path1227-3"
         sodipodi:nodetypes="ccccc" />
      <path
         style="fill:#ffff00;fill-opacity:0.995733;stroke:none;stroke-width:1.05833;stroke-linecap:round;stroke-linejoin:round;stroke-miterlimit:4;stroke-dasharray:none;stroke-opacity:0.999962;stop-color:#000000"
         d="m 1.0583333,11.641666 v 1.5875 l 4.2333331,-2.116666 -1e-7,-1.5875003 z"
         id="path1227-6-56"
         sodipodi:nodetypes="ccccc" />
      <path
         style="fill:#ff0000;fill-opacity:0.995733;stroke:none;stroke-width:1.05833;stroke-linecap:round;stroke-linejoin:round;stroke-miterlimit:4;stroke-dasharray:none;stroke-opacity:0.999962;stop-color:#000000"
         d="m 1.0583333,13.229166 v 1.5875 l 4.2333331,-2.116667 -1e-7,-1.5875 z"
         id="path1227-2"
         sodipodi:nodetypes="ccccc" />
      <path
         style="fill:#ffff00;fill-opacity:0.995733;stroke:none;stroke-width:1.05833;stroke-linecap:round;stroke-linejoin:round;stroke-miterlimit:4;stroke-dasharray:none;stroke-opacity:0.999962;stop-color:#000000"
         d="m 1.0583333,14.816666 0,0.529167 1.2136175,0.451524 3.0197156,-1.509857 -1e-7,-1.5875 z"
         id="path1227-6-9"
         sodipodi:nodetypes="cccccc" />
      <path
         style="fill:#ff0000;fill-opacity:0.995733;stroke:none;stroke-width:1.05833;stroke-linecap:round;stroke-linejoin:round;stroke-miterlimit:4;stroke-dasharray:none;stroke-opacity:0.999962;stop-color:#000000"
         d="m 2.1166666,15.874999 h 1.0583332 l 2.1166666,-0.529166 -1e-7,-1.058334 z"
         id="path1227-1"
         sodipodi:nodetypes="ccccc" />
      <path
         style="fill:#ffff00;fill-opacity:0.995733;stroke:none;stroke-width:1.05833;stroke-linecap:round;stroke-linejoin:round;stroke-miterlimit:4;stroke-dasharray:none;stroke-opacity:0.999962;stop-color:#000000"
         d="m 1.0583333,2.1166666 v 1.5875 L 5.2916664,1.5875006 2.6458332,1.0583333 Z"
         id="path1227-6-2"
         sodipodi:nodetypes="ccccc" />
      <rect
         style="fill:none;fill-opacity:0.995733;stroke:#000000;stroke-width:1.05833;stroke-linecap:round;stroke-linejoin:round;stroke-miterlimit:4;stroke-dasharray:none;stroke-opacity:0.999962;stop-color:#000000"
         id="rect46-7"
         width="5.291666"
         height="14.816667"
         x="0.52916723"
         y="1.0583333"
         rx="2.1166668"
         ry="2.1166666" />
    </g>
    <g
       id="g2647-0"
       transform="translate(61.38333)">
      <rect
         style="fill:#808080;fill-opacity:0.995733;stroke:#000000;stroke-width:1.05833;stroke-linecap:round;stroke-linejoin:round;stroke-miterlimit:4;stroke-dasharray:none;stroke-opacity:0.999962;stop-color:#000000"
         id="rect46-9"
         width="5.291666"
         height="14.816667"
         x="0.52916694"
         y="1.0583333"
         rx="2.1166668"
         ry="2.1166666" />
      <path
         style="fill:#ff0000;fill-opacity:0.995733;stroke:none;stroke-width:1.05833;stroke-linecap:round;stroke-linejoin:round;stroke-miterlimit:4;stroke-dasharray:none;stroke-opacity:0.999962;stop-color:#000000"
         d="m 1.0583333,3.7041664 v 1.5875 l 4.2333331,-2.1166666 -1e-7,-1.5874999 z"
         id="path1227-36"
         sodipodi:nodetypes="ccccc" />
      <path
         style="fill:#ffff00;fill-opacity:0.995733;stroke:none;stroke-width:1.05833;stroke-linecap:round;stroke-linejoin:round;stroke-miterlimit:4;stroke-dasharray:none;stroke-opacity:0.999962;stop-color:#000000"
         d="m 1.0583333,5.2916664 v 1.5875 l 4.2333331,-2.1166666 -1e-7,-1.5874999 z"
         id="path1227-6-0"
         sodipodi:nodetypes="ccccc" />
      <path
         style="fill:#ff0000;fill-opacity:0.995733;stroke:none;stroke-width:1.05833;stroke-linecap:round;stroke-linejoin:round;stroke-miterlimit:4;stroke-dasharray:none;stroke-opacity:0.999962;stop-color:#000000"
         d="m 1.0583334,6.8791662 v 1.5875 l 4.2333331,-2.1166666 -10e-8,-1.5874999 z"
         id="path1227-7-6"
         sodipodi:nodetypes="ccccc" />
      <path
         style="fill:#ffff00;fill-opacity:0.995733;stroke:none;stroke-width:1.05833;stroke-linecap:round;stroke-linejoin:round;stroke-miterlimit:4;stroke-dasharray:none;stroke-opacity:0.999962;stop-color:#000000"
         d="m 1.0583334,8.4666662 v 1.5874998 l 4.2333331,-2.1166664 -10e-8,-1.5874999 z"
         id="path1227-6-5-2"
         sodipodi:nodetypes="ccccc" />
      <path
         style="fill:#ff0000;fill-opacity:0.995733;stroke:none;stroke-width:1.05833;stroke-linecap:round;stroke-linejoin:round;stroke-miterlimit:4;stroke-dasharray:none;stroke-opacity:0.999962;stop-color:#000000"
         d="m 1.0583333,10.054166 v 1.5875 l 4.2333331,-2.1166664 -1e-7,-1.5874999 z"
         id="path1227-3-6"
         sodipodi:nodetypes="ccccc" />
      <path
         style="fill:#ffff00;fill-opacity:0.995733;stroke:none;stroke-width:1.05833;stroke-linecap:round;stroke-linejoin:round;stroke-miterlimit:4;stroke-dasharray:none;stroke-opacity:0.999962;stop-color:#000000"
         d="m 1.0583333,11.641666 v 1.5875 l 4.2333331,-2.116666 -1e-7,-1.5875003 z"
         id="path1227-6-56-1"
         sodipodi:nodetypes="ccccc" />
      <path
         style="fill:#ff0000;fill-opacity:0.995733;stroke:none;stroke-width:1.05833;stroke-linecap:round;stroke-linejoin:round;stroke-miterlimit:4;stroke-dasharray:none;stroke-opacity:0.999962;stop-color:#000000"
         d="m 1.0583333,13.229166 v 1.5875 l 4.2333331,-2.116667 -1e-7,-1.5875 z"
         id="path1227-2-8"
         sodipodi:nodetypes="ccccc" />
      <path
         style="fill:#ffff00;fill-opacity:0.995733;stroke:none;stroke-width:1.05833;stroke-linecap:round;stroke-linejoin:round;stroke-miterlimit:4;stroke-dasharray:none;stroke-opacity:0.999962;stop-color:#000000"
         d="m 1.0583333,14.816666 v 0.529167 l 1.2136175,0.451524 3.0197156,-1.509857 -1e-7,-1.5875 z"
         id="path1227-6-9-7"
         sodipodi:nodetypes="cccccc" />
      <path
         style="fill:#ff0000;fill-opacity:0.995733;stroke:none;stroke-width:1.05833;stroke-linecap:round;stroke-linejoin:round;stroke-miterlimit:4;stroke-dasharray:none;stroke-opacity:0.999962;stop-color:#000000"
         d="m 2.1166666,15.874999 h 1.0583332 l 2.1166666,-0.529166 -1e-7,-1.058334 z"
         id="path1227-1-9"
         sodipodi:nodetypes="ccccc" />
      <path
         style="fill:#ffff00;fill-opacity:0.995733;stroke:none;stroke-width:1.05833;stroke-linecap:round;stroke-linejoin:round;stroke-miterlimit:4;stroke-dasharray:none;stroke-opacity:0.999962;stop-color:#000000"
         d="m 1.0583333,2.1166666 v 1.5875 L 5.2916664,1.5875006 2.6458332,1.0583333 Z"
         id="path1227-6-2-2"
         sodipodi:nodetypes="ccccc" />
      <rect
         style="fill:none;fill-opacity:0.995733;stroke:#000000;stroke-width:1.05833;stroke-linecap:round;stroke-linejoin:round;stroke-miterlimit:4;stroke-dasharray:none;stroke-opacity:0.999962;stop-color:#000000"
         id="rect46-7-0"
         width="5.291666"
         height="14.816667"
         x="0.52916723"
         y="1.0583333"
         rx="2.1166668"
         ry="2.1166666" />
    </g>
  </g>
  <g
     inkscape:label="Middle"
     inkscape:groupmode="layer"
     id="layer1"
     sodipodi:insensitive="true" />
  <g
     inkscape:groupmode="layer"
     id="layer4"
     inkscape:label="Crystal">
    <path
       style="fill:none;stroke:#000000;stroke-width:1.05833333;stroke-linecap:round;stroke-linejoin:miter;stroke-opacity:1;stroke-miterlimit:4;stroke-dasharray:none"
       d="M 8.4666663,13.758333 16.933333,8.4666663 H 50.799997 L 59.266663,3.175"
       id="path837" />
  </g>
  <g
     inkscape:groupmode="layer"
     id="layer2"
     inkscape:label="Front">
    <g
       id="g866"
       transform="translate(4.233333)">
      <rect
         style="fill:#666666;stroke:#000000;stroke-width:0.529167;stroke-linecap:round;stroke-miterlimit:4;stroke-dasharray:none;stop-color:#000000"
         id="rect839"
         width="8.4666662"
         height="4.2333331"
         x="8.4666662"
         y="1.0583333"
         rx="1.0463265e-07"
         ry="1.9579352e-06" />
      <rect
         style="fill:#00ff00;stroke:none;stroke-width:0.529167;stroke-linecap:round;stroke-miterlimit:4;stroke-dasharray:none;stop-color:#000000"
         id="rect841"
         width="3.175"
         height="2.1166666"
         x="9.5249996"
         y="2.1166666"
         rx="1.0463265e-07"
         ry="1.9579352e-06" />
      <rect
         style="fill:#ff0000;stroke:none;stroke-width:0.529167;stroke-linecap:round;stroke-miterlimit:4;stroke-dasharray:none;stop-color:#000000"
         id="rect841-3"
         width="3.1750004"
         height="2.1166666"
         x="12.7"
         y="2.1166666"
         rx="1.0463265e-07"
         ry="1.9579352e-06" />
    </g>
    <g
       id="g866-6"
       transform="rotate(180,31.749999,8.4666664)">
      <rect
         style="fill:#666666;stroke:#000000;stroke-width:0.529167;stroke-linecap:round;stroke-miterlimit:4;stroke-dasharray:none;stop-color:#000000"
         id="rect839-7"
         width="8.4666662"
         height="4.2333331"
         x="8.4666662"
         y="1.0583333"
         rx="1.0463265e-07"
         ry="1.9579352e-06" />
      <rect
         style="fill:#00ff00;stroke:none;stroke-width:0.529167;stroke-linecap:round;stroke-miterlimit:4;stroke-dasharray:none;stop-color:#000000"
         id="rect841-5"
         width="3.175"
         height="2.1166666"
         x="9.5249996"
         y="2.1166666"
         rx="1.0463265e-07"
         ry="1.9579352e-06" />
      <rect
         style="fill:#ff0000;stroke:none;stroke-width:0.529167;stroke-linecap:round;stroke-miterlimit:4;stroke-dasharray:none;stop-color:#000000"
         id="rect841-3-3"
         width="3.1750004"
         height="2.1166666"
         x="12.7"
         y="2.1166666"
         rx="1.0463265e-07"
         ry="1.9579352e-06" />
    </g>
  </g>
</svg>
