<?xml version="1.0" encoding="UTF-8" standalone="no"?>
<svg
   width="256"
   height="96"
   viewBox="0 0 67.733333 25.399998"
   version="1.1"
   id="svg8"
   inkscape:version="1.1.2 (0a00cf5339, 2022-02-04)"
   sodipodi:docname="titanium_steel_window.svg"
   xmlns:inkscape="http://www.inkscape.org/namespaces/inkscape"
   xmlns:sodipodi="http://sodipodi.sourceforge.net/DTD/sodipodi-0.dtd"
   xmlns="http://www.w3.org/2000/svg"
   xmlns:svg="http://www.w3.org/2000/svg"
   xmlns:rdf="http://www.w3.org/1999/02/22-rdf-syntax-ns#"
   xmlns:cc="http://creativecommons.org/ns#"
   xmlns:dc="http://purl.org/dc/elements/1.1/">
  <defs
     id="defs2" />
  <sodipodi:namedview
     id="base"
     pagecolor="#ffffff"
     bordercolor="#666666"
     borderopacity="1.0"
     inkscape:pageopacity="0.0"
     inkscape:pageshadow="2"
     inkscape:zoom="5.6"
     inkscape:cx="108.66071"
     inkscape:cy="43.303571"
     inkscape:document-units="mm"
     inkscape:current-layer="layer3"
     inkscape:document-rotation="0"
     showgrid="true"
     units="px"
     inkscape:window-width="2560"
     inkscape:window-height="1343"
     inkscape:window-x="1200"
     inkscape:window-y="142"
     inkscape:window-maximized="1"
     inkscape:pagecheckerboard="0">
    <inkscape:grid
       type="xygrid"
       id="grid833"
       spacingx="1.0583333"
       units="px"
       spacingy="1.0583333"
       empspacing="8" />
  </sodipodi:namedview>
  <metadata
     id="metadata5">
    <rdf:RDF>
      <cc:Work
         rdf:about="">
        <dc:format>image/svg+xml</dc:format>
        <dc:type
           rdf:resource="http://purl.org/dc/dcmitype/StillImage" />
      </cc:Work>
    </rdf:RDF>
  </metadata>
  <g
     inkscape:groupmode="layer"
     id="layer3"
     inkscape:label="Back">
    <rect
       style="fill:#53676c;stroke:none;stroke-width:1.00012;stroke-linecap:square;stroke-linejoin:round;stop-color:#000000;fill-opacity:1"
       id="rect855"
       width="67.73333"
       height="10.583332"
       x="0"
       y="7.4083333"
       rx="1.0463265e-07"
       ry="1.9579352e-06" />
    <path
       style="fill:#000000;stroke:none;stroke-width:0;stroke-linecap:round;stroke-linejoin:round;stop-color:#000000;stroke-miterlimit:4;stroke-dasharray:none"
       d="m 8.4666664,4.2333331 1.058333,1.0583334 H 8.4666664 V 4.2333331"
       id="path2006" />
    <path
       style="fill:#000000;stroke:none;stroke-width:0;stroke-linecap:round;stroke-linejoin:round;stroke-miterlimit:4;stroke-dasharray:none;stop-color:#000000"
       d="m 9.5249994,20.108333 -1.058333,1.058333 v -1.058333 h 1.058333"
       id="path2006-6" />
    <path
       style="fill:#000000;stroke:none;stroke-width:0;stroke-linecap:round;stroke-linejoin:round;stroke-miterlimit:4;stroke-dasharray:none;stop-color:#000000"
       d="m 59.266664,21.166666 -1.058333,-1.058333 h 1.058333 v 1.058333"
       id="path2006-7" />
    <path
       style="fill:#000000;stroke:none;stroke-width:0;stroke-linecap:round;stroke-linejoin:round;stroke-miterlimit:4;stroke-dasharray:none;stop-color:#000000"
       d="m 58.208332,5.2916665 1.058333,-1.058333 v 1.058333 h -1.058333"
       id="path2006-5" />
  </g>
  <g
     inkscape:label="Middle"
     inkscape:groupmode="layer"
     id="layer1" />
  <g
     inkscape:groupmode="layer"
     id="layer4"
     inkscape:label="Crystal"
     style="opacity:1" />
  <g
     inkscape:groupmode="layer"
     id="layer2"
     inkscape:label="Front">
    <rect
       style="fill:#000000;stroke:none;stroke-width:1.00012;stroke-linecap:square;stroke-linejoin:round;stop-color:#000000"
       id="rect853"
       width="8.4666662"
       height="3.1750023"
       x="0"
       y="17.991667"
       rx="1.0463258e-07"
       ry="1.9579352e-06" />
    <rect
       style="fill:#000000;stroke:none;stroke-width:1.00012;stroke-linecap:square;stroke-linejoin:round;stop-color:#000000"
       id="rect853-1-6"
       width="8.4666662"
       height="3.175"
       x="59.266666"
       y="17.991667"
       rx="1.0463258e-07"
       ry="1.9579352e-06" />
    <rect
       style="fill:#000000;stroke:none;stroke-width:1.00012;stroke-linecap:square;stroke-linejoin:round;stop-color:#000000"
       id="rect853-1"
       width="8.4666662"
       height="3.175"
       x="0"
       y="4.2333336"
       rx="1.0463258e-07"
       ry="1.9579352e-06" />
    <rect
       style="fill:#000000;stroke:none;stroke-width:1.00012;stroke-linecap:square;stroke-linejoin:round;stop-color:#000000"
       id="rect853-1-3"
       width="8.4666662"
       height="3.175"
       x="59.266666"
       y="4.2333331"
       rx="1.0463258e-07"
       ry="1.9579352e-06" />
    <rect
       style="fill:#00ffff;stroke:#000000;stroke-width:0.264583;stroke-linecap:round;stroke-linejoin:round;stroke-miterlimit:4;stroke-dasharray:none;stop-color:#000000"
       id="rect2087"
       width="33.866669"
       height="6.3500004"
       x="16.933331"
       y="9.5249996"
       rx="1.0463265e-07"
       ry="1.9579352e-06" />
    <path
       style="fill:none;stroke:#000000;stroke-width:2.11667;stroke-linecap:round;stroke-linejoin:round;stop-color:#000000"
       d="m 8.4666659,19.049999 h 6.3500001 l 2.116667,-2.116666 h 33.866664 l 2.116666,2.116666 h 6.35"
       id="path1296" />
    <path
       style="fill:none;stroke:#000000;stroke-width:2.11667;stroke-linecap:round;stroke-linejoin:round;stop-color:#000000"
       d="m 59.266665,6.3499998 h -6.35 L 50.799998,8.4666654 H 16.933334 L 14.816668,6.3499998 H 8.4666667"
       id="path1296-3" />
  </g>
</svg>
