<?xml version="1.0" encoding="UTF-8" standalone="no"?>
<svg
   width="512"
   height="256"
   viewBox="0 0 135.46666 67.733335"
   version="1.1"
   id="svg8"
   inkscape:version="1.1.2 (0a00cf5339, 2022-02-04)"
   sodipodi:docname="bunk_beds.svg"
   xmlns:inkscape="http://www.inkscape.org/namespaces/inkscape"
   xmlns:sodipodi="http://sodipodi.sourceforge.net/DTD/sodipodi-0.dtd"
   xmlns:xlink="http://www.w3.org/1999/xlink"
   xmlns="http://www.w3.org/2000/svg"
   xmlns:svg="http://www.w3.org/2000/svg"
   xmlns:rdf="http://www.w3.org/1999/02/22-rdf-syntax-ns#"
   xmlns:cc="http://creativecommons.org/ns#"
   xmlns:dc="http://purl.org/dc/elements/1.1/">
  <defs
     id="defs2">
    <radialGradient
       inkscape:collect="always"
       xlink:href="#linearGradient1321"
       id="radialGradient1325"
       cx="98.954208"
       cy="33.866665"
       fx="98.954208"
       fy="33.866665"
       r="8.9958315"
       gradientTransform="matrix(-8.0753793e-5,-3.9338653,1.3173798,3.3713316e-7,72.401137,364.14488)"
       gradientUnits="userSpaceOnUse" />
    <linearGradient
       inkscape:collect="always"
       id="linearGradient1321">
      <stop
         style="stop-color:#ffffff;stop-opacity:1;"
         offset="0"
         id="stop1317" />
      <stop
         style="stop-color:#999999;stop-opacity:1"
         offset="1"
         id="stop1319" />
    </linearGradient>
    <filter
       inkscape:collect="always"
       style="color-interpolation-filters:sRGB"
       id="filter32"
       x="-0.017950822"
       y="-0.02782674"
       width="1.0359016"
       height="1.0525326">
      <feGaussianBlur
         inkscape:collect="always"
         stdDeviation="0.31749997"
         id="feGaussianBlur34" />
    </filter>
  </defs>
  <sodipodi:namedview
     id="base"
     pagecolor="#ffffff"
     bordercolor="#666666"
     borderopacity="1.0"
     inkscape:pageopacity="0"
     inkscape:pageshadow="2"
     inkscape:zoom="1.979899"
     inkscape:cx="312.38967"
     inkscape:cy="147.22973"
     inkscape:document-units="px"
     inkscape:current-layer="layer2"
     inkscape:document-rotation="0"
     showgrid="true"
     units="px"
     inkscape:window-width="2560"
     inkscape:window-height="1403"
     inkscape:window-x="3760"
     inkscape:window-y="240"
     inkscape:window-maximized="1"
     inkscape:snap-grids="true"
     inkscape:pagecheckerboard="0"
     inkscape:snap-smooth-nodes="true">
    <inkscape:grid
       type="xygrid"
       id="grid833"
       units="px"
       empspacing="4"
       spacingy="1.0583333"
       spacingx="1.0583333" />
  </sodipodi:namedview>
  <metadata
     id="metadata5">
    <rdf:RDF>
      <cc:Work
         rdf:about="">
        <dc:format>image/svg+xml</dc:format>
        <dc:type
           rdf:resource="http://purl.org/dc/dcmitype/StillImage" />
      </cc:Work>
    </rdf:RDF>
  </metadata>
  <g
     inkscape:label="Frame"
     inkscape:groupmode="layer"
     id="layer1"
     style="opacity:1">
    <path
       style="fill:none;stroke:#000000;stroke-width:1.05833;stroke-linecap:butt;stroke-linejoin:miter;stroke-miterlimit:4;stroke-dasharray:none;stroke-opacity:1"
       d="M 80.433324,52.916666 H 114.3"
       id="path861-7" />
    <path
       style="fill:#666666;stroke:#666666;stroke-width:1.05833;stroke-linecap:butt;stroke-linejoin:miter;stroke-miterlimit:4;stroke-dasharray:none;stroke-opacity:1"
       d="M 80.433324,48.683332 H 114.3"
       id="path861" />
    <path
       style="fill:none;stroke:#333333;stroke-width:1.05833;stroke-linecap:butt;stroke-linejoin:miter;stroke-miterlimit:4;stroke-dasharray:none;stroke-opacity:1"
       d="M 80.433324,50.799999 H 114.3"
       id="path861-6" />
    <path
       style="fill:none;stroke:#000000;stroke-width:2.11667;stroke-linecap:round;stroke-linejoin:miter;stroke-miterlimit:4;stroke-dasharray:none;stroke-opacity:1"
       d="m 114.3,46.566663 c 0,7.408333 0,7.408333 0,7.408333"
       id="path898" />
    <path
       style="fill:none;stroke:#000000;stroke-width:2.11667;stroke-linecap:round;stroke-linejoin:miter;stroke-miterlimit:4;stroke-dasharray:none;stroke-opacity:1"
       d="m 80.433324,46.566663 c 0,7.408333 0,7.408333 0,7.408333"
       id="path896" />
    <rect
       style="fill:#ffffff;stroke:#000000;stroke-width:1.05833;stroke-linecap:round;stroke-linejoin:bevel;stop-color:#000000"
       id="rect883"
       width="101.6"
       height="42.333332"
       x="29.63332"
       y="4.2333317" />
    <path
       style="fill:none;stroke:#333333;stroke-width:2.11667;stroke-linecap:round;stroke-linejoin:bevel;stroke-miterlimit:4;stroke-dasharray:none;stroke-opacity:1"
       d="m 78.316658,46.566666 -48.683325,1e-6 V 4.2333344 H 131.23333 V 46.566667 h -14.81667"
       id="path902"
       sodipodi:nodetypes="cccccc" />
    <circle
       style="fill:#000000;stroke:#000000;stroke-width:1.05833;stroke-linecap:round;stroke-linejoin:bevel;stop-color:#000000"
       id="path1027"
       cx="31.749996"
       cy="6.3500004"
       r="2.1166666" />
    <circle
       style="fill:#000000;stroke:#000000;stroke-width:1.05833;stroke-linecap:round;stroke-linejoin:bevel;stop-color:#000000"
       id="path1029"
       cx="31.749996"
       cy="44.450001"
       r="2.1166666" />
    <circle
       style="fill:#000000;stroke:#000000;stroke-width:1.05833;stroke-linecap:round;stroke-linejoin:bevel;stop-color:#000000"
       id="path1031"
       cx="129.11665"
       cy="44.450001"
       r="2.1166666" />
    <circle
       style="fill:#000000;stroke:#000000;stroke-width:1.05833;stroke-linecap:round;stroke-linejoin:bevel;stop-color:#000000"
       id="path1033"
       cx="129.11665"
       cy="6.3500004"
       r="2.1166666" />
  </g>
  <g
     inkscape:groupmode="layer"
     id="layer2"
     inkscape:label="Bedding"
     style="opacity:1;mix-blend-mode:normal;filter:url(#filter32)">
    <rect
       style="opacity:1;fill:#ffffff;stroke:#000000;stroke-width:1.05833;stroke-linecap:round;stroke-linejoin:round;stop-color:#000000"
       id="rect851"
       width="93.133324"
       height="33.866665"
       x="33.866665"
       y="-42.333332"
       rx="4.2333331"
       ry="4.2333331"
       transform="scale(1,-1)" />
    <rect
       style="opacity:1;fill:#ff0000;stroke:#000000;stroke-width:1.05833;stroke-linecap:round;stroke-linejoin:round;stop-color:#000000"
       id="rect855"
       width="73.025002"
       height="33.866665"
       x="33.866665"
       y="-42.333332"
       rx="4.2333331"
       ry="4.2333331"
       transform="scale(1,-1)" />
    <path
       style="opacity:1;fill:none;stroke:#800000;stroke-width:0.79375;stroke-linecap:butt;stroke-linejoin:miter;stroke-miterlimit:4;stroke-dasharray:none;stroke-opacity:1"
       d="m 102.65832,40.216666 v -12.7 L 98.42499,10.583333"
       id="path859" />
    <path
       style="opacity:1;fill:none;stroke:#800000;stroke-width:0.79375;stroke-linecap:butt;stroke-linejoin:miter;stroke-miterlimit:4;stroke-dasharray:none;stroke-opacity:1"
       d="M 98.424991,40.821428 V 31.749999 L 94.191657,19.654761"
       id="path859-3" />
    <path
       style="opacity:1;fill:none;stroke:#800000;stroke-width:0.793752;stroke-linecap:butt;stroke-linejoin:miter;stroke-miterlimit:4;stroke-dasharray:none;stroke-opacity:1"
       d="M 94.191658,41.42619 V 35.983333 L 89.958324,28.72619"
       id="path859-3-6" />
    <path
       style="opacity:1;fill:none;stroke:#800000;stroke-width:0.79375;stroke-linecap:butt;stroke-linejoin:miter;stroke-miterlimit:4;stroke-dasharray:none;stroke-opacity:1"
       d="m 38.099999,29.633332 v 4.233334 l 4.233327,4.233333"
       id="path901" />
    <rect
       style="opacity:1;fill:url(#radialGradient1325);fill-opacity:1;stroke:#000000;stroke-width:1.05833;stroke-linecap:round;stroke-linejoin:round;stop-color:#000000"
       id="rect853-3"
       width="15.801233"
       height="29.636999"
       x="109.10778"
       y="-39.946156"
       rx="4.2333317"
       ry="4.2333322"
       transform="matrix(0.99999765,0.00216664,0.00246355,-0.99999697,0,0)" />
  </g>
</svg>
